<?xml version="1.0" encoding="UTF-8"?>
<X3D profile='Full' version='3.1'  xmlns:xsd='http://www.w3.org/2001/XMLSchema-instance' xsd:noNamespaceSchemaLocation =' http://www.web3d.org/specifications/x3d-3.1.xsd '>
  <Scene>
    <DirectionalLight DEF="light" intensity="1" direction="0 -1 0" color="1.0 1.0 1.0" on="false" />
    <!--<PointLight DEF="greenpoint" on='false' intensity='0.9000' color='0.0 1.0 0.0' location='0 0.5 0.5 ' radius='5.0000' />-->

    <!--<PointLight DEF="redpoint" on='false' intensity='0.9000' color='1.0 0.0 0.0' location='0 0.5 0.5 ' radius='5.0000' />-->

    <!-- Lampenfuß -->
    <Transform DEF="basis" >
      <Shape>
        <Cylinder height="0.1" radius="0.5"/>
        <Appearance>
          <Material diffuseColor="0.8 0.8 0.8" />
      </Appearance>
  </Shape>
</Transform>

<!-- Lampenhals -->
<Transform DEF="Basis2" translation="0 0.5 0">
  <Shape>
    <Cylinder height="0.8" radius="0.1"/>
    <Appearance>
      <Material diffuseColor="0.8 0.8 0.8" />
  </Appearance>
</Shape>
</Transform>

<!-- Leuchtmittel -->
<!-- animiertes Transform immer kapseln in ein normales Transform, wo die absolute Position drin steht -->
<Transform translation="0 1 0" DEF="ball_transform">
  <Group>
    <TouchSensor DEF="touch" description="Bitte drueberfahren!" />
    <!-- to move the center in the world -->
    <Shape>
      <Sphere radius="0.1" />
      <Appearance>
        <Material DEF="Kugel_M" diffuseColor="1 1 1" />
    </Appearance>
</Shape>
</Group>
</Transform>

<!-- === Door State Machine ===  -->
<BooleanToggle DEF="openCloseToggler" />
<ROUTE fromNode="touch" fromField="isActive" toNode="openCloseToggler" toField="set_boolean" />

<!-- get inverted open / closed states from the openCloseTogglerFilter later -->
<BooleanFilter DEF="openCloseTogglerFilter" />
<ROUTE fromNode="openCloseToggler" fromField="toggle" toNode="openCloseTogglerFilter" toField="set_boolean" />

<!-- door open = state true,  door closed = state false -->
<TimeTrigger DEF="openTrigger" />
<TimeTrigger DEF="closeTrigger" />
<ROUTE fromNode="openCloseTogglerFilter" fromField="inputTrue"  toNode="openTrigger"  toField="set_boolean" />
<ROUTE fromNode="openCloseTogglerFilter" fromField="inputFalse" toNode="closeTrigger" toField="set_boolean" />

<!-- ===== open the door ===== -->
<TimeSensor DEF='openClock' cycleInterval='4'/>
<!-- ClockNumber1 is started when the user clicks in the ball and the new state will be open -->
<ROUTE fromNode='openTrigger' fromField='triggerTime' toNode='openClock' toField='startTime'/>

<!-- put SplineScalarInterpolator between openClock & doorPositionInterpolator to open the door smoothly -->

<PositionInterpolator DEF='doorPositionInterpolator' key='0 1' keyValue='0 1 0   0 1.5 0'/>
<ROUTE fromNode='openClock' fromField='fraction_changed' toNode='doorPositionInterpolator' toField='set_fraction'/>
<ROUTE fromNode='doorPositionInterpolator' fromField='value_changed' toNode='ball_transform' toField='translation'/>


<!-- ===== close the door ==== -->
<TimeSensor DEF="reverseClock" cycleInterval='2'/>
<ROUTE fromNode="closeTrigger" fromField="triggerTime" toNode="reverseClock" toField="startTime" />

<!--<ScalarInterpolator DEF='reverseInterpolator' key='0 1' keyValue='1 0'/>-->
<!-- smoothly closing with the non linear SplineScalarInterpolator -->
<SplineScalarInterpolator DEF='reverseInterpolator' key="0 0.2 0.5 0.8 1" keyValue="1 0.9 0.5 0.1 0" />
<ROUTE fromNode='reverseClock' fromField='fraction_changed' toNode='reverseInterpolator' toField='set_fraction'/>

<ROUTE fromNode='reverseInterpolator' fromField='value_changed' toNode='doorPositionInterpolator' toField='set_fraction'/>

<!-- ===== change color of Sphere ===== -->
<ColorInterpolator DEF='doorColorInterpolator' key='0 1' keyValue='1 1 1  0 1 0'/> <!-- Color Sphere: gray to green -->
<ROUTE fromNode='doorColorInterpolator' fromField='value_changed' toNode='Kugel_M' toField='diffuseColor'/>

<ROUTE fromNode='openClock' fromField='fraction_changed' toNode='doorColorInterpolator' toField='set_fraction'/>
<ROUTE fromNode='reverseInterpolator' fromField='value_changed' toNode='doorColorInterpolator' toField='set_fraction'/>

</Scene>
</X3D>
