<?xml version="1.0" encoding="UTF-8"?>
<!DOCTYPE X3D PUBLIC "ISO//Web3D//DTD X3D 3.0//EN" "http://www.web3d.org/specifications/x3d-3.0.dtd">
<X3D version="3.0" profile="Immersive" xmlns:xsd="http://www.w3.org/2001/XMLSchema-instance" xsd:noNamespaceSchemaLocation="http://www.web3d.org/specifications/x3d-3.0.xsd">
	<head>
		<meta name="filename" content="Earth.x3d" />
	</head>
	<Scene>
		<Shape>
			<Sphere radius="1" solid="true"></Sphere>
				<Appearance>
					<Material
							diffuseColor="1 1 1"
							ambientIntensity="0.3"
							shininess="0.0"
						/>

					<ImageTexture DEF="IM_Earth_jpg"
					url='Bilder/16k_earth_without_clouds.jpg' 				
					/>
					<!-- 
					url='Bilder\\Erde\\4k_earth_daymap_relief.png' 
					url='Bilder\\Erde\\16k_earth_without_clouds.jpg'
					-->
					
				</Appearance>
		</Shape>

		
	</Scene>
</X3D>