<?xml version="1.0" encoding="UTF-8"?>
<!DOCTYPE X3D PUBLIC "ISO//Web3D//DTD X3D 3.0//EN" "http://www.web3d.org/specifications/x3d-3.0.dtd">
<X3D version="3.0" profile="Immersive" xmlns:xsd="http://www.w3.org/2001/XMLSchema-instance" xsd:noNamespaceSchemaLocation="http://www.web3d.org/specifications/x3d-3.0.xsd">
	<head>
		<meta name="filename" content="ISS_Innenraum_Luftschleuse_Außen.x3d" />
		<meta name="generator" content="Blender 2.79 (sub 0)" />
    <meta name="description" content="Blender Export der äußeren Luftschleuse" />
    <meta name="author" content="Valentin Schröter" />
	</head>
	<Scene>
		
		<Transform DEF="Cube_038_TRANSFORM"
		           translation="1.217761 1.186281 -2.095155"
		           scale="0.039596 0.090317 0.015853"
		           rotation="0.000000 -0.000000 1.000000 3.141593"
		           >
			<Transform DEF="Cube_038_ifs_TRANSFORM"
			           translation="0.000000 0.000000 0.000012"
			           scale="1.000000 1.000000 1.000000"
			           rotation="0.000000 0.000000 0.000000 0.000000"
			           >
				<Group DEF="group_ME_Cube_045">
					<Shape>
						<Appearance>
							<ImageTexture DEF="IM_MetallTextur2_jpg"
							              url='"Bilder/MetallTextur2.jpg" "MetallTextur2.jpg" "C:/Users/Valentin/Documents/Studium/Bitbucket/VR_ISS/ISS/Bilder/MetallTextur2.jpg"'
							              />
							<TextureTransform 
							                  translation="0.000000 0.000000"
							                  scale="1.000000 1.000000"
							                  rotation="0.000000"
							                  />
							<Material DEF="MA_DarkMetall"
							          diffuseColor="0.800 0.800 0.800"
							          specularColor="0.644 0.644 0.644"
							          emissiveColor="0.000 0.000 0.000"
							          ambientIntensity="0.333"
							          shininess="0.279"
							          transparency="0.0"
							          />
						</Appearance>
						<IndexedFaceSet solid="true"
						                coordIndex="0 1 3 2 -1 2 3 7 6 -1 6 7 5 4 -1 5 1 9 10 -1 4 0 2 6 -1 7 3 1 5 -1 11 10 9 8 -1 4 5 10 11 -1 1 0 8 9 -1 0 4 11 8 -1 "
						                >
							<Coordinate DEF="coords_ME_Cube_045"
							            point="-1.000000 -0.355832 -1.000000 -1.000000 -0.355832 1.000000 -1.000000 0.972673 -1.000000 -1.000000 0.972673 1.000000 1.000000 -0.355832 -1.000000 1.000000 -0.355832 1.000000 1.000000 0.972673 -1.000000 1.000000 0.972673 1.000000 -0.376504 -0.616841 -1.000000 -0.376504 -0.616841 1.000000 0.376504 -0.616841 1.000000 0.376504 -0.616841 -1.000000 "
							            />
						</IndexedFaceSet>
					</Shape>
				</Group>
			</Transform>
		</Transform>
		<Transform DEF="Cylinder_047_TRANSFORM"
		           translation="1.217761 1.197181 -2.495155"
		           scale="0.020786 0.020786 0.384149"
		           rotation="0.000000 -0.000000 1.000000 3.141593"
		           >
			<Transform DEF="Cylinder_047_ifs_TRANSFORM"
			           translation="0.000000 0.000005 -0.000000"
			           scale="1.000000 1.000000 1.000000"
			           rotation="1.000000 0.000000 0.000000 0.000000"
			           >
				<Group DEF="group_ME_Cylinder_054">
					<Shape>
						<Appearance>
							<Material DEF="MA_Material"
							          diffuseColor="0.050 0.493 0.800"
							          specularColor="0.802 0.802 0.802"
							          emissiveColor="0.000 0.000 0.000"
							          ambientIntensity="0.333"
							          shininess="0.520"
							          transparency="0.0"
							          />
						</Appearance>
						<IndexedFaceSet solid="true"
						                creaseAngle="4.0000"
						                coordIndex="0 1 3 2 -1 2 3 5 4 -1 4 5 7 6 -1 6 7 9 8 -1 8 9 11 10 -1 10 11 13 12 -1 12 13 15 14 -1 14 15 17 16 -1 16 17 19 18 -1 18 19 21 20 -1 5 3 1 -1 1 23 21 -1 21 19 17 -1 17 15 13 -1 13 11 9 -1 9 7 5 -1 5 1 21 -1 21 17 13 -1 13 9 5 -1 21 13 5 -1 20 21 23 22 -1 1 0 22 23 -1 22 0 2 -1 2 4 6 -1 6 8 10 -1 10 12 14 -1 14 16 18 -1 18 20 22 -1 22 2 6 -1 6 10 14 -1 14 18 22 -1 6 14 22 -1 "
						                >
							<Coordinate DEF="coords_ME_Cylinder_054"
							            point="0.000000 1.000000 -1.000000 0.000000 1.000000 1.000000 0.500000 0.866025 -1.000000 0.500000 0.866025 1.000000 0.866025 0.500000 -1.000000 0.866025 0.500000 1.000000 1.000000 -0.000000 -1.000000 1.000000 -0.000000 1.000000 0.866025 -0.500000 -1.000000 0.866025 -0.500000 1.000000 0.500000 -0.866025 -1.000000 0.500000 -0.866025 1.000000 0.000000 -1.000000 -1.000000 0.000000 -1.000000 1.000000 -0.500000 -0.866026 -1.000000 -0.500000 -0.866026 1.000000 -0.866025 -0.500000 -1.000000 -0.866025 -0.500000 1.000000 -1.000000 -0.000000 -1.000000 -1.000000 -0.000000 1.000000 -0.866026 0.499999 -1.000000 -0.866026 0.499999 1.000000 -0.500001 0.866025 -1.000000 -0.500001 0.866025 1.000000 "
							            />
						</IndexedFaceSet>
					</Shape>
				</Group>
			</Transform>
		</Transform>
		<Transform DEF="Cube_037_TRANSFORM"
		           translation="1.217761 1.128102 -2.895154"
		           scale="0.039596 0.090317 0.015853"
		           rotation="0.000000 -0.000000 1.000000 3.141593"
		           >
			<Transform DEF="Cube_037_ifs_TRANSFORM"
			           translation="0.000000 -0.000001 -0.000003"
			           scale="1.000000 1.000000 1.000000"
			           rotation="0.000000 0.000000 0.000000 0.000000"
			           >
				<Group DEF="group_ME_Cube_044">
					<Shape>
						<Appearance>
							<ImageTexture USE="IM_MetallTextur2_jpg" />
							<TextureTransform 
							                  translation="0.000000 0.000000"
							                  scale="1.000000 1.000000"
							                  rotation="0.000000"
							                  />
							<Material USE="MA_DarkMetall" />
						</Appearance>
						<IndexedFaceSet solid="true"
						                coordIndex="0 1 3 2 -1 2 3 7 6 -1 6 7 5 4 -1 5 1 9 10 -1 4 0 2 6 -1 7 3 1 5 -1 11 10 9 8 -1 4 5 10 11 -1 1 0 8 9 -1 0 4 11 8 -1 "
						                >
							<Coordinate DEF="coords_ME_Cube_044"
							            point="-1.000000 -1.000000 -1.000000 -1.000000 -1.000000 1.000000 -1.000000 0.328506 -1.000000 -1.000000 0.328506 1.000000 1.000000 -1.000000 -1.000000 1.000000 -1.000000 1.000000 1.000000 0.328506 -1.000000 1.000000 0.328506 1.000000 -0.376504 -1.261009 -1.000000 -0.376504 -1.261009 1.000000 0.376504 -1.261009 1.000000 0.376504 -1.261009 -1.000000 "
							            />
						</IndexedFaceSet>
					</Shape>
				</Group>
			</Transform>
		</Transform>
		<Transform DEF="Cube_036_TRANSFORM"
		           translation="1.008461 1.128102 -3.278387"
		           scale="0.039596 0.090317 0.015853"
		           rotation="0.469472 -0.000000 0.882948 3.141593"
		           >
			<Transform DEF="Cube_036_ifs_TRANSFORM"
			           translation="0.000014 0.000001 0.000010"
			           scale="1.000000 1.000000 1.000000"
			           rotation="0.000000 -0.000000 0.000000 0.000000"
			           >
				<Group DEF="group_ME_Cube_043">
					<Shape>
						<Appearance>
							<ImageTexture USE="IM_MetallTextur2_jpg" />
							<TextureTransform 
							                  translation="0.000000 0.000000"
							                  scale="1.000000 1.000000"
							                  rotation="0.000000"
							                  />
							<Material USE="MA_DarkMetall" />
						</Appearance>
						<IndexedFaceSet solid="true"
						                coordIndex="0 1 3 2 -1 2 3 7 6 -1 6 7 5 4 -1 5 1 9 10 -1 4 0 2 6 -1 7 3 1 5 -1 11 10 9 8 -1 4 5 10 11 -1 1 0 8 9 -1 0 4 11 8 -1 "
						                >
							<Coordinate DEF="coords_ME_Cube_043"
							            point="-1.000000 -1.000000 -1.000000 -1.000000 -1.000000 1.000000 -1.000000 0.328506 -1.000000 -1.000000 0.328506 1.000000 1.000000 -1.000000 -1.000000 1.000000 -1.000000 1.000000 1.000000 0.328506 -1.000000 1.000000 0.328506 1.000000 -0.376504 -1.261009 -1.000000 -0.376504 -1.261009 1.000000 0.376504 -1.261009 1.000000 0.376504 -1.261009 -1.000000 "
							            />
						</IndexedFaceSet>
					</Shape>
				</Group>
			</Transform>
		</Transform>
		<Transform DEF="Cylinder_046_TRANSFORM"
		           translation="0.676846 1.197181 -3.502063"
		           scale="0.020786 0.020786 0.384149"
		           rotation="0.469472 -0.000000 0.882948 3.141593"
		           >
			<Transform DEF="Cylinder_046_ifs_TRANSFORM"
			           translation="-0.000003 0.000002 0.000000"
			           scale="1.000000 1.000000 1.000000"
			           rotation="-0.000000 -0.000000 -0.000000 0.000000"
			           >
				<Group DEF="group_ME_Cylinder_053">
					<Shape>
						<Appearance>
							<Material USE="MA_Material" />
						</Appearance>
						<IndexedFaceSet solid="true"
						                creaseAngle="4.0000"
						                coordIndex="0 1 3 2 -1 2 3 5 4 -1 4 5 7 6 -1 6 7 9 8 -1 8 9 11 10 -1 10 11 13 12 -1 12 13 15 14 -1 14 15 17 16 -1 16 17 19 18 -1 18 19 21 20 -1 5 3 1 -1 1 23 21 -1 21 19 17 -1 17 15 13 -1 13 11 9 -1 9 7 5 -1 5 1 21 -1 21 17 13 -1 13 9 5 -1 21 13 5 -1 20 21 23 22 -1 1 0 22 23 -1 22 0 2 -1 2 4 6 -1 6 8 10 -1 10 12 14 -1 14 16 18 -1 18 20 22 -1 22 2 6 -1 6 10 14 -1 14 18 22 -1 6 14 22 -1 "
						                >
							<Coordinate DEF="coords_ME_Cylinder_053"
							            point="0.000000 1.000000 -1.000000 0.000000 1.000000 1.000000 0.500000 0.866025 -1.000000 0.500000 0.866025 1.000000 0.866025 0.500000 -1.000000 0.866025 0.500000 1.000000 1.000000 -0.000000 -1.000000 1.000000 -0.000000 1.000000 0.866025 -0.500000 -1.000000 0.866025 -0.500000 1.000000 0.500000 -0.866025 -1.000000 0.500000 -0.866025 1.000000 0.000000 -1.000000 -1.000000 0.000000 -1.000000 1.000000 -0.500000 -0.866026 -1.000000 -0.500000 -0.866026 1.000000 -0.866025 -0.500000 -1.000000 -0.866025 -0.500000 1.000000 -1.000000 -0.000000 -1.000000 -1.000000 -0.000000 1.000000 -0.866026 0.499999 -1.000000 -0.866026 0.499999 1.000000 -0.500001 0.866025 -1.000000 -0.500001 0.866025 1.000000 "
							            />
						</IndexedFaceSet>
					</Shape>
				</Group>
			</Transform>
		</Transform>
		<Transform DEF="Cube_035_TRANSFORM"
		           translation="0.345231 1.128102 -3.725740"
		           scale="0.039596 0.090317 0.015853"
		           rotation="0.469472 -0.000000 0.882948 3.141593"
		           >
			<Transform DEF="Cube_035_ifs_TRANSFORM"
			           translation="0.000003 0.000000 -0.000002"
			           scale="1.000000 1.000000 1.000000"
			           rotation="0.000000 -0.000000 0.000000 0.000000"
			           >
				<Group DEF="group_ME_Cube_042">
					<Shape>
						<Appearance>
							<ImageTexture USE="IM_MetallTextur2_jpg" />
							<TextureTransform 
							                  translation="0.000000 0.000000"
							                  scale="1.000000 1.000000"
							                  rotation="0.000000"
							                  />
							<Material USE="MA_DarkMetall" />
						</Appearance>
						<IndexedFaceSet solid="true"
						                coordIndex="0 1 3 2 -1 2 3 7 6 -1 6 7 5 4 -1 5 1 9 10 -1 4 0 2 6 -1 7 3 1 5 -1 11 10 9 8 -1 4 5 10 11 -1 1 0 8 9 -1 0 4 11 8 -1 "
						                >
							<Coordinate DEF="coords_ME_Cube_042"
							            point="-1.000000 -1.000000 -1.000000 -1.000000 -1.000000 1.000000 -1.000000 0.328506 -1.000000 -1.000000 0.328506 1.000000 1.000000 -1.000000 -1.000000 1.000000 -1.000000 1.000000 1.000000 0.328506 -1.000000 1.000000 0.328506 1.000000 -0.376504 -1.261009 -1.000000 -0.376504 -1.261009 1.000000 0.376504 -1.261009 1.000000 0.376504 -1.261009 -1.000000 "
							            />
						</IndexedFaceSet>
					</Shape>
				</Group>
			</Transform>
		</Transform>
		<Transform DEF="Cube_034_TRANSFORM"
		           translation="0.345231 1.128102 -3.725740"
		           scale="0.039596 0.090317 0.015853"
		           rotation="0.469472 -0.000000 0.882948 3.141593"
		           >
			<Transform DEF="Cube_034_ifs_TRANSFORM"
			           translation="0.000003 0.000000 -0.000002"
			           scale="1.000000 1.000000 1.000000"
			           rotation="0.000000 -0.000000 0.000000 0.000000"
			           >
				<Group DEF="group_ME_Cube_041">
					<Shape>
						<Appearance>
							<ImageTexture USE="IM_MetallTextur2_jpg" />
							<TextureTransform 
							                  translation="0.000000 0.000000"
							                  scale="1.000000 1.000000"
							                  rotation="0.000000"
							                  />
							<Material USE="MA_DarkMetall" />
						</Appearance>
						<IndexedFaceSet solid="true"
						                coordIndex="0 2 3 1 -1 2 6 7 3 -1 6 4 5 7 -1 5 10 9 1 -1 2 0 4 6 -1 7 5 1 3 -1 11 8 9 10 -1 4 11 10 5 -1 8 0 1 9 -1 0 8 11 4 -1 "
						                >
							<Coordinate DEF="coords_ME_Cube_041"
							            point="9.005098 -1.000000 -38.049515 9.747515 -1.000000 -38.798725 9.005098 0.328506 -38.049515 9.747515 0.328506 -38.798725 9.754313 -1.000000 -33.417774 10.496729 -1.000000 -34.166985 9.754313 0.328506 -33.417774 10.496729 0.328506 -34.166985 9.238665 -1.261009 -36.605576 9.981081 -1.261009 -37.354790 10.263163 -1.261009 -35.610924 9.520746 -1.261009 -34.861710 "
							            />
						</IndexedFaceSet>
					</Shape>
				</Group>
			</Transform>
		</Transform>
		<Transform DEF="Cylinder_045_TRANSFORM"
		           translation="0.676846 1.197181 -3.502063"
		           scale="0.020786 0.020786 0.384149"
		           rotation="0.469472 -0.000000 0.882948 3.141593"
		           >
			<Transform DEF="Cylinder_045_ifs_TRANSFORM"
			           translation="-0.000003 0.000002 0.000000"
			           scale="1.000000 1.000000 1.000000"
			           rotation="-0.000000 -0.000000 -0.000000 0.000000"
			           >
				<Group DEF="group_ME_Cylinder_052">
					<Shape>
						<Appearance>
							<Material USE="MA_Material" />
						</Appearance>
						<IndexedFaceSet solid="true"
						                creaseAngle="4.0000"
						                coordIndex="0 2 3 1 -1 2 4 5 3 -1 4 6 7 5 -1 6 8 9 7 -1 8 10 11 9 -1 10 12 13 11 -1 12 14 15 13 -1 14 16 17 15 -1 16 18 19 17 -1 18 20 21 19 -1 1 3 5 -1 5 7 9 -1 9 11 13 -1 13 15 17 -1 17 19 21 -1 21 23 1 -1 1 5 9 -1 9 13 17 -1 17 21 1 -1 9 17 1 -1 20 22 23 21 -1 22 0 1 23 -1 2 0 22 -1 22 20 18 -1 18 16 14 -1 14 12 10 -1 10 8 6 -1 6 4 2 -1 2 22 18 -1 18 14 10 -1 10 6 2 -1 18 10 2 -1 "
						                >
							<Coordinate DEF="coords_ME_Cylinder_052"
							            point="19.282429 1.000000 -2.546819 53.553738 1.000000 -3.296032 19.469732 0.866025 -2.521735 53.741043 0.866025 -3.270948 19.606848 0.500000 -2.503372 53.878159 0.500000 -3.252585 19.657036 -0.000000 -2.496651 53.928345 -0.000000 -3.245864 19.606848 -0.500000 -2.503372 53.878159 -0.500000 -3.252585 19.469732 -0.866025 -2.521735 53.741043 -0.866025 -3.270948 19.282429 -1.000000 -2.546819 53.553738 -1.000000 -3.296032 19.095125 -0.866026 -2.571903 53.366432 -0.866026 -3.321117 18.958010 -0.500000 -2.590266 53.229317 -0.500000 -3.339480 18.907822 -0.000000 -2.596988 53.179131 -0.000000 -3.346201 18.958010 0.499999 -2.590266 53.229317 0.499999 -3.339480 19.095125 0.866025 -2.571903 53.366432 0.866025 -3.321117 "
							            />
						</IndexedFaceSet>
					</Shape>
				</Group>
			</Transform>
		</Transform>
		<Transform DEF="Cube_033_TRANSFORM"
		           translation="1.008461 1.128102 -3.278387"
		           scale="0.039596 0.090317 0.015853"
		           rotation="0.469472 -0.000000 0.882948 3.141593"
		           >
			<Transform DEF="Cube_033_ifs_TRANSFORM"
			           translation="0.000014 0.000001 0.000010"
			           scale="1.000000 1.000000 1.000000"
			           rotation="0.000000 -0.000000 0.000000 0.000000"
			           >
				<Group DEF="group_ME_Cube_040">
					<Shape>
						<Appearance>
							<ImageTexture USE="IM_MetallTextur2_jpg" />
							<TextureTransform 
							                  translation="0.000000 0.000000"
							                  scale="1.000000 1.000000"
							                  rotation="0.000000"
							                  />
							<Material USE="MA_DarkMetall" />
						</Appearance>
						<IndexedFaceSet solid="true"
						                coordIndex="0 2 3 1 -1 2 6 7 3 -1 6 4 5 7 -1 5 10 9 1 -1 2 0 4 6 -1 7 5 1 3 -1 11 8 9 10 -1 4 11 10 5 -1 8 0 1 9 -1 0 8 11 4 -1 "
						                >
							<Coordinate DEF="coords_ME_Cube_040"
							            point="27.737749 -1.000000 -107.417664 28.480165 -1.000000 -108.166878 27.737749 0.328506 -107.417664 28.480165 0.328506 -108.166878 28.486963 -1.000000 -102.785927 29.229380 -1.000000 -103.535141 28.486963 0.328506 -102.785927 29.229380 0.328506 -103.535141 27.971315 -1.261009 -105.973732 28.713732 -1.261009 -106.722946 28.995813 -1.261009 -104.979073 28.253397 -1.261009 -104.229858 "
							            />
						</IndexedFaceSet>
					</Shape>
				</Group>
			</Transform>
		</Transform>
		<Transform DEF="Cube_032_TRANSFORM"
		           translation="-1.217762 1.128102 -2.895154"
		           scale="0.039596 0.090317 0.015853"
		           rotation="0.000000 -0.000000 1.000000 3.141593"
		           >
			<Transform DEF="Cube_032_ifs_TRANSFORM"
			           translation="0.000002 -0.000001 -0.000003"
			           scale="1.000000 1.000000 1.000000"
			           rotation="0.000000 0.000000 0.000000 0.000000"
			           >
				<Group DEF="group_ME_Cube_039">
					<Shape>
						<Appearance>
							<ImageTexture USE="IM_MetallTextur2_jpg" />
							<TextureTransform 
							                  translation="0.000000 0.000000"
							                  scale="1.000000 1.000000"
							                  rotation="0.000000"
							                  />
							<Material USE="MA_DarkMetall" />
						</Appearance>
						<IndexedFaceSet solid="true"
						                coordIndex="0 1 3 2 -1 2 3 7 6 -1 6 7 5 4 -1 5 1 9 10 -1 4 0 2 6 -1 7 3 1 5 -1 11 10 9 8 -1 4 5 10 11 -1 1 0 8 9 -1 0 4 11 8 -1 "
						                >
							<Coordinate DEF="coords_ME_Cube_039"
							            point="-1.000000 -1.000000 -1.000000 -1.000000 -1.000000 1.000000 -1.000000 0.328506 -1.000000 -1.000000 0.328506 1.000000 1.000000 -1.000000 -1.000000 1.000000 -1.000000 1.000000 1.000000 0.328506 -1.000000 1.000000 0.328506 1.000000 -0.376504 -1.261009 -1.000000 -0.376504 -1.261009 1.000000 0.376504 -1.261009 1.000000 0.376504 -1.261009 -1.000000 "
							            />
						</IndexedFaceSet>
					</Shape>
				</Group>
			</Transform>
		</Transform>
		<Transform DEF="Cylinder_044_TRANSFORM"
		           translation="-1.217762 1.197181 -2.495155"
		           scale="0.020786 0.020786 0.384149"
		           rotation="0.000000 -0.000000 1.000000 3.141593"
		           >
			<Transform DEF="Cylinder_044_ifs_TRANSFORM"
			           translation="0.000000 0.000005 -0.000000"
			           scale="1.000000 1.000000 1.000000"
			           rotation="1.000000 0.000000 0.000000 0.000000"
			           >
				<Group DEF="group_ME_Cylinder_051">
					<Shape>
						<Appearance>
							<Material USE="MA_Material" />
						</Appearance>
						<IndexedFaceSet solid="true"
						                creaseAngle="4.0000"
						                coordIndex="0 1 3 2 -1 2 3 5 4 -1 4 5 7 6 -1 6 7 9 8 -1 8 9 11 10 -1 10 11 13 12 -1 12 13 15 14 -1 14 15 17 16 -1 16 17 19 18 -1 18 19 21 20 -1 5 3 1 -1 1 23 21 -1 21 19 17 -1 17 15 13 -1 13 11 9 -1 9 7 5 -1 5 1 21 -1 21 17 13 -1 13 9 5 -1 21 13 5 -1 20 21 23 22 -1 1 0 22 23 -1 22 0 2 -1 2 4 6 -1 6 8 10 -1 10 12 14 -1 14 16 18 -1 18 20 22 -1 22 2 6 -1 6 10 14 -1 14 18 22 -1 6 14 22 -1 "
						                >
							<Coordinate DEF="coords_ME_Cylinder_051"
							            point="0.000000 1.000000 -1.000000 0.000000 1.000000 1.000000 0.500000 0.866025 -1.000000 0.500000 0.866025 1.000000 0.866025 0.500000 -1.000000 0.866025 0.500000 1.000000 1.000000 -0.000000 -1.000000 1.000000 -0.000000 1.000000 0.866025 -0.500000 -1.000000 0.866025 -0.500000 1.000000 0.500000 -0.866025 -1.000000 0.500000 -0.866025 1.000000 0.000000 -1.000000 -1.000000 0.000000 -1.000000 1.000000 -0.500000 -0.866026 -1.000000 -0.500000 -0.866026 1.000000 -0.866025 -0.500000 -1.000000 -0.866025 -0.500000 1.000000 -1.000000 -0.000000 -1.000000 -1.000000 -0.000000 1.000000 -0.866026 0.499999 -1.000000 -0.866026 0.499999 1.000000 -0.500001 0.866025 -1.000000 -0.500001 0.866025 1.000000 "
							            />
						</IndexedFaceSet>
					</Shape>
				</Group>
			</Transform>
		</Transform>
		<Transform DEF="Cube_031_TRANSFORM"
		           translation="-1.217762 1.128102 -2.095155"
		           scale="0.039596 0.090317 0.015853"
		           rotation="0.000000 -0.000000 1.000000 3.141593"
		           >
			<Transform DEF="Cube_031_ifs_TRANSFORM"
			           translation="0.000002 -0.000001 0.000012"
			           scale="1.000000 1.000000 1.000000"
			           rotation="0.000000 0.000000 0.000000 0.000000"
			           >
				<Group DEF="group_ME_Cube_038">
					<Shape>
						<Appearance>
							<ImageTexture USE="IM_MetallTextur2_jpg" />
							<TextureTransform 
							                  translation="0.000000 0.000000"
							                  scale="1.000000 1.000000"
							                  rotation="0.000000"
							                  />
							<Material USE="MA_DarkMetall" />
						</Appearance>
						<IndexedFaceSet solid="true"
						                coordIndex="0 1 3 2 -1 2 3 7 6 -1 6 7 5 4 -1 5 1 9 10 -1 4 0 2 6 -1 7 3 1 5 -1 11 10 9 8 -1 4 5 10 11 -1 1 0 8 9 -1 0 4 11 8 -1 "
						                >
							<Coordinate DEF="coords_ME_Cube_038"
							            point="-1.000000 -1.000000 -1.000000 -1.000000 -1.000000 1.000000 -1.000000 0.328506 -1.000000 -1.000000 0.328506 1.000000 1.000000 -1.000000 -1.000000 1.000000 -1.000000 1.000000 1.000000 0.328506 -1.000000 1.000000 0.328506 1.000000 -0.376504 -1.261009 -1.000000 -0.376504 -1.261009 1.000000 0.376504 -1.261009 1.000000 0.376504 -1.261009 -1.000000 "
							            />
						</IndexedFaceSet>
					</Shape>
				</Group>
			</Transform>
		</Transform>
		<Transform DEF="Cylinder_043_TRANSFORM"
		           translation="-0.000001 0.392660 -2.495155"
		           scale="0.601818 0.601818 0.315862"
		           rotation="0.000000 0.707107 0.707107 3.141593"
		           >
			<Transform DEF="Cylinder_043_ifs_TRANSFORM"
			           translation="0.000000 0.000000 0.000000"
			           scale="1.000000 1.000000 1.000000"
			           rotation="1.000000 0.000000 0.000000 0.000000"
			           >
				<Group DEF="group_ME_Cylinder_050">
					<Shape>
						<Appearance>
							<ImageTexture USE="IM_MetallTextur2_jpg" />
							<TextureTransform 
							                  translation="0.000000 0.000000"
							                  scale="1.000000 1.000000"
							                  rotation="0.000000"
							                  />
							<Material USE="MA_DarkMetall" />
						</Appearance>
						<IndexedFaceSet solid="true"
						                coordIndex="0 1 3 2 -1 2 3 5 4 -1 4 5 7 6 -1 6 7 9 8 -1 8 9 11 10 -1 10 11 13 12 -1 12 13 15 14 -1 14 15 17 16 -1 16 17 19 18 -1 18 19 21 20 -1 20 21 23 22 -1 22 23 25 24 -1 24 25 27 26 -1 26 27 29 28 -1 27 25 40 -1 27 40 36 -1 46 9 7 -1 48 46 7 -1 29 27 36 -1 29 36 38 -1 48 7 5 -1 50 48 5 -1 31 29 38 -1 31 38 34 -1 50 5 3 -1 62 50 3 -1 1 31 34 -1 42 62 3 -1 1 34 42 -1 3 1 42 -1 28 29 31 30 -1 1 0 30 31 -1 6 8 47 -1 6 47 49 -1 41 24 26 -1 37 41 26 -1 4 6 49 -1 4 49 51 -1 37 26 28 -1 39 37 28 -1 2 4 51 -1 2 51 63 -1 39 28 30 -1 35 39 30 -1 0 2 63 -1 43 35 30 -1 0 63 43 -1 0 43 30 -1 59 58 52 53 -1 49 48 50 51 -1 53 52 44 45 -1 33 32 58 59 -1 47 46 48 49 -1 55 54 32 33 -1 57 56 60 61 -1 61 60 54 55 -1 35 34 38 39 -1 41 40 56 57 -1 63 62 42 43 -1 11 9 46 -1 11 46 44 -1 40 25 23 -1 56 40 23 -1 13 11 44 -1 13 44 52 -1 56 23 21 -1 60 56 21 -1 15 13 52 -1 15 52 58 -1 60 21 19 -1 54 60 19 -1 17 15 58 -1 32 54 19 -1 17 58 32 -1 32 19 17 -1 22 24 41 -1 22 41 57 -1 47 8 10 -1 45 47 10 -1 20 22 57 -1 20 57 61 -1 45 10 12 -1 53 45 12 -1 18 20 61 -1 18 61 55 -1 53 12 14 -1 59 53 14 -1 16 18 55 -1 33 59 14 -1 16 55 33 -1 33 14 16 -1 43 42 34 35 -1 39 38 36 37 -1 51 50 62 63 -1 37 36 40 41 -1 45 44 46 47 -1 "
						                >
							<Coordinate DEF="coords_ME_Cylinder_050"
							            point="-2.225341 0.000000 -0.071028 -2.225341 0.000000 0.071028 -2.055947 0.851601 -0.071028 -2.055947 0.851601 0.071028 -1.573553 1.573554 -0.071028 -1.573553 1.573554 0.071028 -0.851601 2.055947 -0.071028 -0.851601 2.055947 0.071028 0.000000 2.225341 -0.071028 0.000000 2.225341 0.071028 0.851601 2.055947 -0.071028 0.851601 2.055947 0.071028 1.573554 1.573553 -0.071028 1.573554 1.573553 0.071028 2.055947 0.851601 -0.071028 2.055947 0.851601 0.071028 2.225341 0.000000 -0.071028 2.225341 0.000000 0.071028 2.055947 -0.851601 -0.071028 2.055947 -0.851601 0.071028 1.573554 -1.573553 -0.071028 1.573554 -1.573553 0.071028 0.851601 -2.055947 -0.071028 0.851601 -2.055947 0.071028 -0.000000 -2.225341 -0.071028 -0.000000 -2.225341 0.071028 -0.851602 -2.055947 -0.071028 -0.851602 -2.055947 0.071028 -1.573554 -1.573553 -0.071028 -1.573554 -1.573553 0.071028 -2.055947 -0.851600 -0.071028 -2.055947 -0.851600 0.071028 2.077652 0.000001 0.071028 2.077652 0.000001 -0.071028 -1.919501 -0.795081 0.071028 -1.919501 -0.795081 -0.071028 -0.795083 -1.919500 0.071028 -0.795084 -1.919499 -0.071028 -1.469122 -1.469121 0.071028 -1.469123 -1.469121 -0.071029 -0.000000 -2.077652 0.071028 -0.000000 -2.077652 -0.071028 -2.077652 0.000001 0.071028 -2.077652 0.000001 -0.071028 0.795083 1.919501 0.071028 0.795083 1.919500 -0.071028 0.000000 2.077653 0.071028 0.000000 2.077653 -0.071028 -0.795083 1.919501 0.071028 -0.795083 1.919501 -0.071028 -1.469122 1.469123 0.071028 -1.469122 1.469122 -0.071028 1.469122 1.469122 0.071029 1.469122 1.469122 -0.071028 1.919500 -0.795082 0.071028 1.919500 -0.795082 -0.071028 0.795083 -1.919500 0.071028 0.795083 -1.919500 -0.071028 1.919500 0.795084 0.071028 1.919500 0.795084 -0.071028 1.469122 -1.469121 0.071028 1.469122 -1.469121 -0.071028 -1.919500 0.795084 0.071028 -1.919500 0.795084 -0.071028 "
							            />
						</IndexedFaceSet>
					</Shape>
				</Group>
			</Transform>
		</Transform>
		<Transform DEF="Cylinder_042_TRANSFORM"
		           translation="-0.000001 0.239320 -2.495155"
		           scale="1.000000 1.000000 0.524847"
		           rotation="0.000000 0.707107 0.707107 3.141593"
		           >
			<Transform DEF="Cylinder_042_ifs_TRANSFORM"
			           translation="0.000000 0.000000 0.000000"
			           scale="1.000000 1.000000 1.000000"
			           rotation="1.000000 0.000000 0.000000 0.000000"
			           >
				<Group DEF="group_ME_Cylinder_049">
					<Shape>
						<Appearance>
							<ImageTexture USE="IM_MetallTextur2_jpg" />
							<TextureTransform 
							                  translation="0.000000 0.000000"
							                  scale="1.000000 1.000000"
							                  rotation="0.000000"
							                  />
							<Material USE="MA_DarkMetall" />
						</Appearance>
						<IndexedFaceSet solid="true"
						                coordIndex="0 1 3 2 -1 2 3 5 4 -1 4 5 7 6 -1 6 7 9 8 -1 8 9 11 10 -1 10 11 13 12 -1 12 13 15 14 -1 14 15 17 16 -1 16 17 19 18 -1 18 19 21 20 -1 20 21 23 22 -1 22 23 25 24 -1 24 25 27 26 -1 26 27 29 28 -1 27 25 40 -1 27 40 36 -1 46 9 7 -1 48 46 7 -1 29 27 36 -1 29 36 38 -1 48 7 5 -1 50 48 5 -1 31 29 38 -1 31 38 34 -1 50 5 3 -1 62 50 3 -1 1 31 34 -1 42 62 3 -1 1 34 42 -1 3 1 42 -1 28 29 31 30 -1 1 0 30 31 -1 6 8 47 -1 6 47 49 -1 41 24 26 -1 37 41 26 -1 4 6 49 -1 4 49 51 -1 37 26 28 -1 39 37 28 -1 2 4 51 -1 2 51 63 -1 39 28 30 -1 35 39 30 -1 0 2 63 -1 43 35 30 -1 0 63 43 -1 0 43 30 -1 59 58 52 53 -1 49 48 50 51 -1 53 52 44 45 -1 33 32 58 59 -1 47 46 48 49 -1 55 54 32 33 -1 57 56 60 61 -1 61 60 54 55 -1 35 34 38 39 -1 41 40 56 57 -1 63 62 42 43 -1 11 9 46 -1 11 46 44 -1 40 25 23 -1 56 40 23 -1 13 11 44 -1 13 44 52 -1 56 23 21 -1 60 56 21 -1 15 13 52 -1 15 52 58 -1 60 21 19 -1 54 60 19 -1 17 15 58 -1 32 54 19 -1 17 58 32 -1 32 19 17 -1 22 24 41 -1 22 41 57 -1 47 8 10 -1 45 47 10 -1 20 22 57 -1 20 57 61 -1 45 10 12 -1 53 45 12 -1 18 20 61 -1 18 61 55 -1 53 12 14 -1 59 53 14 -1 16 18 55 -1 33 59 14 -1 16 55 33 -1 33 14 16 -1 43 42 34 35 -1 39 38 36 37 -1 51 50 62 63 -1 37 36 40 41 -1 45 44 46 47 -1 "
						                >
							<Coordinate DEF="coords_ME_Cylinder_049"
							            point="-2.225341 0.000000 -0.071028 -2.225341 0.000000 0.071028 -2.055947 0.851601 -0.071028 -2.055947 0.851601 0.071028 -1.573553 1.573554 -0.071028 -1.573553 1.573554 0.071028 -0.851601 2.055947 -0.071028 -0.851601 2.055947 0.071028 0.000000 2.225341 -0.071028 0.000000 2.225341 0.071028 0.851601 2.055947 -0.071028 0.851601 2.055947 0.071028 1.573554 1.573553 -0.071028 1.573554 1.573553 0.071028 2.055947 0.851601 -0.071028 2.055947 0.851601 0.071028 2.225341 0.000000 -0.071028 2.225341 0.000000 0.071028 2.055947 -0.851601 -0.071028 2.055947 -0.851601 0.071028 1.573554 -1.573553 -0.071028 1.573554 -1.573553 0.071028 0.851601 -2.055947 -0.071028 0.851601 -2.055947 0.071028 -0.000000 -2.225341 -0.071028 -0.000000 -2.225341 0.071028 -0.851602 -2.055947 -0.071028 -0.851602 -2.055947 0.071028 -1.573554 -1.573553 -0.071028 -1.573554 -1.573553 0.071028 -2.055947 -0.851600 -0.071028 -2.055947 -0.851600 0.071028 2.077652 0.000001 0.071028 2.077652 0.000001 -0.071028 -1.919501 -0.795081 0.071028 -1.919501 -0.795081 -0.071028 -0.795083 -1.919500 0.071028 -0.795084 -1.919499 -0.071028 -1.469122 -1.469121 0.071028 -1.469123 -1.469121 -0.071029 -0.000000 -2.077652 0.071028 -0.000000 -2.077652 -0.071028 -2.077652 0.000001 0.071028 -2.077652 0.000001 -0.071028 0.795083 1.919501 0.071028 0.795083 1.919500 -0.071028 0.000000 2.077653 0.071028 0.000000 2.077653 -0.071028 -0.795083 1.919501 0.071028 -0.795083 1.919501 -0.071028 -1.469122 1.469123 0.071028 -1.469122 1.469122 -0.071028 1.469122 1.469122 0.071029 1.469122 1.469122 -0.071028 1.919500 -0.795082 0.071028 1.919500 -0.795082 -0.071028 0.795083 -1.919500 0.071028 0.795083 -1.919500 -0.071028 1.919500 0.795084 0.071028 1.919500 0.795084 -0.071028 1.469122 -1.469121 0.071028 1.469122 -1.469121 -0.071028 -1.919500 0.795084 0.071028 -1.919500 0.795084 -0.071028 "
							            />
						</IndexedFaceSet>
					</Shape>
				</Group>
			</Transform>
		</Transform>
		<Transform DEF="Cylinder_041_TRANSFORM"
		           translation="-0.000001 0.438961 -2.495155"
		           scale="0.162409 0.162409 0.103843"
		           rotation="0.000000 0.707107 0.707107 3.141593"
		           >
			<Transform DEF="Cylinder_041_ifs_TRANSFORM"
			           translation="0.000000 0.000001 0.000000"
			           scale="1.000000 1.000000 1.000000"
			           rotation="0.000000 0.000000 -0.000000 0.000000"
			           >
				<Group DEF="group_ME_Cylinder_048">
					<Shape>
						<Appearance>
							<ImageTexture USE="IM_MetallTextur2_jpg" />
							<TextureTransform 
							                  translation="0.000000 0.000000"
							                  scale="1.000000 1.000000"
							                  rotation="0.000000"
							                  />
							<Material USE="MA_DarkMetall" />
						</Appearance>
						<IndexedFaceSet solid="true"
						                coordIndex="0 1 3 2 -1 2 3 5 4 -1 4 5 7 6 -1 6 7 9 8 -1 8 9 11 10 -1 10 11 13 12 -1 5 3 1 -1 1 15 13 -1 13 11 9 -1 9 7 5 -1 5 1 13 -1 13 9 5 -1 12 13 15 14 -1 1 0 14 15 -1 14 0 2 -1 2 4 6 -1 6 8 10 -1 10 12 14 -1 14 2 6 -1 6 10 14 -1 "
						                >
							<Coordinate DEF="coords_ME_Cylinder_048"
							            point="0.000000 1.000000 -1.000000 0.000000 1.000000 1.000000 0.707107 0.707107 -1.000000 0.707107 0.707107 1.000000 1.000000 -0.000000 -1.000000 1.000000 -0.000000 1.000000 0.707107 -0.707107 -1.000000 0.707107 -0.707107 1.000000 -0.000000 -1.000000 -1.000000 -0.000000 -1.000000 1.000000 -0.707107 -0.707107 -1.000000 -0.707107 -0.707107 1.000000 -1.000000 0.000000 -1.000000 -1.000000 0.000000 1.000000 -0.707107 0.707107 -1.000000 -0.707107 0.707107 1.000000 "
							            />
						</IndexedFaceSet>
					</Shape>
				</Group>
			</Transform>
		</Transform>
		<Transform DEF="Cylinder_040_TRANSFORM"
		           translation="-0.000001 0.438961 -2.495155"
		           scale="0.172629 0.172629 0.047918"
		           rotation="0.000000 0.707107 0.707107 3.141593"
		           >
			<Transform DEF="Cylinder_040_ifs_TRANSFORM"
			           translation="0.000000 0.000001 0.000001"
			           scale="1.000000 1.000000 1.000000"
			           rotation="0.000000 0.000000 0.000000 0.000000"
			           >
				<Group DEF="group_ME_Cylinder_047">
					<Shape>
						<Appearance>
							<ImageTexture DEF="IM_BlauT_jpg"
							              url='"Bilder/BlauT.jpg" "BlauT.jpg" "C:/Users/Valentin/Documents/Studium/Bitbucket/VR_ISS/ISS/Bilder/BlauT.jpg"'
							              />
							<TextureTransform 
							                  translation="0.000000 0.000000"
							                  scale="1.000000 1.000000"
							                  rotation="0.000000"
							                  />
							<Material DEF="MA_Black"
							          diffuseColor="0.800 0.800 0.800"
							          specularColor="0.802 0.802 0.802"
							          emissiveColor="0.000 0.000 0.000"
							          ambientIntensity="0.333"
							          shininess="0.342"
							          transparency="0.0"
							          />
						</Appearance>
						<IndexedFaceSet solid="true"
						                coordIndex="0 1 3 2 -1 2 3 5 4 -1 4 5 7 6 -1 6 7 9 8 -1 8 9 11 10 -1 10 11 13 12 -1 5 3 1 -1 1 15 13 -1 13 11 9 -1 9 7 5 -1 5 1 13 -1 13 9 5 -1 12 13 15 14 -1 1 0 14 15 -1 14 0 2 -1 2 4 6 -1 6 8 10 -1 10 12 14 -1 14 2 6 -1 6 10 14 -1 "
						                >
							<Coordinate DEF="coords_ME_Cylinder_047"
							            point="0.000000 1.000000 -1.000000 0.000000 1.000000 1.000000 0.707107 0.707107 -1.000000 0.707107 0.707107 1.000000 1.000000 -0.000000 -1.000000 1.000000 -0.000000 1.000000 0.707107 -0.707107 -1.000000 0.707107 -0.707107 1.000000 -0.000000 -1.000000 -1.000000 -0.000000 -1.000000 1.000000 -0.707107 -0.707107 -1.000000 -0.707107 -0.707107 1.000000 -1.000000 0.000000 -1.000000 -1.000000 0.000000 1.000000 -0.707107 0.707107 -1.000000 -0.707107 0.707107 1.000000 "
							            />
						</IndexedFaceSet>
					</Shape>
				</Group>
			</Transform>
		</Transform>
		<Transform DEF="Cylinder_035_TRANSFORM"
		           translation="-0.000001 1.200286 -2.495155"
		           scale="1.000000 1.000000 1.000000"
		           rotation="0.000000 0.707107 0.707107 3.141593"
		           >
			<Transform DEF="Cylinder_035_ifs_TRANSFORM"
			           translation="0.000000 0.000000 0.000000"
			           scale="1.000000 1.000000 1.000000"
			           rotation="1.000000 0.000000 0.000000 0.000000"
			           >
				<Group DEF="group_ME_Cylinder_035">
					<Shape>
						<Appearance>
							<ImageTexture USE="IM_MetallTextur2_jpg" />
							<TextureTransform 
							                  translation="0.000000 0.000000"
							                  scale="1.000000 1.000000"
							                  rotation="0.000000"
							                  />
							<Material USE="MA_DarkMetall" />
						</Appearance>
						<IndexedFaceSet solid="true"
						                coordIndex="0 1 3 2 -1 2 3 5 4 -1 4 5 7 6 -1 6 7 9 8 -1 8 9 11 10 -1 10 11 13 12 -1 12 13 15 14 -1 14 15 17 16 -1 16 17 19 18 -1 18 19 21 20 -1 20 21 23 22 -1 22 23 25 24 -1 24 25 27 26 -1 26 27 29 28 -1 27 25 40 -1 27 40 36 -1 46 9 7 -1 48 46 7 -1 29 27 36 -1 29 36 38 -1 48 7 5 -1 50 48 5 -1 31 29 38 -1 31 38 34 -1 50 5 3 -1 62 50 3 -1 1 31 34 -1 42 62 3 -1 1 34 42 -1 3 1 42 -1 28 29 31 30 -1 1 0 30 31 -1 6 8 47 -1 6 47 49 -1 41 24 26 -1 37 41 26 -1 4 6 49 -1 4 49 51 -1 37 26 28 -1 39 37 28 -1 2 4 51 -1 2 51 63 -1 39 28 30 -1 35 39 30 -1 0 2 63 -1 43 35 30 -1 0 63 43 -1 0 43 30 -1 59 58 52 53 -1 49 48 50 51 -1 53 52 44 45 -1 33 32 58 59 -1 47 46 48 49 -1 55 54 32 33 -1 57 56 60 61 -1 61 60 54 55 -1 35 34 38 39 -1 41 40 56 57 -1 63 62 42 43 -1 11 9 46 -1 11 46 44 -1 40 25 23 -1 56 40 23 -1 13 11 44 -1 13 44 52 -1 56 23 21 -1 60 56 21 -1 15 13 52 -1 15 52 58 -1 60 21 19 -1 54 60 19 -1 17 15 58 -1 32 54 19 -1 17 58 32 -1 32 19 17 -1 22 24 41 -1 22 41 57 -1 47 8 10 -1 45 47 10 -1 20 22 57 -1 20 57 61 -1 45 10 12 -1 53 45 12 -1 18 20 61 -1 18 61 55 -1 53 12 14 -1 59 53 14 -1 16 18 55 -1 33 59 14 -1 16 55 33 -1 33 14 16 -1 43 42 34 35 -1 39 38 36 37 -1 51 50 62 63 -1 37 36 40 41 -1 45 44 46 47 -1 "
						                >
							<Coordinate DEF="coords_ME_Cylinder_035"
							            point="-0.606091 0.000000 -0.019345 -0.606091 0.000000 0.019345 -0.559955 0.231941 -0.019345 -0.559955 0.231941 0.019345 -0.428571 0.428571 -0.019345 -0.428571 0.428571 0.019345 -0.231941 0.559955 -0.019345 -0.231941 0.559955 0.019345 0.000000 0.606091 -0.019345 0.000000 0.606091 0.019345 0.231941 0.559955 -0.019345 0.231941 0.559955 0.019345 0.428571 0.428571 -0.019345 0.428571 0.428571 0.019345 0.559955 0.231941 -0.019345 0.559955 0.231941 0.019345 0.606091 0.000000 -0.019345 0.606091 0.000000 0.019345 0.559955 -0.231941 -0.019345 0.559955 -0.231941 0.019345 0.428571 -0.428571 -0.019345 0.428571 -0.428571 0.019345 0.231941 -0.559955 -0.019345 0.231941 -0.559955 0.019345 -0.000000 -0.606091 -0.019345 -0.000000 -0.606091 0.019345 -0.231941 -0.559955 -0.019345 -0.231941 -0.559955 0.019345 -0.428571 -0.428571 -0.019345 -0.428571 -0.428571 0.019345 -0.559955 -0.231941 -0.019345 -0.559955 -0.231941 0.019345 0.565866 0.000000 0.019345 0.565866 0.000000 -0.019345 -0.522792 -0.216547 0.019345 -0.522792 -0.216547 -0.019345 -0.216548 -0.522792 0.019345 -0.216548 -0.522792 -0.019345 -0.400128 -0.400128 0.019345 -0.400128 -0.400128 -0.019345 -0.000000 -0.565866 0.019345 -0.000000 -0.565866 -0.019345 -0.565866 0.000000 0.019345 -0.565866 0.000000 -0.019345 0.216548 0.522792 0.019345 0.216548 0.522792 -0.019345 0.000000 0.565867 0.019345 0.000000 0.565867 -0.019345 -0.216548 0.522792 0.019345 -0.216548 0.522792 -0.019345 -0.400128 0.400128 0.019345 -0.400128 0.400128 -0.019345 0.400128 0.400128 0.019345 0.400128 0.400128 -0.019345 0.522792 -0.216547 0.019345 0.522792 -0.216547 -0.019345 0.216548 -0.522792 0.019345 0.216548 -0.522792 -0.019345 0.522792 0.216548 0.019345 0.522792 0.216548 -0.019345 0.400128 -0.400128 0.019345 0.400128 -0.400128 -0.019345 -0.522792 0.216548 0.019345 -0.522792 0.216548 -0.019345 "
							            />
						</IndexedFaceSet>
					</Shape>
				</Group>
			</Transform>
		</Transform>
		<Transform DEF="Cylinder_031_TRANSFORM"
		           translation="-0.000001 0.723959 -2.495155"
		           scale="1.000000 1.000000 1.000000"
		           rotation="0.000000 0.707107 0.707107 3.141593"
		           >
			<Transform DEF="Cylinder_031_ifs_TRANSFORM"
			           translation="0.000000 0.000000 0.000000"
			           scale="1.000000 1.000000 1.000000"
			           rotation="1.000000 0.000000 0.000000 0.000000"
			           >
				<Group DEF="group_ME_Cylinder_029">
					<Shape>
						<Appearance>
							<ImageTexture USE="IM_MetallTextur2_jpg" />
							<TextureTransform 
							                  translation="0.000000 0.000000"
							                  scale="1.000000 1.000000"
							                  rotation="0.000000"
							                  />
							<Material USE="MA_DarkMetall" />
						</Appearance>
						<IndexedFaceSet solid="true"
						                coordIndex="0 1 3 2 -1 2 3 5 4 -1 4 5 7 6 -1 6 7 9 8 -1 8 9 11 10 -1 10 11 13 12 -1 12 13 15 14 -1 14 15 17 16 -1 16 17 19 18 -1 18 19 21 20 -1 20 21 23 22 -1 22 23 25 24 -1 24 25 27 26 -1 26 27 29 28 -1 27 25 40 -1 27 40 36 -1 46 9 7 -1 48 46 7 -1 29 27 36 -1 29 36 38 -1 48 7 5 -1 50 48 5 -1 31 29 38 -1 31 38 34 -1 50 5 3 -1 62 50 3 -1 1 31 34 -1 42 62 3 -1 1 34 42 -1 3 1 42 -1 28 29 31 30 -1 1 0 30 31 -1 6 8 47 -1 6 47 49 -1 41 24 26 -1 37 41 26 -1 4 6 49 -1 4 49 51 -1 37 26 28 -1 39 37 28 -1 2 4 51 -1 2 51 63 -1 39 28 30 -1 35 39 30 -1 0 2 63 -1 43 35 30 -1 0 63 43 -1 0 43 30 -1 59 58 52 53 -1 49 48 50 51 -1 53 52 44 45 -1 33 32 58 59 -1 47 46 48 49 -1 55 54 32 33 -1 57 56 60 61 -1 61 60 54 55 -1 35 34 38 39 -1 41 40 56 57 -1 63 62 42 43 -1 11 9 46 -1 11 46 44 -1 40 25 23 -1 56 40 23 -1 13 11 44 -1 13 44 52 -1 56 23 21 -1 60 56 21 -1 15 13 52 -1 15 52 58 -1 60 21 19 -1 54 60 19 -1 17 15 58 -1 32 54 19 -1 17 58 32 -1 32 19 17 -1 22 24 41 -1 22 41 57 -1 47 8 10 -1 45 47 10 -1 20 22 57 -1 20 57 61 -1 45 10 12 -1 53 45 12 -1 18 20 61 -1 18 61 55 -1 53 12 14 -1 59 53 14 -1 16 18 55 -1 33 59 14 -1 16 55 33 -1 33 14 16 -1 43 42 34 35 -1 39 38 36 37 -1 51 50 62 63 -1 37 36 40 41 -1 45 44 46 47 -1 "
						                >
							<Coordinate DEF="coords_ME_Cylinder_029"
							            point="-2.225341 0.000000 -0.071028 -2.225341 0.000000 0.071028 -2.055947 0.851601 -0.071028 -2.055947 0.851601 0.071028 -1.573553 1.573554 -0.071028 -1.573553 1.573554 0.071028 -0.851601 2.055947 -0.071028 -0.851601 2.055947 0.071028 0.000000 2.225341 -0.071028 0.000000 2.225341 0.071028 0.851601 2.055947 -0.071028 0.851601 2.055947 0.071028 1.573554 1.573553 -0.071028 1.573554 1.573553 0.071028 2.055947 0.851601 -0.071028 2.055947 0.851601 0.071028 2.225341 0.000000 -0.071028 2.225341 0.000000 0.071028 2.055947 -0.851601 -0.071028 2.055947 -0.851601 0.071028 1.573554 -1.573553 -0.071028 1.573554 -1.573553 0.071028 0.851601 -2.055947 -0.071028 0.851601 -2.055947 0.071028 -0.000000 -2.225341 -0.071028 -0.000000 -2.225341 0.071028 -0.851602 -2.055947 -0.071028 -0.851602 -2.055947 0.071028 -1.573554 -1.573553 -0.071028 -1.573554 -1.573553 0.071028 -2.055947 -0.851600 -0.071028 -2.055947 -0.851600 0.071028 2.077652 0.000001 0.071028 2.077652 0.000001 -0.071028 -1.919501 -0.795081 0.071028 -1.919501 -0.795081 -0.071028 -0.795083 -1.919500 0.071028 -0.795084 -1.919499 -0.071028 -1.469122 -1.469121 0.071028 -1.469123 -1.469121 -0.071029 -0.000000 -2.077652 0.071028 -0.000000 -2.077652 -0.071028 -2.077652 0.000001 0.071028 -2.077652 0.000001 -0.071028 0.795083 1.919501 0.071028 0.795083 1.919500 -0.071028 0.000000 2.077653 0.071028 0.000000 2.077653 -0.071028 -0.795083 1.919501 0.071028 -0.795083 1.919501 -0.071028 -1.469122 1.469123 0.071028 -1.469122 1.469122 -0.071028 1.469122 1.469122 0.071029 1.469122 1.469122 -0.071028 1.919500 -0.795082 0.071028 1.919500 -0.795082 -0.071028 0.795083 -1.919500 0.071028 0.795083 -1.919500 -0.071028 1.919500 0.795084 0.071028 1.919500 0.795084 -0.071028 1.469122 -1.469121 0.071028 1.469122 -1.469121 -0.071028 -1.919500 0.795084 0.071028 -1.919500 0.795084 -0.071028 "
							            />
						</IndexedFaceSet>
					</Shape>
				</Group>
			</Transform>
		</Transform>
		<Transform DEF="Cube_030_TRANSFORM"
		           translation="0.345231 0.282376 -3.725740"
		           scale="0.039596 0.090317 0.015853"
		           rotation="0.469472 -0.000000 0.882948 3.141593"
		           >
			<Transform DEF="Cube_030_ifs_TRANSFORM"
			           translation="-0.000001 0.000000 0.000001"
			           scale="1.000000 1.000000 1.000000"
			           rotation="0.000000 -0.000000 0.000000 0.000000"
			           >
				<Group DEF="group_ME_Cube_036">
					<Shape>
						<Appearance>
							<ImageTexture USE="IM_MetallTextur2_jpg" />
							<TextureTransform 
							                  translation="0.000000 0.000000"
							                  scale="1.000000 1.000000"
							                  rotation="0.000000"
							                  />
							<Material USE="MA_DarkMetall" />
						</Appearance>
						<IndexedFaceSet solid="true"
						                coordIndex="0 2 3 1 -1 2 6 7 3 -1 6 4 5 7 -1 5 10 9 1 -1 2 0 4 6 -1 7 5 1 3 -1 11 8 9 10 -1 4 11 10 5 -1 8 0 1 9 -1 0 8 11 4 -1 "
						                >
							<Coordinate DEF="coords_ME_Cube_036"
							            point="-1.000000 0.355831 -0.999999 -1.000000 0.355831 1.000000 -1.000000 -0.972674 -1.000001 -1.000001 -0.972674 0.999999 1.000000 0.355831 -1.000000 1.000000 0.355831 1.000000 0.999999 -0.972674 -1.000001 0.999999 -0.972674 0.999999 -0.376503 0.616840 -0.999999 -0.376503 0.616840 1.000000 0.376504 0.616840 1.000000 0.376504 0.616840 -0.999999 "
							            />
						</IndexedFaceSet>
					</Shape>
				</Group>
			</Transform>
		</Transform>
		<Transform DEF="Cylinder_039_TRANSFORM"
		           translation="0.676846 0.271476 -3.502063"
		           scale="0.020786 0.020786 0.384149"
		           rotation="0.469472 -0.000000 0.882948 3.141593"
		           >
			<Transform DEF="Cylinder_039_ifs_TRANSFORM"
			           translation="0.000004 -0.000001 -0.000000"
			           scale="1.000000 1.000000 1.000000"
			           rotation="-0.000000 -0.000000 -0.000000 0.000000"
			           >
				<Group DEF="group_ME_Cylinder_046">
					<Shape>
						<Appearance>
							<Material USE="MA_Material" />
						</Appearance>
						<IndexedFaceSet solid="true"
						                creaseAngle="4.0000"
						                coordIndex="0 2 3 1 -1 2 4 5 3 -1 4 6 7 5 -1 6 8 9 7 -1 8 10 11 9 -1 10 12 13 11 -1 12 14 15 13 -1 14 16 17 15 -1 16 18 19 17 -1 18 20 21 19 -1 1 3 5 -1 5 7 9 -1 9 11 13 -1 13 15 17 -1 17 19 21 -1 21 23 1 -1 1 5 9 -1 9 13 17 -1 17 21 1 -1 9 17 1 -1 20 22 23 21 -1 22 0 1 23 -1 2 0 22 -1 22 20 18 -1 18 16 14 -1 14 12 10 -1 10 8 6 -1 6 4 2 -1 2 22 18 -1 18 14 10 -1 10 6 2 -1 18 10 2 -1 "
						                >
							<Coordinate DEF="coords_ME_Cylinder_046"
							            point="-0.000000 -0.999992 -1.000000 -0.000000 -0.999992 1.000000 0.500000 -0.866016 -1.000000 0.500000 -0.866020 1.000000 0.866025 -0.499992 -1.000000 0.866025 -0.499996 1.000000 1.000000 0.000008 -1.000000 1.000000 0.000004 1.000000 0.866026 0.500008 -1.000000 0.866026 0.500008 1.000000 0.500000 0.866035 -1.000000 0.500000 0.866032 1.000000 0.000000 1.000008 -1.000000 0.000000 1.000008 1.000000 -0.500000 0.866035 -1.000000 -0.500000 0.866032 1.000000 -0.866025 0.500011 -1.000000 -0.866025 0.500008 1.000000 -1.000000 0.000011 -1.000000 -1.000000 0.000008 1.000000 -0.866026 -0.499989 -1.000000 -0.866026 -0.499992 1.000000 -0.500001 -0.866016 -1.000000 -0.500001 -0.866020 1.000000 "
							            />
						</IndexedFaceSet>
					</Shape>
				</Group>
			</Transform>
		</Transform>
		<Transform DEF="Cube_029_TRANSFORM"
		           translation="1.008461 0.282375 -3.278387"
		           scale="0.039596 0.090317 0.015853"
		           rotation="0.469472 -0.000000 0.882948 3.141593"
		           >
			<Transform DEF="Cube_029_ifs_TRANSFORM"
			           translation="0.000002 0.000000 0.000006"
			           scale="1.000000 1.000000 1.000000"
			           rotation="0.000000 -0.000000 0.000000 0.000000"
			           >
				<Group DEF="group_ME_Cube_035">
					<Shape>
						<Appearance>
							<ImageTexture USE="IM_MetallTextur2_jpg" />
							<TextureTransform 
							                  translation="0.000000 0.000000"
							                  scale="1.000000 1.000000"
							                  rotation="0.000000"
							                  />
							<Material USE="MA_DarkMetall" />
						</Appearance>
						<IndexedFaceSet solid="true"
						                coordIndex="0 2 3 1 -1 2 6 7 3 -1 6 4 5 7 -1 5 10 9 1 -1 2 0 4 6 -1 7 5 1 3 -1 11 8 9 10 -1 4 11 10 5 -1 8 0 1 9 -1 0 8 11 4 -1 "
						                >
							<Coordinate DEF="coords_ME_Cube_035"
							            point="-1.000000 0.355832 -1.000000 -1.000000 0.355832 1.000000 -1.000001 -0.972673 -1.000001 -1.000001 -0.972673 0.999999 1.000000 0.355832 -1.000000 1.000000 0.355832 1.000000 0.999999 -0.972673 -1.000001 0.999999 -0.972673 0.999999 -0.376503 0.616841 -0.999999 -0.376503 0.616841 1.000000 0.376504 0.616841 1.000000 0.376504 0.616841 -0.999999 "
							            />
						</IndexedFaceSet>
					</Shape>
				</Group>
			</Transform>
		</Transform>
		<Transform DEF="Cube_017_TRANSFORM"
		           translation="-1.217762 0.282376 -2.895154"
		           scale="0.039596 0.090317 0.015853"
		           rotation="0.000000 -0.000000 1.000000 3.141593"
		           >
			<Transform DEF="Cube_017_ifs_TRANSFORM"
			           translation="0.000002 0.000000 -0.000001"
			           scale="1.000000 1.000000 1.000000"
			           rotation="0.000000 0.000000 0.000000 0.000000"
			           >
				<Group DEF="group_ME_Cube_000">
					<Shape>
						<Appearance>
							<ImageTexture USE="IM_MetallTextur2_jpg" />
							<TextureTransform 
							                  translation="0.000000 0.000000"
							                  scale="1.000000 1.000000"
							                  rotation="0.000000"
							                  />
							<Material USE="MA_DarkMetall" />
						</Appearance>
						<IndexedFaceSet solid="true"
						                coordIndex="0 2 3 1 -1 2 6 7 3 -1 6 4 5 7 -1 5 10 9 1 -1 2 0 4 6 -1 7 5 1 3 -1 11 8 9 10 -1 4 11 10 5 -1 8 0 1 9 -1 0 8 11 4 -1 "
						                >
							<Coordinate DEF="coords_ME_Cube_000"
							            point="-1.000000 0.355830 -1.000000 -1.000000 0.355830 1.000000 -1.000000 -0.972675 -1.000000 -1.000000 -0.972675 1.000000 1.000000 0.355830 -1.000000 1.000000 0.355830 1.000000 1.000000 -0.972675 -1.000001 1.000000 -0.972675 0.999999 -0.376504 0.616839 -1.000000 -0.376504 0.616839 1.000000 0.376504 0.616839 1.000000 0.376504 0.616839 -1.000000 "
							            />
						</IndexedFaceSet>
					</Shape>
				</Group>
			</Transform>
		</Transform>
		<Transform DEF="Cylinder_037_TRANSFORM"
		           translation="-1.217762 0.271476 -2.495155"
		           scale="0.020786 0.020786 0.384149"
		           rotation="0.000000 -0.000000 1.000000 3.141593"
		           >
			<Transform DEF="Cylinder_037_ifs_TRANSFORM"
			           translation="0.000000 -0.000000 -0.000000"
			           scale="1.000000 1.000000 1.000000"
			           rotation="1.000000 0.000000 0.000000 0.000000"
			           >
				<Group DEF="group_ME_Cylinder_043">
					<Shape>
						<Appearance>
							<Material USE="MA_Material" />
						</Appearance>
						<IndexedFaceSet solid="true"
						                creaseAngle="4.0000"
						                coordIndex="0 2 3 1 -1 2 4 5 3 -1 4 6 7 5 -1 6 8 9 7 -1 8 10 11 9 -1 10 12 13 11 -1 12 14 15 13 -1 14 16 17 15 -1 16 18 19 17 -1 18 20 21 19 -1 1 3 5 -1 5 7 9 -1 9 11 13 -1 13 15 17 -1 17 19 21 -1 21 23 1 -1 1 5 9 -1 9 13 17 -1 17 21 1 -1 9 17 1 -1 20 22 23 21 -1 22 0 1 23 -1 2 0 22 -1 22 20 18 -1 18 16 14 -1 14 12 10 -1 10 8 6 -1 6 4 2 -1 2 22 18 -1 18 14 10 -1 10 6 2 -1 18 10 2 -1 "
						                >
							<Coordinate DEF="coords_ME_Cylinder_043"
							            point="0.000000 -0.999996 -1.000000 0.000000 -0.999996 1.000000 0.500000 -0.866020 -1.000000 0.500000 -0.866024 1.000000 0.866025 -0.499996 -1.000000 0.866025 -0.499996 1.000000 1.000000 0.000004 -1.000000 1.000000 0.000004 1.000000 0.866025 0.500004 -1.000000 0.866025 0.500004 1.000000 0.500000 0.866032 -1.000000 0.500000 0.866028 1.000000 0.000000 1.000004 -1.000000 0.000000 1.000004 1.000000 -0.500000 0.866032 -1.000000 -0.500000 0.866028 1.000000 -0.866025 0.500004 -1.000000 -0.866025 0.500004 1.000000 -1.000000 0.000008 -1.000000 -1.000000 0.000004 1.000000 -0.866026 -0.499992 -1.000000 -0.866026 -0.499996 1.000000 -0.500001 -0.866020 -1.000000 -0.500001 -0.866024 1.000000 "
							            />
						</IndexedFaceSet>
					</Shape>
				</Group>
			</Transform>
		</Transform>
		<Transform DEF="Cylinder_036_TRANSFORM"
		           translation="1.217761 0.271476 -2.495155"
		           scale="0.020786 0.020786 0.384149"
		           rotation="0.000000 -0.000000 1.000000 3.141593"
		           >
			<Transform DEF="Cylinder_036_ifs_TRANSFORM"
			           translation="0.000000 -0.000000 -0.000000"
			           scale="1.000000 1.000000 1.000000"
			           rotation="1.000000 0.000000 0.000000 0.000000"
			           >
				<Group DEF="group_ME_Cylinder_042">
					<Shape>
						<Appearance>
							<Material USE="MA_Material" />
						</Appearance>
						<IndexedFaceSet solid="true"
						                creaseAngle="4.0000"
						                coordIndex="0 2 3 1 -1 2 4 5 3 -1 4 6 7 5 -1 6 8 9 7 -1 8 10 11 9 -1 10 12 13 11 -1 12 14 15 13 -1 14 16 17 15 -1 16 18 19 17 -1 18 20 21 19 -1 1 3 5 -1 5 7 9 -1 9 11 13 -1 13 15 17 -1 17 19 21 -1 21 23 1 -1 1 5 9 -1 9 13 17 -1 17 21 1 -1 9 17 1 -1 20 22 23 21 -1 22 0 1 23 -1 2 0 22 -1 22 20 18 -1 18 16 14 -1 14 12 10 -1 10 8 6 -1 6 4 2 -1 2 22 18 -1 18 14 10 -1 10 6 2 -1 18 10 2 -1 "
						                >
							<Coordinate DEF="coords_ME_Cylinder_042"
							            point="0.000000 -0.999996 -1.000000 0.000000 -0.999996 1.000000 0.500000 -0.866020 -1.000000 0.500000 -0.866024 1.000000 0.866025 -0.499996 -1.000000 0.866025 -0.499996 1.000000 1.000000 0.000004 -1.000000 1.000000 0.000004 1.000000 0.866025 0.500004 -1.000000 0.866025 0.500004 1.000000 0.500000 0.866032 -1.000000 0.500000 0.866028 1.000000 0.000000 1.000004 -1.000000 0.000000 1.000004 1.000000 -0.500000 0.866032 -1.000000 -0.500000 0.866028 1.000000 -0.866025 0.500004 -1.000000 -0.866025 0.500004 1.000000 -1.000000 0.000008 -1.000000 -1.000000 0.000004 1.000000 -0.866026 -0.499992 -1.000000 -0.866026 -0.499996 1.000000 -0.500001 -0.866020 -1.000000 -0.500001 -0.866024 1.000000 "
							            />
						</IndexedFaceSet>
					</Shape>
				</Group>
			</Transform>
		</Transform>
		<Transform DEF="Cube_009_TRANSFORM"
		           translation="1.217761 0.282376 -2.895154"
		           scale="0.039596 0.090317 0.015853"
		           rotation="0.000000 -0.000000 1.000000 3.141593"
		           >
			<Transform DEF="Cube_009_ifs_TRANSFORM"
			           translation="0.000000 0.000000 -0.000001"
			           scale="1.000000 1.000000 1.000000"
			           rotation="0.000000 0.000000 0.000000 0.000000"
			           >
				<Group DEF="group_ME_Cube_029">
					<Shape>
						<Appearance>
							<ImageTexture USE="IM_MetallTextur2_jpg" />
							<TextureTransform 
							                  translation="0.000000 0.000000"
							                  scale="1.000000 1.000000"
							                  rotation="0.000000"
							                  />
							<Material USE="MA_DarkMetall" />
						</Appearance>
						<IndexedFaceSet solid="true"
						                coordIndex="0 2 3 1 -1 2 6 7 3 -1 6 4 5 7 -1 5 10 9 1 -1 2 0 4 6 -1 7 5 1 3 -1 11 8 9 10 -1 4 11 10 5 -1 8 0 1 9 -1 0 8 11 4 -1 "
						                >
							<Coordinate DEF="coords_ME_Cube_029"
							            point="-1.000000 0.355830 -1.000000 -1.000000 0.355830 1.000000 -1.000000 -0.972675 -1.000001 -1.000000 -0.972675 0.999999 1.000000 0.355830 -1.000000 1.000000 0.355830 1.000000 1.000000 -0.972675 -1.000000 1.000000 -0.972675 1.000000 -0.376504 0.616839 -1.000000 -0.376504 0.616839 1.000000 0.376504 0.616839 1.000000 0.376504 0.616839 -1.000000 "
							            />
						</IndexedFaceSet>
					</Shape>
				</Group>
			</Transform>
		</Transform>
		<Transform DEF="Cube_028_TRANSFORM"
		           translation="-1.008462 0.282375 -3.278387"
		           scale="0.039596 0.090317 0.015853"
		           rotation="0.469472 -0.000000 0.882948 3.141593"
		           >
			<Transform DEF="Cube_028_ifs_TRANSFORM"
			           translation="-0.000002 0.000000 0.000010"
			           scale="1.000000 1.000000 1.000000"
			           rotation="0.000000 -0.000000 0.000000 0.000000"
			           >
				<Group DEF="group_ME_Cube_032">
					<Shape>
						<Appearance>
							<ImageTexture USE="IM_MetallTextur2_jpg" />
							<TextureTransform 
							                  translation="0.000000 0.000000"
							                  scale="1.000000 1.000000"
							                  rotation="0.000000"
							                  />
							<Material USE="MA_DarkMetall" />
						</Appearance>
						<IndexedFaceSet solid="true"
						                coordIndex="0 1 3 2 -1 2 3 7 6 -1 6 7 5 4 -1 5 1 9 10 -1 4 0 2 6 -1 7 3 1 5 -1 11 10 9 8 -1 4 5 10 11 -1 1 0 8 9 -1 0 4 11 8 -1 "
						                >
							<Coordinate DEF="coords_ME_Cube_032"
							            point="-0.745813 0.355831 -1.941261 -0.003397 0.355831 -2.690475 -0.745813 -0.972674 -1.941261 -0.003397 -0.972674 -2.690475 0.003401 0.355831 2.690475 0.745817 0.355831 1.941261 0.003401 -0.972674 2.690475 0.745817 -0.972674 1.941261 -0.512247 0.616840 -0.497330 0.230169 0.616839 -1.246544 0.512251 0.616839 0.497330 -0.230165 0.616839 1.246544 "
							            />
						</IndexedFaceSet>
					</Shape>
				</Group>
			</Transform>
		</Transform>
		<Transform DEF="Cylinder_038_TRANSFORM"
		           translation="-0.676847 0.271476 -3.502063"
		           scale="0.020786 0.020786 0.384149"
		           rotation="0.469472 -0.000000 0.882948 3.141593"
		           >
			<Transform DEF="Cylinder_038_ifs_TRANSFORM"
			           translation="-0.000000 0.000001 -0.000000"
			           scale="1.000000 1.000000 1.000000"
			           rotation="-0.000000 -0.000000 -0.000000 0.000000"
			           >
				<Group DEF="group_ME_Cylinder_044">
					<Shape>
						<Appearance>
							<Material USE="MA_Material" />
						</Appearance>
						<IndexedFaceSet solid="true"
						                creaseAngle="4.0000"
						                coordIndex="0 1 3 2 -1 2 3 5 4 -1 4 5 7 6 -1 6 7 9 8 -1 8 9 11 10 -1 10 11 13 12 -1 12 13 15 14 -1 14 15 17 16 -1 16 17 19 18 -1 18 19 21 20 -1 5 3 1 -1 1 23 21 -1 21 19 17 -1 17 15 13 -1 13 11 9 -1 9 7 5 -1 5 1 21 -1 21 17 13 -1 13 9 5 -1 21 13 5 -1 20 21 23 22 -1 1 0 22 23 -1 22 0 2 -1 2 4 6 -1 6 8 10 -1 10 12 14 -1 14 16 18 -1 18 20 22 -1 22 2 6 -1 6 10 14 -1 14 18 22 -1 6 14 22 -1 "
						                >
							<Coordinate DEF="coords_ME_Cylinder_044"
							            point="-17.135654 -0.999992 0.374606 17.135654 -1.000004 -0.374607 -16.948351 -0.866020 0.399691 17.322960 -0.866028 -0.349522 -16.811235 -0.499992 0.418054 17.460075 -0.500004 -0.331159 -16.761047 0.000008 0.424775 17.510262 -0.000004 -0.324438 -16.811235 0.500008 0.418054 17.460075 0.500000 -0.331159 -16.948351 0.866032 0.399691 17.322960 0.866024 -0.349522 -17.135654 1.000008 0.374606 17.135654 1.000000 -0.374607 -17.322958 0.866032 0.349522 16.948349 0.866024 -0.399691 -17.460073 0.500008 0.331159 16.811234 0.500000 -0.418054 -17.510262 0.000008 0.324438 16.761047 0.000000 -0.424775 -17.460073 -0.499992 0.331159 16.811234 -0.500000 -0.418054 -17.322958 -0.866020 0.349522 16.948349 -0.866028 -0.399691 "
							            />
						</IndexedFaceSet>
					</Shape>
				</Group>
			</Transform>
		</Transform>
		<Transform DEF="Cube_027_TRANSFORM"
		           translation="-0.345232 0.282376 -3.725740"
		           scale="0.039596 0.090317 0.015853"
		           rotation="0.469472 -0.000000 0.882948 3.141593"
		           >
			<Transform DEF="Cube_027_ifs_TRANSFORM"
			           translation="0.000006 -0.000000 0.000002"
			           scale="1.000000 1.000000 1.000000"
			           rotation="0.000000 -0.000000 0.000000 0.000000"
			           >
				<Group DEF="group_ME_Cube_031">
					<Shape>
						<Appearance>
							<ImageTexture USE="IM_MetallTextur2_jpg" />
							<TextureTransform 
							                  translation="0.000000 0.000000"
							                  scale="1.000000 1.000000"
							                  rotation="0.000000"
							                  />
							<Material USE="MA_DarkMetall" />
						</Appearance>
						<IndexedFaceSet solid="true"
						                coordIndex="0 1 3 2 -1 2 3 7 6 -1 6 7 5 4 -1 5 1 9 10 -1 4 0 2 6 -1 7 3 1 5 -1 11 10 9 8 -1 4 5 10 11 -1 1 0 8 9 -1 0 4 11 8 -1 "
						                >
							<Coordinate DEF="coords_ME_Cube_031"
							            point="-0.745815 0.355831 -1.941265 -0.003399 0.355831 -2.690479 -0.745816 -0.972674 -1.941273 -0.003400 -0.972674 -2.690479 0.003399 0.355831 2.690472 0.745815 0.355831 1.941265 0.003398 -0.972674 2.690472 0.745814 -0.972674 1.941257 -0.512249 0.616840 -0.497326 0.230167 0.616840 -1.246540 0.512249 0.616840 0.497326 -0.230167 0.616840 1.246540 "
							            />
						</IndexedFaceSet>
					</Shape>
				</Group>
			</Transform>
		</Transform>
		<Transform DEF="Cylinder_026_TRANSFORM"
		           translation="-0.000001 1.055541 -2.495155"
		           scale="0.866549 0.866549 0.866549"
		           rotation="0.000000 0.707107 0.707107 3.141593"
		           >
			<Transform DEF="Cylinder_026_ifs_TRANSFORM"
			           translation="0.000000 0.000000 0.000000"
			           scale="1.000000 1.000000 1.000000"
			           rotation="1.000000 0.000000 0.000000 0.000000"
			           >
				<Group DEF="group_ME_Cylinder_027">
					<Shape>
						<Appearance>
							<ImageTexture USE="IM_MetallTextur2_jpg" />
							<TextureTransform 
							                  translation="0.000000 0.000000"
							                  scale="1.000000 1.000000"
							                  rotation="0.000000"
							                  />
							<Material USE="MA_DarkMetall" />
						</Appearance>
						<IndexedFaceSet solid="true"
						                coordIndex="0 1 3 2 -1 2 3 5 4 -1 4 5 7 6 -1 6 7 9 8 -1 8 9 11 10 -1 10 11 13 12 -1 12 13 15 14 -1 14 15 17 16 -1 16 17 19 18 -1 18 19 21 20 -1 20 21 23 22 -1 22 23 25 24 -1 24 25 27 26 -1 26 27 29 28 -1 27 25 40 -1 27 40 36 -1 46 9 7 -1 48 46 7 -1 29 27 36 -1 29 36 38 -1 48 7 5 -1 50 48 5 -1 31 29 38 -1 31 38 34 -1 50 5 3 -1 62 50 3 -1 1 31 34 -1 42 62 3 -1 1 34 42 -1 3 1 42 -1 28 29 31 30 -1 1 0 30 31 -1 6 8 47 -1 6 47 49 -1 41 24 26 -1 37 41 26 -1 4 6 49 -1 4 49 51 -1 37 26 28 -1 39 37 28 -1 2 4 51 -1 2 51 63 -1 39 28 30 -1 35 39 30 -1 0 2 63 -1 43 35 30 -1 0 63 43 -1 0 43 30 -1 59 58 52 53 -1 49 48 50 51 -1 53 52 44 45 -1 33 32 58 59 -1 47 46 48 49 -1 55 54 32 33 -1 57 56 60 61 -1 61 60 54 55 -1 35 34 38 39 -1 41 40 56 57 -1 63 62 42 43 -1 11 9 46 -1 11 46 44 -1 40 25 23 -1 56 40 23 -1 13 11 44 -1 13 44 52 -1 56 23 21 -1 60 56 21 -1 15 13 52 -1 15 52 58 -1 60 21 19 -1 54 60 19 -1 17 15 58 -1 32 54 19 -1 17 58 32 -1 32 19 17 -1 22 24 41 -1 22 41 57 -1 47 8 10 -1 45 47 10 -1 20 22 57 -1 20 57 61 -1 45 10 12 -1 53 45 12 -1 18 20 61 -1 18 61 55 -1 53 12 14 -1 59 53 14 -1 16 18 55 -1 33 59 14 -1 16 55 33 -1 33 14 16 -1 43 42 34 35 -1 39 38 36 37 -1 51 50 62 63 -1 37 36 40 41 -1 45 44 46 47 -1 "
						                >
							<Coordinate DEF="coords_ME_Cylinder_027"
							            point="-1.550762 0.000000 -0.049497 -1.550762 0.000000 0.049497 -1.432717 0.593451 -0.049497 -1.432717 0.593451 0.049497 -1.096554 1.096554 -0.049497 -1.096554 1.096554 0.049497 -0.593451 1.432717 -0.049497 -0.593451 1.432717 0.049497 0.000000 1.550762 -0.049497 0.000000 1.550762 0.049497 0.593451 1.432717 -0.049497 0.593451 1.432717 0.049497 1.096554 1.096554 -0.049497 1.096554 1.096554 0.049497 1.432717 0.593451 -0.049497 1.432717 0.593451 0.049497 1.550762 0.000000 -0.049497 1.550762 0.000000 0.049497 1.432717 -0.593451 -0.049497 1.432717 -0.593451 0.049497 1.096554 -1.096554 -0.049497 1.096554 -1.096554 0.049497 0.593451 -1.432717 -0.049497 0.593451 -1.432717 0.049497 -0.000000 -1.550762 -0.049497 -0.000000 -1.550762 0.049497 -0.593451 -1.432717 -0.049497 -0.593451 -1.432717 0.049497 -1.096555 -1.096554 -0.049497 -1.096555 -1.096554 0.049497 -1.432717 -0.593450 -0.049497 -1.432717 -0.593450 0.049497 1.447843 0.000000 0.049497 1.447843 0.000000 -0.049497 -1.337633 -0.554064 0.049497 -1.337633 -0.554064 -0.049497 -0.554066 -1.337632 0.049497 -0.554066 -1.337632 -0.049497 -1.023780 -1.023779 0.049497 -1.023780 -1.023779 -0.049497 -0.000000 -1.447842 0.049497 -0.000000 -1.447842 -0.049497 -1.447843 0.000000 0.049497 -1.447843 0.000000 -0.049497 0.554066 1.337633 0.049497 0.554066 1.337632 -0.049497 0.000000 1.447843 0.049497 0.000000 1.447843 -0.049497 -0.554065 1.337633 0.049497 -0.554065 1.337633 -0.049497 -1.023779 1.023780 0.049497 -1.023779 1.023780 -0.049497 1.023780 1.023780 0.049497 1.023779 1.023780 -0.049497 1.337632 -0.554065 0.049497 1.337632 -0.554065 -0.049497 0.554066 -1.337632 0.049497 0.554065 -1.337632 -0.049497 1.337632 0.554066 0.049497 1.337632 0.554066 -0.049497 1.023780 -1.023779 0.049497 1.023780 -1.023779 -0.049497 -1.337632 0.554066 0.049497 -1.337632 0.554066 -0.049497 "
							            />
						</IndexedFaceSet>
					</Shape>
				</Group>
			</Transform>
		</Transform>
		<Transform DEF="Cylinder_032_TRANSFORM"
		           translation="-0.000001 1.300361 -2.495155"
		           scale="0.172629 0.172629 0.047918"
		           rotation="0.000000 0.707107 0.707107 3.141593"
		           >
			<Transform DEF="Cylinder_032_ifs_TRANSFORM"
			           translation="-0.000000 -0.000000 -0.000002"
			           scale="1.000000 1.000000 1.000000"
			           rotation="0.000000 0.000000 0.000000 0.000000"
			           >
				<Group DEF="group_ME_Cylinder_004">
					<Shape>
						<Appearance>
							<ImageTexture USE="IM_BlauT_jpg" />
							<TextureTransform 
							                  translation="0.000000 0.000000"
							                  scale="1.000000 1.000000"
							                  rotation="0.000000"
							                  />
							<Material USE="MA_Black" />
						</Appearance>
						<IndexedFaceSet solid="true"
						                coordIndex="0 1 3 2 -1 2 3 5 4 -1 4 5 7 6 -1 6 7 9 8 -1 8 9 11 10 -1 10 11 13 12 -1 5 3 1 -1 1 15 13 -1 13 11 9 -1 9 7 5 -1 5 1 13 -1 13 9 5 -1 12 13 15 14 -1 1 0 14 15 -1 14 0 2 -1 2 4 6 -1 6 8 10 -1 10 12 14 -1 14 2 6 -1 6 10 14 -1 "
						                >
							<Coordinate DEF="coords_ME_Cylinder_004"
							            point="0.000000 1.000000 -1.000000 0.000000 1.000000 1.000000 0.707107 0.707107 -1.000000 0.707107 0.707107 1.000000 1.000000 -0.000000 -1.000000 1.000000 -0.000000 1.000000 0.707107 -0.707107 -1.000000 0.707107 -0.707107 1.000000 -0.000000 -1.000000 -1.000000 -0.000000 -1.000000 1.000000 -0.707107 -0.707107 -1.000000 -0.707107 -0.707107 1.000000 -1.000000 0.000000 -1.000000 -1.000000 0.000000 1.000000 -0.707107 0.707107 -1.000000 -0.707107 0.707107 1.000000 "
							            />
						</IndexedFaceSet>
					</Shape>
				</Group>
			</Transform>
		</Transform>
		<Transform DEF="Cylinder_030_TRANSFORM"
		           translation="-0.000000 0.000000 0.000000"
		           scale="0.074111 0.074111 1.228821"
		           rotation="-0.707107 -0.000000 0.707107 3.141593"
		           >
			<Transform DEF="Cylinder_030_ifs_TRANSFORM"
			           translation="-0.000000 -0.000000 -0.000000"
			           scale="1.000000 1.000000 1.000000"
			           rotation="0.000000 -0.000000 -0.000000 0.000000"
			           >
				<Group DEF="group_ME_Cylinder_011">
					<Shape>
						<Appearance>
							<ImageTexture DEF="IM_DarkMetalTexture_jpg"
							              url='"Bilder/DarkMetalTexture.jpg" "DarkMetalTexture.jpg" "C:/Users/Valentin/Documents/Studium/Bitbucket/VR_ISS/ISS/Bilder/DarkMetalTexture.jpg"'
							              />
							<TextureTransform 
							                  translation="0.000000 0.000000"
							                  scale="1.000000 1.000000"
							                  rotation="0.000000"
							                  />
							<Material DEF="MA_DarkDarkMetall"
							          diffuseColor="0.800 0.800 0.800"
							          specularColor="0.401 0.401 0.401"
							          emissiveColor="0.000 0.000 0.000"
							          ambientIntensity="0.333"
							          shininess="0.098"
							          transparency="0.0"
							          />
						</Appearance>
						<IndexedFaceSet solid="true"
						                coordIndex="0 1 3 2 -1 2 3 5 4 -1 4 5 7 6 -1 6 7 9 8 -1 5 3 1 -1 1 11 9 -1 9 7 5 -1 1 9 5 -1 8 9 11 10 -1 1 0 10 11 -1 10 0 2 -1 2 4 6 -1 6 8 10 -1 2 6 10 -1 "
						                >
							<Coordinate DEF="coords_ME_Cylinder_011"
							            point="0.000000 1.000000 -1.000000 0.000000 1.000000 1.000000 0.866025 0.500000 -1.000000 0.866025 0.500000 1.000000 0.866025 -0.500000 -1.000000 0.866025 -0.500000 1.000000 -0.000000 -1.000000 -1.000000 -0.000000 -1.000000 1.000000 -0.866025 -0.500000 -1.000000 -0.866025 -0.500000 1.000000 -0.866025 0.500000 -1.000000 -0.866025 0.500000 1.000000 "
							            />
						</IndexedFaceSet>
					</Shape>
				</Group>
			</Transform>
		</Transform>
		<Transform DEF="Cylinder_029_TRANSFORM"
		           translation="-0.000001 1.300361 -2.495155"
		           scale="0.162409 0.162409 0.103843"
		           rotation="0.000000 0.707107 0.707107 3.141593"
		           >
			<Transform DEF="Cylinder_029_ifs_TRANSFORM"
			           translation="-0.000000 0.000001 0.000000"
			           scale="1.000000 1.000000 1.000000"
			           rotation="0.000000 0.000000 -0.000000 0.000000"
			           >
				<Group DEF="group_ME_Cylinder_009">
					<Shape>
						<Appearance>
							<ImageTexture USE="IM_MetallTextur2_jpg" />
							<TextureTransform 
							                  translation="0.000000 0.000000"
							                  scale="1.000000 1.000000"
							                  rotation="0.000000"
							                  />
							<Material USE="MA_DarkMetall" />
						</Appearance>
						<IndexedFaceSet solid="true"
						                coordIndex="0 1 3 2 -1 2 3 5 4 -1 4 5 7 6 -1 6 7 9 8 -1 8 9 11 10 -1 10 11 13 12 -1 5 3 1 -1 1 15 13 -1 13 11 9 -1 9 7 5 -1 5 1 13 -1 13 9 5 -1 12 13 15 14 -1 1 0 14 15 -1 14 0 2 -1 2 4 6 -1 6 8 10 -1 10 12 14 -1 14 2 6 -1 6 10 14 -1 "
						                >
							<Coordinate DEF="coords_ME_Cylinder_009"
							            point="0.000000 1.000000 -1.000000 0.000000 1.000000 1.000000 0.707107 0.707107 -1.000000 0.707107 0.707107 1.000000 1.000000 -0.000000 -1.000000 1.000000 -0.000000 1.000000 0.707107 -0.707107 -1.000000 0.707107 -0.707107 1.000000 -0.000000 -1.000000 -1.000000 -0.000000 -1.000000 1.000000 -0.707107 -0.707107 -1.000000 -0.707107 -0.707107 1.000000 -1.000000 0.000000 -1.000000 -1.000000 0.000000 1.000000 -0.707107 0.707107 -1.000000 -0.707107 0.707107 1.000000 "
							            />
						</IndexedFaceSet>
					</Shape>
				</Group>
			</Transform>
		</Transform>
		<Transform DEF="Cube_026_TRANSFORM"
		           translation="-1.217762 0.282376 -2.095155"
		           scale="0.039596 0.090317 0.015853"
		           rotation="0.000000 -0.000000 1.000000 3.141593"
		           >
			<Transform DEF="Cube_026_ifs_TRANSFORM"
			           translation="0.000002 0.000000 0.000014"
			           scale="1.000000 1.000000 1.000000"
			           rotation="0.000000 0.000000 0.000000 0.000000"
			           >
				<Group DEF="group_ME_Cube_030">
					<Shape>
						<Appearance>
							<ImageTexture USE="IM_MetallTextur2_jpg" />
							<TextureTransform 
							                  translation="0.000000 0.000000"
							                  scale="1.000000 1.000000"
							                  rotation="0.000000"
							                  />
							<Material USE="MA_DarkMetall" />
						</Appearance>
						<IndexedFaceSet solid="true"
						                coordIndex="0 2 3 1 -1 2 6 7 3 -1 6 4 5 7 -1 5 10 9 1 -1 2 0 4 6 -1 7 5 1 3 -1 11 8 9 10 -1 4 11 10 5 -1 8 0 1 9 -1 0 8 11 4 -1 "
						                >
							<Coordinate DEF="coords_ME_Cube_030"
							            point="-1.000000 0.355830 -1.000000 -1.000000 0.355830 1.000000 -1.000000 -0.972675 -1.000000 -1.000000 -0.972675 0.999999 1.000000 0.355830 -1.000000 1.000000 0.355830 1.000000 1.000000 -0.972675 -1.000000 1.000000 -0.972675 0.999999 -0.376504 0.616839 -1.000000 -0.376504 0.616839 1.000000 0.376504 0.616839 1.000000 0.376504 0.616839 -1.000000 "
							            />
						</IndexedFaceSet>
					</Shape>
				</Group>
			</Transform>
		</Transform>
		<Transform DEF="Cube_015_TRANSFORM"
		           translation="1.217761 0.282376 -2.095155"
		           scale="0.039596 0.090317 0.015853"
		           rotation="0.000000 -0.000000 1.000000 3.141593"
		           >
			<Transform DEF="Cube_015_ifs_TRANSFORM"
			           translation="0.000000 0.000000 0.000014"
			           scale="1.000000 1.000000 1.000000"
			           rotation="0.000000 0.000000 0.000000 0.000000"
			           >
				<Group DEF="group_ME_Cube_025">
					<Shape>
						<Appearance>
							<ImageTexture USE="IM_MetallTextur2_jpg" />
							<TextureTransform 
							                  translation="0.000000 0.000000"
							                  scale="1.000000 1.000000"
							                  rotation="0.000000"
							                  />
							<Material USE="MA_DarkMetall" />
						</Appearance>
						<IndexedFaceSet solid="true"
						                coordIndex="0 2 3 1 -1 2 6 7 3 -1 6 4 5 7 -1 5 10 9 1 -1 2 0 4 6 -1 7 5 1 3 -1 11 8 9 10 -1 4 11 10 5 -1 8 0 1 9 -1 0 8 11 4 -1 "
						                >
							<Coordinate DEF="coords_ME_Cube_025"
							            point="-1.000000 0.355830 -1.000000 -1.000000 0.355830 1.000000 -1.000000 -0.972675 -1.000000 -1.000000 -0.972675 0.999999 1.000000 0.355830 -1.000000 1.000000 0.355830 1.000000 1.000000 -0.972675 -1.000000 1.000000 -0.972675 0.999999 -0.376504 0.616839 -1.000000 -0.376504 0.616839 1.000000 0.376504 0.616839 1.000000 0.376504 0.616839 -1.000000 "
							            />
						</IndexedFaceSet>
					</Shape>
				</Group>
			</Transform>
		</Transform>
		<Transform DEF="Cylinder_027_TRANSFORM"
		           translation="-0.000001 0.396273 -2.495155"
		           scale="2.369876 2.369876 0.152172"
		           rotation="0.000000 0.707107 0.707107 3.141593"
		           >
			<Transform DEF="Cylinder_027_ifs_TRANSFORM"
			           translation="-0.000000 -0.000000 -0.000000"
			           scale="1.000000 1.000000 1.000000"
			           rotation="0.000000 0.000000 0.000000 0.000000"
			           >
				<Group DEF="group_ME_Cylinder_007">
					<Shape>
						<Appearance>
							<ImageTexture DEF="IM_Spacecraft1_jpg"
							              url='"Bilder/Weiß2.jpg" "Weiß2.jpg" "C:/Users/Valentin/Documents/Studium/Bitbucket/VR_ISS/ISS/Bilder/Weiß2.jpg"'
							              />
							<TextureTransform 
							                  translation="0.000000 0.000000"
							                  scale="1.000000 1.000000"
							                  rotation="0.000000"
							                  />
							<Material DEF="MA_ISS"
							          diffuseColor="0.800 0.800 0.800"
							          specularColor="0.293 0.293 0.293"
							          emissiveColor="0.000 0.000 0.000"
							          ambientIntensity="0.333"
							          shininess="0.098"
							          transparency="0.0"
							          />
						</Appearance>
						<IndexedFaceSet solid="true"
						                coordIndex="0 1 3 2 -1 2 3 5 4 -1 4 5 7 6 -1 6 7 9 8 -1 8 9 11 10 -1 10 11 13 12 -1 12 13 15 14 -1 14 15 17 16 -1 16 17 19 18 -1 18 19 21 20 -1 20 21 23 22 -1 22 23 25 24 -1 24 25 27 26 -1 26 27 29 28 -1 15 13 38 39 -1 28 29 31 30 -1 1 0 30 31 -1 16 18 73 72 -1 42 41 57 58 -1 25 23 43 44 -1 11 9 36 37 -1 21 19 41 42 -1 31 29 46 47 -1 7 5 34 35 -1 17 15 39 40 -1 3 1 33 32 -1 27 25 44 45 -1 13 11 37 38 -1 23 21 42 43 -1 1 31 47 33 -1 9 7 35 36 -1 19 17 40 41 -1 29 27 45 46 -1 5 3 32 34 -1 50 48 49 -1 49 63 62 -1 62 61 60 -1 60 59 58 -1 58 57 56 -1 56 55 54 -1 54 53 52 -1 52 51 50 -1 50 49 62 -1 62 60 58 -1 58 56 54 -1 54 52 50 -1 50 62 58 -1 58 54 50 -1 35 34 50 51 -1 43 42 58 59 -1 36 35 51 52 -1 44 43 59 60 -1 37 36 52 53 -1 45 44 60 61 -1 38 37 53 54 -1 46 45 61 62 -1 39 38 54 55 -1 47 46 62 63 -1 40 39 55 56 -1 32 33 49 48 -1 33 47 63 49 -1 41 40 56 57 -1 34 32 48 50 -1 66 67 83 82 -1 26 28 78 77 -1 2 4 66 65 -1 12 14 71 70 -1 22 24 76 75 -1 8 10 69 68 -1 18 20 74 73 -1 28 30 79 78 -1 4 6 67 66 -1 14 16 72 71 -1 0 2 65 64 -1 24 26 77 76 -1 10 12 70 69 -1 20 22 75 74 -1 30 0 64 79 -1 6 8 68 67 -1 95 80 81 -1 81 82 83 -1 83 84 85 -1 85 86 87 -1 87 88 89 -1 89 90 91 -1 91 92 93 -1 93 94 95 -1 95 81 83 -1 83 85 87 -1 87 89 91 -1 91 93 95 -1 95 83 87 -1 87 91 95 -1 74 75 91 90 -1 67 68 84 83 -1 75 76 92 91 -1 68 69 85 84 -1 76 77 93 92 -1 69 70 86 85 -1 77 78 94 93 -1 70 71 87 86 -1 78 79 95 94 -1 71 72 88 87 -1 64 65 81 80 -1 79 64 80 95 -1 72 73 89 88 -1 65 66 82 81 -1 73 74 90 89 -1 "
						                >
							<Coordinate DEF="coords_ME_Cylinder_007"
							            point="0.000000 1.000000 -1.000000 0.000000 1.000000 1.000000 0.382683 0.923880 -1.000000 0.382683 0.923880 1.000000 0.707107 0.707107 -1.000000 0.707107 0.707107 1.000000 0.923880 0.382683 -1.000000 0.923880 0.382683 1.000000 1.000000 -0.000000 -1.000000 1.000000 -0.000000 1.000000 0.923880 -0.382684 -1.000000 0.923880 -0.382684 1.000000 0.707107 -0.707107 -1.000000 0.707107 -0.707107 1.000000 0.382683 -0.923880 -1.000000 0.382683 -0.923880 1.000000 0.000000 -1.000000 -1.000000 0.000000 -1.000000 1.000000 -0.382683 -0.923880 -1.000000 -0.382683 -0.923880 1.000000 -0.707107 -0.707107 -1.000000 -0.707107 -0.707107 1.000000 -0.923880 -0.382684 -1.000000 -0.923880 -0.382684 1.000000 -1.000000 0.000000 -1.000000 -1.000000 0.000000 1.000000 -0.923879 0.382684 -1.000000 -0.923879 0.382684 1.000000 -0.707107 0.707107 -1.000000 -0.707107 0.707107 1.000000 -0.382683 0.923880 -1.000000 -0.382683 0.923880 1.000000 0.317317 0.766070 3.466838 -0.000000 0.829188 3.466838 0.586325 0.586325 3.466838 0.766070 0.317317 3.466838 0.829188 -0.000000 3.466838 0.766070 -0.317317 3.466838 0.586325 -0.586325 3.466838 0.317317 -0.766070 3.466838 0.000000 -0.829188 3.466838 -0.317316 -0.766070 3.466838 -0.586324 -0.586325 3.466838 -0.766070 -0.317317 3.466838 -0.829188 0.000000 3.466838 -0.766070 0.317317 3.466838 -0.586324 0.586325 3.466838 -0.317316 0.766070 3.466838 0.095331 0.230149 5.258801 0.000000 0.249111 5.258801 0.176148 0.176148 5.258801 0.230149 0.095331 5.258801 0.249111 -0.000000 5.258801 0.230149 -0.095331 5.258801 0.176148 -0.176148 5.258801 0.095331 -0.230149 5.258801 0.000000 -0.249111 5.258801 -0.095331 -0.230149 5.258801 -0.176148 -0.176148 5.258801 -0.230149 -0.095331 5.258801 -0.249111 0.000000 5.258801 -0.230149 0.095331 5.258801 -0.176148 0.176148 5.258801 -0.095331 0.230149 5.258801 0.000000 0.863705 -1.000000 0.330526 0.797960 -1.000000 0.610732 0.610732 -1.000000 0.797960 0.330526 -1.000000 0.863705 -0.000000 -1.000000 0.797960 -0.330526 -1.000000 0.610732 -0.610732 -1.000000 0.330526 -0.797960 -1.000000 0.000000 -0.863705 -1.000000 -0.330526 -0.797960 -1.000000 -0.610732 -0.610732 -1.000000 -0.797960 -0.330526 -1.000000 -0.863705 0.000000 -1.000000 -0.797960 0.330526 -1.000000 -0.610732 0.610732 -1.000000 -0.330525 0.797960 -1.000000 0.000000 0.154825 0.962928 0.059249 0.143040 0.962928 0.109478 0.109478 0.962928 0.143040 0.059249 0.962928 0.154825 -0.000000 0.962928 0.143040 -0.059249 0.962928 0.109478 -0.109478 0.962928 0.059249 -0.143040 0.962928 0.000000 -0.154825 0.962928 -0.059249 -0.143040 0.962928 -0.109478 -0.109478 0.962928 -0.143040 -0.059249 0.962928 -0.154825 -0.000000 0.962928 -0.143040 0.059249 0.962928 -0.109478 0.109478 0.962928 -0.059249 0.143040 0.962928 "
							            />
						</IndexedFaceSet>
					</Shape>
				</Group>
			</Transform>
		</Transform>
		<Transform DEF="Cube_020_TRANSFORM"
		           translation="0.886783 0.970324 -0.929018"
		           scale="0.249354 0.249354 0.249354"
		           rotation="0.000000 0.000000 1.000000 3.141592"
		           >
			<Transform DEF="Cube_020_ifs_TRANSFORM"
			           translation="0.000000 -0.000000 -0.000000"
			           scale="1.000000 1.000000 1.000000"
			           rotation="0.000000 0.000000 -0.000000 0.000000"
			           >
				<Group DEF="group_ME_Cube">
					<Shape>
						<Appearance>
							<ImageTexture USE="IM_MetallTextur2_jpg" />
							<TextureTransform 
							                  translation="0.000000 0.000000"
							                  scale="1.000000 1.000000"
							                  rotation="0.000000"
							                  />
							<Material USE="MA_DarkMetall" />
						</Appearance>
						<IndexedFaceSet solid="true"
						                creaseAngle="4.0000"
						                coordIndex="2 0 8 -1 8 1 3 -1 8 3 2 -1 2 3 7 6 -1 4 6 7 -1 7 5 9 -1 7 9 4 -1 8 0 4 9 -1 4 0 2 6 -1 5 7 13 -1 12 11 10 13 -1 8 9 5 1 -1 3 10 11 -1 1 5 13 10 -1 17 12 7 -1 7 18 15 -1 7 15 17 -1 15 14 16 17 -1 19 3 11 -1 11 16 14 -1 11 14 19 -1 7 3 19 18 -1 11 12 17 16 -1 18 19 14 15 -1 10 3 1 -1 13 7 12 -1 28 20 22 -1 22 23 21 -1 22 21 28 -1 22 26 27 23 -1 27 26 24 -1 24 29 25 -1 24 25 27 -1 24 20 28 29 -1 22 20 24 26 -1 25 33 27 -1 32 33 30 31 -1 28 21 25 29 -1 23 31 30 -1 21 30 33 25 -1 27 32 37 -1 37 35 38 -1 37 38 27 -1 35 37 36 34 -1 31 23 39 -1 39 34 36 -1 39 36 31 -1 27 38 39 23 -1 31 36 37 32 -1 38 35 34 39 -1 30 21 23 -1 33 32 27 -1 "
						                >
							<Coordinate DEF="coords_ME_Cube"
							            point="0.315160 -0.810807 -4.470858 0.315160 -0.102894 1.372857 0.315160 0.904235 -4.470858 0.287476 1.738650 2.499835 0.972317 -0.810807 -4.470858 0.972317 -0.102894 1.372857 0.972317 0.904235 -4.470858 1.000000 1.738650 2.499835 0.315160 -0.920198 -3.866978 0.972317 -0.920197 -3.866977 0.287476 0.740407 2.709249 0.287476 1.738650 3.536525 1.000000 1.738650 3.536525 1.000000 0.740407 2.709249 0.126681 4.486585 3.318230 1.160795 4.486585 3.318230 0.126681 4.486585 4.462923 1.160795 4.486585 4.462923 1.000000 2.912426 2.494123 0.287476 2.912420 2.494121 6.797494 -0.810808 -4.470858 6.797494 -0.102894 1.372858 6.797494 0.904234 -4.470858 6.825178 1.738650 2.499835 6.140337 -0.810808 -4.470858 6.140338 -0.102894 1.372858 6.140337 0.904234 -4.470858 6.112654 1.738650 2.499835 6.797494 -0.920198 -3.866978 6.140337 -0.920197 -3.866977 6.825178 0.740407 2.709250 6.825178 1.738650 3.536526 6.112655 1.738650 3.536526 6.112654 0.740407 2.709250 6.985973 4.486585 3.318231 5.951859 4.486585 3.318231 6.985973 4.486585 4.462924 5.951859 4.486585 4.462924 6.112654 2.912426 2.494123 6.825178 2.912420 2.494122 "
							            />
						</IndexedFaceSet>
					</Shape>
				</Group>
			</Transform>
		</Transform>
	</Scene>
</X3D>