<?xml version="1.0" encoding="UTF-8"?>
<!DOCTYPE X3D PUBLIC "ISO//Web3D//DTD X3D 3.0//EN" "http://www.web3d.org/specifications/x3d-3.0.dtd">
<X3D version="3.0" profile="Immersive" xmlns:xsd="http://www.w3.org/2001/XMLSchema-instance" xsd:noNamespaceSchemaLocation="http://www.web3d.org/specifications/x3d-3.0.xsd">
	<head>
		<meta name="filename" content="ISS_Innenraum_Leuchtstoffröhren.x3d" />
		<meta name="generator" content="Blender 2.79 (sub 0)" />
    <meta name="description" content="Blender Export aller Leuchtstoffröhren der ISS" />
    <meta name="author" content="Valentin Schröter" />
	</head>
	<Scene>
		<Transform DEF="Cylinder_432_TRANSFORM"
		           translation="-3.428572 2.801506 13.989964"
		           scale="0.032227 0.032227 0.354976"
		           rotation="-0.577350 -0.577350 0.577351 2.094395"
		           >
			<Transform DEF="Cylinder_432_ifs_TRANSFORM"
			           translation="0.000010 -0.000013 -0.000000"
			           scale="1.000000 1.000000 1.000000"
			           rotation="0.000000 -0.000000 -0.000000 0.000000"
			           >
				<Group DEF="group_ME_Cylinder_477">
					<Shape>
						<Appearance>
							<ImageTexture DEF="IM_lampen_textur_jpg_001"
							              url='"Bilder/lampen_textur.jpg" "lampen_textur.jpg" "C:/Users/Valentin/Documents/Studium/Bitbucket/VR_ISS/ISS/Bilder/lampen_textur.jpg"'
							              />
							<TextureTransform
							                  translation="0.000000 0.000000"
							                  scale="1.000000 1.000000"
							                  rotation="0.000000"
							                  />
              <!-- Transparenz runter, emissiveColor hoch -->
							<Material DEF="MA_Lampen_mateial"
							          diffuseColor="1.000 1.000 1.000"
							          specularColor="0.401 0.401 0.401"
							          emissiveColor="0.000 0.000 0.000"
							          ambientIntensity="0.333"
							          shininess="0.098"
							          transparency="0.3242506980895996"
							          />
						</Appearance>
						<IndexedFaceSet solid="true"
						                creaseAngle="4.0000"
						                coordIndex="0 1 3 2 -1 2 3 5 4 -1 4 5 7 6 -1 6 7 9 8 -1 5 3 1 -1 1 11 9 -1 9 7 5 -1 1 9 5 -1 8 9 11 10 -1 1 0 10 11 -1 10 0 2 -1 2 4 6 -1 6 8 10 -1 2 6 10 -1 "
						                >
							<Coordinate DEF="coords_ME_Cylinder_477"
							            point="0.000000 1.000000 -1.000000 0.000000 1.000000 1.000000 0.866025 0.500000 -1.000000 0.866025 0.500000 1.000000 0.866025 -0.500000 -1.000000 0.866025 -0.500000 1.000000 -0.000000 -1.000000 -1.000000 -0.000000 -1.000000 1.000000 -0.866025 -0.500000 -1.000000 -0.866025 -0.500000 1.000000 -0.866025 0.500000 -1.000000 -0.866025 0.500000 1.000000 "
							            />
						</IndexedFaceSet>
					</Shape>
				</Group>
			</Transform>
		</Transform>
		<Transform DEF="Cylinder_354_TRANSFORM"
		           translation="-0.000001 2.997304 10.862760"
		           scale="0.032227 0.032227 0.354976"
		           rotation="0.707107 -0.000000 0.707107 3.141593"
		           >
			<Transform DEF="Cylinder_354_ifs_TRANSFORM"
			           translation="0.000009 -0.000007 -0.000000"
			           scale="1.000000 1.000000 1.000000"
			           rotation="-0.000000 0.000000 -0.000000 0.000000"
			           >
				<Group DEF="group_ME_Cylinder_384">
					<Shape>
						<Appearance>
							<ImageTexture USE="IM_lampen_textur_jpg_001" />
							<TextureTransform
							                  translation="0.000000 0.000000"
							                  scale="1.000000 1.000000"
							                  rotation="0.000000"
							                  />
							<Material USE="MA_Lampen_mateial" />
						</Appearance>
						<IndexedFaceSet solid="true"
						                creaseAngle="4.0000"
						                coordIndex="0 1 3 2 -1 2 3 5 4 -1 4 5 7 6 -1 6 7 9 8 -1 5 3 1 -1 1 11 9 -1 9 7 5 -1 1 9 5 -1 8 9 11 10 -1 1 0 10 11 -1 10 0 2 -1 2 4 6 -1 6 8 10 -1 2 6 10 -1 "
						                >
							<Coordinate DEF="coords_ME_Cylinder_384"
							            point="0.000000 1.000000 -1.000000 0.000000 1.000000 1.000000 0.866025 0.500000 -1.000000 0.866025 0.500000 1.000000 0.866025 -0.500000 -1.000000 0.866025 -0.500000 1.000000 -0.000000 -1.000000 -1.000000 -0.000000 -1.000000 1.000000 -0.866025 -0.500000 -1.000000 -0.866025 -0.500000 1.000000 -0.866025 0.500000 -1.000000 -0.866025 0.500000 1.000000 "
							            />
						</IndexedFaceSet>
					</Shape>
				</Group>
			</Transform>
		</Transform>
		<Transform DEF="Cylinder_353_TRANSFORM"
		           translation="-0.000001 3.100524 10.862760"
		           scale="0.032227 0.032227 0.354976"
		           rotation="0.707107 -0.000000 0.707107 3.141593"
		           >
			<Transform DEF="Cylinder_353_ifs_TRANSFORM"
			           translation="0.000007 0.000001 0.000000"
			           scale="1.000000 1.000000 1.000000"
			           rotation="-0.000000 0.000000 -0.000000 0.000000"
			           >
				<Group DEF="group_ME_Cylinder_383">
					<Shape>
						<Appearance>
							<ImageTexture USE="IM_lampen_textur_jpg_001" />
							<TextureTransform
							                  translation="0.000000 0.000000"
							                  scale="1.000000 1.000000"
							                  rotation="0.000000"
							                  />
							<Material USE="MA_Lampen_mateial" />
						</Appearance>
						<IndexedFaceSet solid="true"
						                creaseAngle="4.0000"
						                coordIndex="0 1 3 2 -1 2 3 5 4 -1 4 5 7 6 -1 6 7 9 8 -1 5 3 1 -1 1 11 9 -1 9 7 5 -1 1 9 5 -1 8 9 11 10 -1 1 0 10 11 -1 10 0 2 -1 2 4 6 -1 6 8 10 -1 2 6 10 -1 "
						                >
							<Coordinate DEF="coords_ME_Cylinder_383"
							            point="0.000000 1.000000 -1.000000 0.000000 1.000000 1.000000 0.866025 0.500000 -1.000000 0.866025 0.500000 1.000000 0.866025 -0.500000 -1.000000 0.866025 -0.500000 1.000000 -0.000000 -1.000000 -1.000000 -0.000000 -1.000000 1.000000 -0.866025 -0.500000 -1.000000 -0.866025 -0.500000 1.000000 -0.866025 0.500000 -1.000000 -0.866025 0.500000 1.000000 "
							            />
						</IndexedFaceSet>
					</Shape>
				</Group>
			</Transform>
		</Transform>
		<Transform DEF="Cylinder_350_TRANSFORM"
		           translation="-0.000001 3.100524 6.276208"
		           scale="0.032227 0.032227 0.354976"
		           rotation="-0.707107 0.000000 0.707107 3.141593"
		           >
			<Transform DEF="Cylinder_350_ifs_TRANSFORM"
			           translation="0.000030 0.000002 0.000000"
			           scale="1.000000 1.000000 1.000000"
			           rotation="-0.000000 -0.000000 0.000000 0.000000"
			           >
				<Group DEF="group_ME_Cylinder_380">
					<Shape>
						<Appearance>
							<ImageTexture USE="IM_lampen_textur_jpg_001" />
							<TextureTransform
							                  translation="0.000000 0.000000"
							                  scale="1.000000 1.000000"
							                  rotation="0.000000"
							                  />
							<Material USE="MA_Lampen_mateial" />
						</Appearance>
						<IndexedFaceSet solid="true"
						                creaseAngle="4.0000"
						                coordIndex="0 1 3 2 -1 2 3 5 4 -1 4 5 7 6 -1 6 7 9 8 -1 5 3 1 -1 1 11 9 -1 9 7 5 -1 1 9 5 -1 8 9 11 10 -1 1 0 10 11 -1 10 0 2 -1 2 4 6 -1 6 8 10 -1 2 6 10 -1 "
						                >
							<Coordinate DEF="coords_ME_Cylinder_380"
							            point="0.000000 1.000000 -1.000000 0.000000 1.000000 1.000000 0.866025 0.500000 -1.000000 0.866025 0.500000 1.000000 0.866025 -0.500000 -1.000000 0.866025 -0.500000 1.000000 -0.000000 -1.000000 -1.000000 -0.000000 -1.000000 1.000000 -0.866025 -0.500000 -1.000000 -0.866025 -0.500000 1.000000 -0.866025 0.500000 -1.000000 -0.866025 0.500000 1.000000 "
							            />
						</IndexedFaceSet>
					</Shape>
				</Group>
			</Transform>
		</Transform>
		<Transform DEF="Cylinder_349_TRANSFORM"
		           translation="-0.000001 2.997304 6.276208"
		           scale="0.032227 0.032227 0.354976"
		           rotation="-0.707107 0.000000 0.707107 3.141593"
		           >
			<Transform DEF="Cylinder_349_ifs_TRANSFORM"
			           translation="0.000000 -0.000005 0.000000"
			           scale="1.000000 1.000000 1.000000"
			           rotation="-0.000000 -0.000000 0.000000 0.000000"
			           >
				<Group DEF="group_ME_Cylinder_379">
					<Shape>
						<Appearance>
							<ImageTexture USE="IM_lampen_textur_jpg_001" />
							<TextureTransform
							                  translation="0.000000 0.000000"
							                  scale="1.000000 1.000000"
							                  rotation="0.000000"
							                  />
							<Material USE="MA_Lampen_mateial" />
						</Appearance>
						<IndexedFaceSet solid="true"
						                creaseAngle="4.0000"
						                coordIndex="0 1 3 2 -1 2 3 5 4 -1 4 5 7 6 -1 6 7 9 8 -1 5 3 1 -1 1 11 9 -1 9 7 5 -1 1 9 5 -1 8 9 11 10 -1 1 0 10 11 -1 10 0 2 -1 2 4 6 -1 6 8 10 -1 2 6 10 -1 "
						                >
							<Coordinate DEF="coords_ME_Cylinder_379"
							            point="0.000000 1.000000 -1.000000 0.000000 1.000000 1.000000 0.866025 0.500000 -1.000000 0.866025 0.500000 1.000000 0.866025 -0.500000 -1.000000 0.866025 -0.500000 1.000000 -0.000000 -1.000000 -1.000000 -0.000000 -1.000000 1.000000 -0.866025 -0.500000 -1.000000 -0.866025 -0.500000 1.000000 -0.866025 0.500000 -1.000000 -0.866025 0.500000 1.000000 "
							            />
						</IndexedFaceSet>
					</Shape>
				</Group>
			</Transform>
		</Transform>
		<Transform DEF="Cylinder_155_TRANSFORM"
		           translation="1.360969 0.055637 -0.720688"
		           scale="0.032227 0.032227 0.354976"
		           rotation="-0.707107 0.707107 0.000000 3.141593"
		           >
			<Transform DEF="Cylinder_155_ifs_TRANSFORM"
			           translation="0.000000 0.000003 -0.000000"
			           scale="1.000000 1.000000 1.000000"
			           rotation="-0.000000 -0.000000 0.000000 0.000000"
			           >
				<Group DEF="group_ME_Cylinder">
					<Shape>
						<Appearance>
							<ImageTexture USE="IM_lampen_textur_jpg_001" />
							<TextureTransform
							                  translation="0.000000 0.000000"
							                  scale="1.000000 1.000000"
							                  rotation="0.000000"
							                  />
							<Material USE="MA_Lampen_mateial" />
						</Appearance>
						<IndexedFaceSet solid="true"
						                creaseAngle="4.0000"
						                coordIndex="0 1 3 2 -1 2 3 5 4 -1 4 5 7 6 -1 6 7 9 8 -1 5 3 1 -1 1 11 9 -1 9 7 5 -1 1 9 5 -1 8 9 11 10 -1 1 0 10 11 -1 10 0 2 -1 2 4 6 -1 6 8 10 -1 2 6 10 -1 12 14 15 13 -1 14 16 17 15 -1 16 18 19 17 -1 18 20 21 19 -1 13 15 17 -1 17 19 21 -1 21 23 13 -1 17 21 13 -1 20 22 23 21 -1 22 12 13 23 -1 14 12 22 -1 22 20 18 -1 18 16 14 -1 22 18 14 -1 "
						                >
							<Coordinate DEF="coords_ME_Cylinder"
							            point="0.000000 1.000000 -1.000000 0.000000 1.000000 1.000000 0.866025 0.500000 -1.000000 0.866025 0.500000 1.000000 0.866025 -0.500000 -1.000000 0.866025 -0.500000 1.000000 -0.000000 -1.000000 -1.000000 -0.000000 -1.000000 1.000000 -0.866025 -0.500000 -1.000000 -0.866025 -0.500000 1.000000 -0.866025 0.500000 -1.000000 -0.866025 0.500000 1.000000 0.000030 83.461273 -0.999999 0.000030 83.461273 1.000001 0.866056 83.961273 -0.999999 0.866056 83.961273 1.000001 0.866056 84.961273 -0.999999 0.866056 84.961273 1.000001 0.000031 85.461273 -0.999999 0.000031 85.461273 1.000001 -0.865995 84.961273 -0.999999 -0.865995 84.961273 1.000001 -0.865995 83.961273 -0.999999 -0.865995 83.961273 1.000001 "
							            />
						</IndexedFaceSet>
					</Shape>
				</Group>
			</Transform>
		</Transform>
		<Transform DEF="Cylinder_154_TRANSFORM"
		           translation="1.360969 0.055637 2.923168"
		           scale="0.032227 0.032227 0.354976"
		           rotation="-0.707107 0.707107 0.000000 3.141593"
		           >
			<Transform DEF="Cylinder_154_ifs_TRANSFORM"
			           translation="0.000000 -0.000000 -0.000000"
			           scale="1.000000 1.000000 1.000000"
			           rotation="-0.000000 -0.000000 0.000000 0.000000"
			           >
				<Group DEF="group_ME_Cylinder_001">
					<Shape>
						<Appearance>
							<ImageTexture DEF="IM_lampen_textur_jpg_001"
							              url='"Bilder/lampen_textur.jpg" "lampen_textur.jpg" "C:/Users/Valentin/Documents/Studium/Bitbucket/VR_ISS/ISS/Bilder/lampen_textur.jpg"'
							              />
							<TextureTransform
							                  translation="0.000000 0.000000"
							                  scale="1.000000 1.000000"
							                  rotation="0.000000"
							                  />
							<Material DEF="MA_Lampen_mateial"
							          diffuseColor="1.000 1.000 1.000"
							          specularColor="0.401 0.401 0.401"
							          emissiveColor="0.000 0.000 0.000"
							          ambientIntensity="0.333"
							          shininess="0.098"
							          transparency="0.3242506980895996"
							          />
						</Appearance>
						<IndexedFaceSet solid="true"
						                creaseAngle="4.0000"
						                coordIndex="0 1 3 2 -1 2 3 5 4 -1 4 5 7 6 -1 6 7 9 8 -1 5 3 1 -1 1 11 9 -1 9 7 5 -1 1 9 5 -1 8 9 11 10 -1 1 0 10 11 -1 10 0 2 -1 2 4 6 -1 6 8 10 -1 2 6 10 -1 12 14 15 13 -1 14 16 17 15 -1 16 18 19 17 -1 18 20 21 19 -1 13 15 17 -1 17 19 21 -1 21 23 13 -1 17 21 13 -1 20 22 23 21 -1 22 12 13 23 -1 14 12 22 -1 22 20 18 -1 18 16 14 -1 22 18 14 -1 "
						                >
							<Coordinate DEF="coords_ME_Cylinder_001"
							            point="0.000000 1.000000 -1.000000 0.000000 1.000000 1.000000 0.866025 0.500000 -1.000000 0.866025 0.500000 1.000000 0.866025 -0.500000 -1.000000 0.866025 -0.500000 1.000000 -0.000000 -1.000000 -1.000000 -0.000000 -1.000000 1.000000 -0.866025 -0.500000 -1.000000 -0.866025 -0.500000 1.000000 -0.866025 0.500000 -1.000000 -0.866025 0.500000 1.000000 0.000037 83.461266 -0.999999 0.000037 83.461266 1.000001 0.866063 83.961266 -0.999999 0.866063 83.961266 1.000001 0.866064 84.961266 -0.999999 0.866064 84.961266 1.000001 0.000039 85.461266 -0.999999 0.000039 85.461266 1.000001 -0.865987 84.961266 -0.999999 -0.865987 84.961266 1.000001 -0.865988 83.961266 -0.999999 -0.865988 83.961266 1.000001 "
							            />
						</IndexedFaceSet>
					</Shape>
				</Group>
			</Transform>
		</Transform>
		<Transform DEF="Cylinder_151_TRANSFORM"
		           translation="1.360873 2.801506 2.352160"
		           scale="0.032227 0.032227 0.354976"
		           rotation="0.707107 0.707107 0.000000 3.141593"
		           >
			<Transform DEF="Cylinder_151_ifs_TRANSFORM"
			           translation="0.000002 0.000002 0.000000"
			           scale="1.000000 1.000000 1.000000"
			           rotation="-0.000000 0.000000 0.000000 0.000000"
			           >
				<Group DEF="group_ME_Cylinder_064">
					<Shape>
						<Appearance>
							<ImageTexture DEF="IM_lampen_textur_jpg_001"
							              url='"Bilder/lampen_textur.jpg" "lampen_textur.jpg" "C:/Users/Valentin/Documents/Studium/Bitbucket/VR_ISS/ISS/Bilder/lampen_textur.jpg"'
							              />
							<TextureTransform
							                  translation="0.000000 0.000000"
							                  scale="1.000000 1.000000"
							                  rotation="0.000000"
							                  />
							<Material DEF="MA_Lampen_mateial"
							          diffuseColor="1.000 1.000 1.000"
							          specularColor="0.401 0.401 0.401"
							          emissiveColor="0.000 0.000 0.000"
							          ambientIntensity="0.333"
							          shininess="0.098"
							          transparency="0.3242506980895996"
							          />
						</Appearance>
						<IndexedFaceSet solid="true"
						                creaseAngle="4.0000"
						                coordIndex="0 1 3 2 -1 2 3 5 4 -1 4 5 7 6 -1 6 7 9 8 -1 5 3 1 -1 1 11 9 -1 9 7 5 -1 1 9 5 -1 8 9 11 10 -1 1 0 10 11 -1 10 0 2 -1 2 4 6 -1 6 8 10 -1 2 6 10 -1 12 14 15 13 -1 14 16 17 15 -1 16 18 19 17 -1 18 20 21 19 -1 13 15 17 -1 17 19 21 -1 21 23 13 -1 17 21 13 -1 20 22 23 21 -1 22 12 13 23 -1 14 12 22 -1 22 20 18 -1 18 16 14 -1 22 18 14 -1 "
						                >
							<Coordinate DEF="coords_ME_Cylinder_064"
							            point="0.000000 1.000000 -1.000000 0.000000 1.000000 1.000000 0.866025 0.500000 -1.000000 0.866025 0.500000 1.000000 0.866025 -0.500000 -1.000000 0.866025 -0.500000 1.000000 -0.000000 -1.000000 -1.000000 -0.000000 -1.000000 1.000000 -0.866025 -0.500000 -1.000000 -0.866025 -0.500000 1.000000 -0.866025 0.500000 -1.000000 -0.866025 0.500000 1.000000 0.000020 -85.455307 -1.000000 0.000020 -85.455307 0.999999 0.866045 -84.955307 -1.000000 0.866045 -84.955307 0.999999 0.866044 -83.955307 -1.000000 0.866044 -83.955307 0.999999 0.000018 -83.455307 -1.000000 0.000018 -83.455307 0.999999 -0.866007 -83.955307 -1.000000 -0.866007 -83.955307 0.999999 -0.866006 -84.955307 -1.000000 -0.866006 -84.955307 0.999999 "
							            />
						</IndexedFaceSet>
					</Shape>
				</Group>
			</Transform>
		</Transform>
		<Transform DEF="Cylinder_431_TRANSFORM"
		           translation="-3.428572 2.801506 13.901619"
		           scale="0.032227 0.032227 0.354976"
		           rotation="-0.577350 -0.577350 0.577351 2.094395"
		           >
			<Transform DEF="Cylinder_431_ifs_TRANSFORM"
			           translation="0.000010 -0.000013 -0.000000"
			           scale="1.000000 1.000000 1.000000"
			           rotation="0.000000 -0.000000 -0.000000 0.000000"
			           >
				<Group DEF="group_ME_Cylinder_476">
					<Shape>
						<Appearance>
							<ImageTexture DEF="IM_lampen_textur_jpg_001"
							              url='"Bilder/lampen_textur.jpg" "lampen_textur.jpg" "C:/Users/Valentin/Documents/Studium/Bitbucket/VR_ISS/ISS/Bilder/lampen_textur.jpg"'
							              />
							<TextureTransform
							                  translation="0.000000 0.000000"
							                  scale="1.000000 1.000000"
							                  rotation="0.000000"
							                  />
							<Material DEF="MA_Lampen_mateial"
							          diffuseColor="1.000 1.000 1.000"
							          specularColor="0.401 0.401 0.401"
							          emissiveColor="0.000 0.000 0.000"
							          ambientIntensity="0.333"
							          shininess="0.098"
							          transparency="0.3242506980895996"
							          />
						</Appearance>
						<IndexedFaceSet solid="true"
						                creaseAngle="4.0000"
						                coordIndex="0 1 3 2 -1 2 3 5 4 -1 4 5 7 6 -1 6 7 9 8 -1 5 3 1 -1 1 11 9 -1 9 7 5 -1 1 9 5 -1 8 9 11 10 -1 1 0 10 11 -1 10 0 2 -1 2 4 6 -1 6 8 10 -1 2 6 10 -1 "
						                >
							<Coordinate DEF="coords_ME_Cylinder_476"
							            point="0.000000 1.000000 -1.000000 0.000000 1.000000 1.000000 0.866025 0.500000 -1.000000 0.866025 0.500000 1.000000 0.866025 -0.500000 -1.000000 0.866025 -0.500000 1.000000 -0.000000 -1.000000 -1.000000 -0.000000 -1.000000 1.000000 -0.866025 -0.500000 -1.000000 -0.866025 -0.500000 1.000000 -0.866025 0.500000 -1.000000 -0.866025 0.500000 1.000000 "
							            />
						</IndexedFaceSet>
					</Shape>
				</Group>
			</Transform>
		</Transform>
		<Transform DEF="Cylinder_359_TRANSFORM"
		           translation="3.459552 2.801506 13.886958"
		           scale="0.032227 0.032227 0.354976"
		           rotation="-0.577350 -0.577350 0.577351 2.094395"
		           >
			<Transform DEF="Cylinder_359_ifs_TRANSFORM"
			           translation="0.000004 -0.000049 -0.000000"
			           scale="1.000000 1.000000 1.000000"
			           rotation="0.000000 -0.000000 -0.000000 0.000000"
			           >
				<Group DEF="group_ME_Cylinder_066">
					<Shape>
						<Appearance>
							<ImageTexture USE="IM_lampen_textur_jpg_001" />
							<TextureTransform
							                  translation="0.000000 0.000000"
							                  scale="1.000000 1.000000"
							                  rotation="0.000000"
							                  />
							<Material USE="MA_Lampen_mateial" />
						</Appearance>
						<IndexedFaceSet solid="true"
						                creaseAngle="4.0000"
						                coordIndex="0 1 3 2 -1 2 3 5 4 -1 4 5 7 6 -1 6 7 9 8 -1 5 3 1 -1 1 11 9 -1 9 7 5 -1 1 9 5 -1 8 9 11 10 -1 1 0 10 11 -1 10 0 2 -1 2 4 6 -1 6 8 10 -1 2 6 10 -1 12 14 15 13 -1 14 16 17 15 -1 16 18 19 17 -1 18 20 21 19 -1 13 15 17 -1 17 19 21 -1 21 23 13 -1 17 21 13 -1 20 22 23 21 -1 22 12 13 23 -1 14 12 22 -1 22 20 18 -1 18 16 14 -1 22 18 14 -1 "
						                >
							<Coordinate DEF="coords_ME_Cylinder_066"
							            point="0.000000 1.000000 -1.000000 0.000000 1.000000 1.000000 0.866025 0.500000 -1.000000 0.866025 0.500000 1.000000 0.866025 -0.500000 -1.000000 0.866025 -0.500000 1.000000 -0.000000 -1.000000 -1.000000 -0.000000 -1.000000 1.000000 -0.866025 -0.500000 -1.000000 -0.866025 -0.500000 1.000000 -0.866025 0.500000 -1.000000 -0.866025 0.500000 1.000000 0.000008 -83.507736 -0.999994 0.000008 -83.507706 1.000006 0.866033 -83.007736 -0.999994 0.866033 -83.007706 1.000006 0.866033 -82.007736 -0.999995 0.866033 -82.007706 1.000005 0.000007 -81.507736 -0.999995 0.000007 -81.507706 1.000005 -0.866018 -82.007736 -0.999995 -0.866018 -82.007706 1.000005 -0.866018 -83.007736 -0.999994 -0.866018 -83.007706 1.000006 "
							            />
						</IndexedFaceSet>
					</Shape>
				</Group>
			</Transform>
		</Transform>
		<Transform DEF="Cylinder_356_TRANSFORM"
		           translation="-1.372433 2.801506 13.271511"
		           scale="0.032227 0.032227 0.354976"
		           rotation="0.707107 0.707107 -0.000000 3.141593"
		           >
			<Transform DEF="Cylinder_356_ifs_TRANSFORM"
			           translation="0.000006 -0.000004 -0.000003"
			           scale="1.000000 1.000000 1.000000"
			           rotation="0.000000 -0.000000 -0.000000 0.000000"
			           >
				<Group DEF="group_ME_Cylinder_067">
					<Shape>
						<Appearance>
							<ImageTexture DEF="IM_lampen_textur_jpg_001"
							              url='"Bilder/lampen_textur.jpg" "lampen_textur.jpg" "C:/Users/Valentin/Documents/Studium/Bitbucket/VR_ISS/ISS/Bilder/lampen_textur.jpg"'
							              />
							<TextureTransform
							                  translation="0.000000 0.000000"
							                  scale="1.000000 1.000000"
							                  rotation="0.000000"
							                  />
							<Material DEF="MA_Lampen_mateial"
							          diffuseColor="1.000 1.000 1.000"
							          specularColor="0.401 0.401 0.401"
							          emissiveColor="0.000 0.000 0.000"
							          ambientIntensity="0.333"
							          shininess="0.098"
							          transparency="0.3242506980895996"
							          />
						</Appearance>
						<IndexedFaceSet solid="true"
						                creaseAngle="4.0000"
						                coordIndex="0 1 3 2 -1 2 3 5 4 -1 4 5 7 6 -1 6 7 9 8 -1 5 3 1 -1 1 11 9 -1 9 7 5 -1 1 9 5 -1 8 9 11 10 -1 1 0 10 11 -1 10 0 2 -1 2 4 6 -1 6 8 10 -1 2 6 10 -1 12 14 15 13 -1 14 16 17 15 -1 16 18 19 17 -1 18 20 21 19 -1 13 15 17 -1 17 19 21 -1 21 23 13 -1 17 21 13 -1 20 22 23 21 -1 22 12 13 23 -1 14 12 22 -1 22 20 18 -1 18 16 14 -1 22 18 14 -1 24 26 27 25 -1 26 28 29 27 -1 28 30 31 29 -1 30 32 33 31 -1 25 27 29 -1 29 31 33 -1 33 35 25 -1 29 33 25 -1 32 34 35 33 -1 34 24 25 35 -1 26 24 34 -1 34 32 30 -1 30 28 26 -1 34 30 26 -1 36 37 39 38 -1 38 39 41 40 -1 40 41 43 42 -1 42 43 45 44 -1 41 39 37 -1 37 47 45 -1 45 43 41 -1 37 45 41 -1 44 45 47 46 -1 46 47 37 36 -1 46 36 38 -1 38 40 42 -1 42 44 46 -1 38 42 46 -1 "
						                >
							<Coordinate DEF="coords_ME_Cylinder_067"
							            point="0.000000 1.000000 -1.000000 0.000000 1.000000 1.000000 0.866025 0.500000 -1.000000 0.866025 0.500000 1.000000 0.866025 -0.500000 -1.000000 0.866025 -0.500000 1.000000 -0.000000 -1.000000 -1.000000 -0.000000 -1.000000 1.000000 -0.866025 -0.500000 -1.000000 -0.866025 -0.500000 1.000000 -0.866025 0.500000 -1.000000 -0.866025 0.500000 1.000000 -0.000052 84.172630 -1.000003 -0.000052 84.172646 0.999997 0.865973 84.672630 -1.000003 0.865973 84.672646 0.999997 0.865971 85.672630 -1.000003 0.865971 85.672646 0.999997 -0.000055 86.172630 -1.000003 -0.000055 86.172646 0.999997 -0.866080 85.672630 -1.000003 -0.866080 85.672646 0.999997 -0.866078 84.672630 -1.000003 -0.866078 84.672646 0.999997 -85.203758 0.999947 -0.999999 -85.203758 0.999947 1.000000 -86.069786 0.499945 -0.999999 -86.069786 0.499945 1.000000 -86.069786 -0.500055 -0.999999 -86.069786 -0.500055 1.000000 -85.203758 -1.000053 -0.999999 -85.203758 -1.000053 1.000000 -84.337730 -0.500052 -0.999999 -84.337730 -0.500052 1.000000 -84.337730 0.499948 -0.999999 -84.337730 0.499948 1.000000 -85.203819 84.172577 -1.000002 -85.203819 84.172592 0.999997 -86.069839 84.672577 -1.000002 -86.069847 84.672592 0.999997 -86.069839 85.672577 -1.000002 -86.069847 85.672592 0.999997 -85.203819 86.172577 -1.000002 -85.203819 86.172592 0.999997 -84.337791 85.672577 -1.000002 -84.337791 85.672592 0.999997 -84.337791 84.672577 -1.000002 -84.337791 84.672592 0.999997 "
							            />
						</IndexedFaceSet>
					</Shape>
				</Group>
			</Transform>
		</Transform>
		<Transform DEF="Cylinder_442_TRANSFORM"
		           translation="-1.372935 2.779683 17.081491"
		           scale="0.032227 0.032227 0.354976"
		           rotation="0.000000 0.000001 1.000000 3.141593"
		           >
			<Transform DEF="Cylinder_442_ifs_TRANSFORM"
			           translation="0.000000 -0.000006 -0.000005"
			           scale="1.000000 1.000000 1.000000"
			           rotation="0.000000 0.000000 0.000000 0.000000"
			           >
				<Group DEF="group_ME_Cylinder_072">
					<Shape>
						<Appearance>
							<ImageTexture DEF="IM_lampen_textur_jpg_001"
							              url='"Bilder/lampen_textur.jpg" "lampen_textur.jpg" "C:/Users/Valentin/Documents/Studium/Bitbucket/VR_ISS/ISS/Bilder/lampen_textur.jpg"'
							              />
							<TextureTransform
							                  translation="0.000000 0.000000"
							                  scale="1.000000 1.000000"
							                  rotation="0.000000"
							                  />
							<Material DEF="MA_Lampen_mateial"
							          diffuseColor="1.000 1.000 1.000"
							          specularColor="0.401 0.401 0.401"
							          emissiveColor="0.000 0.000 0.000"
							          ambientIntensity="0.333"
							          shininess="0.098"
							          transparency="0.3242506980895996"
							          />
						</Appearance>
						<IndexedFaceSet solid="true"
						                creaseAngle="4.0000"
						                coordIndex="0 1 3 2 -1 2 3 5 4 -1 4 5 7 6 -1 6 7 9 8 -1 5 3 1 -1 1 11 9 -1 9 7 5 -1 1 9 5 -1 8 9 11 10 -1 1 0 10 11 -1 10 0 2 -1 2 4 6 -1 6 8 10 -1 2 6 10 -1 12 14 15 13 -1 14 16 17 15 -1 16 18 19 17 -1 18 20 21 19 -1 13 15 17 -1 17 19 21 -1 21 23 13 -1 17 21 13 -1 20 22 23 21 -1 22 12 13 23 -1 14 12 22 -1 22 20 18 -1 18 16 14 -1 22 18 14 -1 "
						                >
							<Coordinate DEF="coords_ME_Cylinder_072"
							            point="0.000000 1.000000 -1.000000 0.000000 1.000000 1.000000 0.866025 0.500000 -1.000000 0.866025 0.500000 1.000000 0.866025 -0.500000 -1.000000 0.866025 -0.500000 1.000000 -0.000000 -1.000000 -1.000000 -0.000000 -1.000000 1.000000 -0.866025 -0.500000 -1.000000 -0.866025 -0.500000 1.000000 -0.866025 0.500000 -1.000000 -0.866025 0.500000 1.000000 -85.203735 1.000057 -1.000000 -85.203728 1.000057 1.000000 -86.069763 0.500058 -1.000000 -86.069756 0.500058 1.000000 -86.069763 -0.499942 -1.000000 -86.069756 -0.499942 1.000000 -85.203743 -0.999943 -1.000000 -85.203735 -0.999943 1.000000 -84.337715 -0.499944 -1.000000 -84.337708 -0.499944 1.000000 -84.337715 0.500056 -1.000000 -84.337708 0.500056 1.000000 "
							            />
						</IndexedFaceSet>
					</Shape>
				</Group>
			</Transform>
		</Transform>
		<Transform DEF="Cylinder_150_TRANSFORM"
		           translation="1.360873 2.801506 -0.808259"
		           scale="0.032227 0.032227 0.354976"
		           rotation="0.707107 0.707107 0.000000 3.141593"
		           >
			<Transform DEF="Cylinder_150_ifs_TRANSFORM"
			           translation="0.000002 0.000003 0.000000"
			           scale="1.000000 1.000000 1.000000"
			           rotation="-0.000000 0.000000 0.000000 0.000000"
			           >
				<Group DEF="group_ME_Cylinder_074">
					<Shape>
						<Appearance>
							<ImageTexture DEF="IM_lampen_textur_jpg_001"
							              url='"Bilder/lampen_textur.jpg" "lampen_textur.jpg" "C:/Users/Valentin/Documents/Studium/Bitbucket/VR_ISS/ISS/Bilder/lampen_textur.jpg"'
							              />
							<TextureTransform
							                  translation="0.000000 0.000000"
							                  scale="1.000000 1.000000"
							                  rotation="0.000000"
							                  />
							<Material DEF="MA_Lampen_mateial"
							          diffuseColor="1.000 1.000 1.000"
							          specularColor="0.401 0.401 0.401"
							          emissiveColor="0.000 0.000 0.000"
							          ambientIntensity="0.333"
							          shininess="0.098"
							          transparency="0.3242506980895996"
							          />
						</Appearance>
						<IndexedFaceSet solid="true"
						                creaseAngle="4.0000"
						                coordIndex="0 1 3 2 -1 2 3 5 4 -1 4 5 7 6 -1 6 7 9 8 -1 5 3 1 -1 1 11 9 -1 9 7 5 -1 1 9 5 -1 8 9 11 10 -1 1 0 10 11 -1 10 0 2 -1 2 4 6 -1 6 8 10 -1 2 6 10 -1 12 14 15 13 -1 14 16 17 15 -1 16 18 19 17 -1 18 20 21 19 -1 13 15 17 -1 17 19 21 -1 21 23 13 -1 17 21 13 -1 20 22 23 21 -1 22 12 13 23 -1 14 12 22 -1 22 20 18 -1 18 16 14 -1 22 18 14 -1 "
						                >
							<Coordinate DEF="coords_ME_Cylinder_074"
							            point="0.000000 1.000000 -1.000000 0.000000 1.000000 1.000000 0.866025 0.500000 -1.000000 0.866025 0.500000 1.000000 0.866025 -0.500000 -1.000000 0.866025 -0.500000 1.000000 -0.000000 -1.000000 -1.000000 -0.000000 -1.000000 1.000000 -0.866025 -0.500000 -1.000000 -0.866025 -0.500000 1.000000 -0.866025 0.500000 -1.000000 -0.866025 0.500000 1.000000 0.000035 -85.455292 -0.999998 0.000035 -85.455292 1.000002 0.866060 -84.955292 -0.999998 0.866060 -84.955292 1.000002 0.866059 -83.955292 -0.999998 0.866059 -83.955292 1.000002 0.000033 -83.455292 -0.999998 0.000033 -83.455292 1.000002 -0.865991 -83.955292 -0.999998 -0.865991 -83.955292 1.000002 -0.865991 -84.955292 -0.999998 -0.865991 -84.955292 1.000002 "
							            />
						</IndexedFaceSet>
					</Shape>
				</Group>
			</Transform>
		</Transform>
	</Scene>
</X3D>
