<?xml version="1.0" encoding="UTF-8"?>
<!DOCTYPE X3D PUBLIC "ISO//Web3D//DTD X3D 3.0//EN" "http://www.web3d.org/specifications/x3d-3.0.dtd">
<X3D version="3.0" profile="Immersive" xmlns:xsd="http://www.w3.org/2001/XMLSchema-instance" xsd:noNamespaceSchemaLocation="http://www.web3d.org/specifications/x3d-3.0.xsd">
	<head>
		<meta name="filename" content="ISS_Innenraum_Luftschleuse_Innen_Hebel.x3d" />
		<meta name="generator" content="Blender 2.79 (sub 0)" />
    <meta name="description" content="Blender Export des Hebels für die innere Luftschleuse" />
    <meta name="author" content="Valentin Schröter" />
	</head>
	<Scene>
		
		<Transform DEF="Cube_045_TRANSFORM"
		           translation="0.000000 0.000000 0.000000"
		           scale="0.069081 0.033261 0.069081"
		           rotation="1.000000 0.000000 0.000000 1.570797"
		           >
			<Transform DEF="Cube_045_ifs_TRANSFORM"
			           translation="0.000000 0.000000 0.000000"
			           scale="1.000000 1.000000 1.000000"
			           rotation="-0.000000 0.000000 0.000000 0.000000"
			           >
				<Group DEF="group_ME_Cube_055">
					<Shape>
						<Appearance>
							<ImageTexture DEF="IM_MetallTextur2_jpg"
							              url='"Bilder/MetallTextur2.jpg" "MetallTextur2.jpg" "C:/Users/Valentin/Documents/Studium/Bitbucket/VR_ISS/ISS/Bilder/MetallTextur2.jpg"'
							              />
							<TextureTransform 
							                  translation="0.000000 0.000000"
							                  scale="1.000000 1.000000"
							                  rotation="0.000000"
							                  />
							<Material DEF="MA_DarkMetall"
							          diffuseColor="0.800 0.800 0.800"
							          specularColor="0.644 0.644 0.644"
							          emissiveColor="0.000 0.000 0.000"
							          ambientIntensity="0.333"
							          shininess="0.279"
							          transparency="0.0"
							          />
						</Appearance>
						<IndexedFaceSet solid="true"
						                coordIndex="0 1 3 2 -1 2 3 5 4 -1 4 5 7 6 -1 6 7 9 8 -1 8 9 11 10 -1 11 13 42 -1 11 42 41 -1 40 12 10 -1 11 41 45 -1 45 40 10 -1 10 11 45 -1 5 3 1 -1 1 15 13 -1 13 102 106 -1 1 13 106 -1 107 104 5 -1 1 106 105 -1 107 5 1 -1 1 105 107 -1 14 12 40 -1 14 40 43 -1 42 13 15 -1 14 43 44 -1 44 42 15 -1 44 15 14 -1 1 0 14 15 -1 14 0 2 -1 2 4 6 -1 6 8 10 -1 10 12 14 -1 14 2 6 -1 6 10 14 -1 19 18 20 23 -1 45 18 19 -1 19 43 40 -1 19 40 45 -1 18 45 41 16 -1 22 23 27 26 -1 16 17 22 21 -1 17 19 23 22 -1 18 16 21 20 -1 27 24 28 31 -1 20 21 25 24 -1 23 20 24 27 -1 21 22 26 25 -1 30 31 35 34 -1 25 26 30 29 -1 26 27 31 30 -1 24 25 29 28 -1 32 33 37 36 -1 28 29 33 32 -1 31 28 32 35 -1 29 30 34 33 -1 37 38 39 36 -1 35 32 36 39 -1 33 34 38 37 -1 34 35 39 38 -1 44 43 19 17 -1 16 41 42 -1 42 44 17 -1 42 17 16 -1 46 47 49 48 -1 48 49 51 50 -1 50 51 53 52 -1 52 53 55 54 -1 54 55 57 56 -1 57 59 88 -1 57 88 87 -1 86 58 56 -1 57 87 91 -1 91 86 56 -1 56 57 91 -1 51 49 47 -1 47 61 59 -1 59 57 55 -1 55 53 51 -1 51 47 59 -1 59 55 51 -1 60 58 86 -1 60 86 89 -1 88 59 61 -1 60 89 90 -1 90 88 61 -1 90 61 60 -1 60 61 47 46 -1 56 58 98 97 -1 65 64 66 69 -1 91 64 65 -1 65 89 86 -1 65 86 91 -1 64 91 87 62 -1 68 69 73 72 -1 62 63 68 67 -1 63 65 69 68 -1 64 62 67 66 -1 73 70 74 77 -1 66 67 71 70 -1 69 66 70 73 -1 67 68 72 71 -1 76 77 81 80 -1 71 72 76 75 -1 72 73 77 76 -1 70 71 75 74 -1 78 79 83 82 -1 74 75 79 78 -1 77 74 78 81 -1 75 76 80 79 -1 83 84 85 82 -1 81 78 82 85 -1 79 80 84 83 -1 80 81 85 84 -1 90 89 65 63 -1 62 87 88 -1 88 90 63 -1 88 63 62 -1 95 96 100 103 -1 52 54 96 95 -1 58 60 99 98 -1 48 50 94 93 -1 54 56 97 96 -1 60 46 92 99 -1 46 48 93 92 -1 50 52 95 94 -1 93 94 104 107 -1 98 99 106 102 -1 96 97 101 100 -1 94 95 103 104 -1 92 93 107 105 -1 99 92 105 106 -1 97 98 102 101 -1 7 5 104 -1 7 104 103 -1 11 9 7 -1 102 13 11 -1 101 102 11 -1 7 103 100 -1 100 101 11 -1 100 11 7 -1 "
						                >
							<Coordinate DEF="coords_ME_Cube_055"
							            point="0.000003 8.843282 2.123500 0.000003 6.127774 2.123500 1.501542 8.843278 1.501542 1.501542 6.127774 1.501542 2.123499 8.843278 0.000004 2.123499 6.127774 0.000004 1.501542 8.843282 -1.501535 1.501542 6.127774 -1.501535 0.000003 8.843282 -2.123492 0.000003 6.127774 -2.123492 -1.501535 8.843282 -1.501535 -1.501535 6.127778 -1.501535 -2.123493 8.843282 0.000003 -2.123493 6.127778 0.000003 -1.501535 8.843282 1.501541 -1.501535 6.127774 1.501541 -3.039423 6.538327 -0.999997 -3.039423 6.538327 1.000003 -3.039423 8.538327 -0.999997 -3.039423 8.538327 1.000003 -3.218252 8.527497 -0.989169 -3.218252 6.549153 -0.989169 -3.218252 6.549153 0.989175 -3.218252 8.527497 0.989175 -6.981551 8.409837 -0.871506 -6.981551 6.666817 -0.871506 -6.981551 6.666817 0.871511 -6.981551 8.409837 0.871511 -10.802114 8.226476 -0.688142 -10.802114 6.850186 -0.688142 -10.802114 6.850186 0.688146 -10.802114 8.226476 0.688146 -13.179523 8.057630 -0.519297 -13.179523 7.019032 -0.519297 -13.179523 7.019032 0.519300 -13.179523 8.057630 0.519300 -14.370786 7.983521 -0.445189 -14.370786 7.093144 -0.445189 -14.370786 7.093144 0.445191 -14.370786 7.983521 0.445191 -2.123493 8.538323 0.000003 -1.709279 6.538323 -0.999997 -2.123493 6.538323 0.000003 -1.709279 8.538323 1.000003 -1.709279 6.538323 1.000003 -1.709279 8.538323 -0.999997 0.000002 -4.533794 2.123493 0.000002 -7.249302 2.123493 1.501541 -4.533794 1.501536 1.501541 -7.249302 1.501536 2.123498 -4.533794 -0.000003 2.123498 -7.249302 -0.000003 1.501541 -4.533794 -1.501542 1.501541 -7.249302 -1.501542 0.000002 -4.533794 -2.123499 0.000002 -7.249302 -2.123499 -1.501536 -4.533794 -1.501541 -1.501536 -7.249302 -1.501541 -2.123494 -4.533794 -0.000003 -2.123494 -7.249302 -0.000003 -1.501536 -4.533794 1.501535 -1.501536 -7.249302 1.501535 -3.039424 -6.838753 -1.000003 -3.039424 -6.838753 0.999997 -3.039424 -4.838753 -1.000003 -3.039424 -4.838753 0.999997 -3.218253 -4.849581 -0.989175 -3.218253 -6.827925 -0.989175 -3.218253 -6.827925 0.989169 -3.218253 -4.849581 0.989169 -6.981552 -4.967243 -0.871512 -6.981552 -6.710262 -0.871512 -6.981552 -6.710262 0.871506 -6.981552 -4.967243 0.871506 -10.802115 -5.150608 -0.688147 -10.802115 -6.526897 -0.688147 -10.802115 -6.526897 0.688141 -10.802115 -5.150608 0.688141 -13.179524 -5.319454 -0.519302 -13.179524 -6.358051 -0.519302 -13.179524 -6.358051 0.519296 -13.179524 -5.319454 0.519296 -14.370787 -5.393562 -0.445193 -14.370787 -6.283943 -0.445193 -14.370787 -6.283943 0.445187 -14.370787 -5.393562 0.445187 -2.123494 -4.838753 -0.000003 -1.709280 -6.838753 -1.000003 -2.123494 -6.838753 -0.000003 -1.709280 -4.838753 0.999997 -1.709280 -6.838753 0.999997 -1.709280 -4.838753 -1.000003 0.000002 -4.533794 1.310497 0.926666 -4.533794 0.926661 1.310503 -4.533794 -0.000003 0.926666 -4.533794 -0.926667 0.000002 -4.533794 -1.310503 -0.926661 -4.533794 -0.926667 -1.310498 -4.533794 -0.000003 -0.926661 -4.533794 0.926661 0.000009 6.127774 -1.310497 -0.926655 6.127774 -0.926660 -1.310491 6.127778 0.000003 0.926673 6.127774 -0.926660 1.310509 6.127774 0.000004 0.000009 6.127770 1.310504 -0.926655 6.127774 0.926667 0.926673 6.127770 0.926668 "
							            />
						</IndexedFaceSet>
					</Shape>
				</Group>
			</Transform>
		</Transform>
	</Scene>
</X3D>