<?xml version="1.0" encoding="UTF-8" ?>
<X3D version="3.0" profile="Interchange" xmlns:xsd="http://www.w3.org/2001/XMLSchema-instance" xsd:noNamespaceSchemaLocation="http://www.web3d.org/specifications/x3d-3.0.xsd">
  <Scene>
    <DirectionalLight DEF="light" direction="0 -1 0" color="0.0 1.0 1.0" on="false" />

    <Inline DEF="Koerper" url="Lampe.x3d" />

    <IMPORT inlineDEF="Koerper" exportedDEF='touchExport' as='touchExport1'/>
    <ROUTE fromField="isOver" fromNode="touchExport1" toField="set_on" toNode="light" />

  </Scene>
</X3D>
