<?xml version="1.0" encoding="UTF-8"?>
<!DOCTYPE X3D PUBLIC "ISO//Web3D//DTD X3D 3.0//EN" "http://www.web3d.org/specifications/x3d-3.0.dtd">
<X3D version="3.0" profile="Immersive"
	xmlns:xsd="http://www.w3.org/2001/XMLSchema-instance" xsd:noNamespaceSchemaLocation="http://www.web3d.org/specifications/x3d-3.0.xsd">
	<head>
		<meta name="filename" content="BlenderTest.x3d" />
		<meta name="generator" content="Blender 2.79 (sub 0)" />
	</head>
	<Scene>

		<!-- General settings -->

		<!-- Startpunkt in der VR -->
		<Viewpoint description="Start" position="-100 -100 4000" orientation="1 0 0" type="FLY"/>

		<Transform DEF="PersonOrbit">
				<Viewpoint description='TEST' position='-109.687 55.0715 4199.74' orientation='-0.000580535 0.994729 0.102539 3.13033' fieldOfView='0.785398' centerOfRotation='-113.503 -10.243 4513.16' type="FLY"/>
		</Transform>

		<!-- Turn off ambition light -->
		<NavigationInfo headlight="false"/>



		<!-- World Background Color -->
		<!-- <Background DEF="WO_World" groundColor="0.051 0.1 0.051" skyColor="0.051 0.0 0.11"/> -->
		<Shape> 
    		<Sphere solid="false" radius='500000'></Sphere>
    		<Appearance>
    			<Material emissiveColor='1,1,1'></Material>
                <ImageTexture url="./SkyTest/8k_stars_milky_way.jpg"></ImageTexture>
    		</Appearance>
    	</Shape> 

		<!-- Planets -->

		<!-- Sun -->
		<Transform DEF="Sun" scale="1000 1000 1000">
			<Inline url="Sun.x3d"/>
			<PointLight global="true" ambientIntensity="0.5" color="1.0000 1.0000 1.0000" intensity="1"/>
		</Transform>

		<!-- Moon
				Rotate the orbit 5,15° -> realistic :)
				Orbit == 30 * Earth Diameter
				Moon Diameter ~= 0,27 of Earth
				Rotate the moon a little bit -> right side faces the earth
			-->
		<Transform translation="0 0 5000" rotation="0 0 1 0.09">
			<Transform DEF="MoonOrbit">
				<Transform DEF="Moon" translation="0 0 500" scale="40 40 40">
					<Transform rotation="0 1 0.3 2.0">
						<Inline url="Moon.x3d"/>
					</Transform>
				</Transform>
			</Transform>
		</Transform>

		<!-- Earth -->
		<Transform DEF="Earth" translation="0 0 5000" scale="120 120 120" >
			<Inline url="Earth.x3d"/>
		</Transform>

		<!-- Cloud Sphere -->
		<Transform DEF="Clouds" translation="0 0 5000" scale="125 125 125">
			<Inline url="EarthClouds.x3d"/>
		</Transform>

		<!-- Mercury -->
		<Transform rotation="0 0 1 0.09">
			<Transform DEF="MercuryOrbit">
				<Transform DEF="Mercury" translation="0 0 2500" rotation="1 0 0 0.41" scale="35 35 35">
					<Inline url="Mercury.x3d"/>
				</Transform>
			</Transform>
		</Transform>


		<!-- Venus -->
		<Transform rotation="0 0 1 0.09">
			<Transform DEF="VenusOrbit">
				<Transform DEF="Venus" translation="0 0 3500" rotation="1 0 0 0.41" scale="100 100 100">
					<Inline url="Venus.x3d"/>
				</Transform>
			</Transform>
		</Transform>

		<!-- Mars -->
		<Transform rotation="0 0 1 0.09">
			<Transform DEF="MarsOrbit">
				<Transform DEF="Mars" translation="0 0 7000" rotation="1 0 0 0.41" scale="50 50 50">
					<Inline url="Mars.x3d"/>
				</Transform>
			</Transform>
		</Transform>

		<!-- Jupiter -->
		<Transform rotation="0 0 1 0.09">
			<Transform DEF="JupiterOrbit">
				<Transform DEF="Jupiter" translation="0 0 9000" rotation="1 0 0 0.41" scale="500 500 500">
					<Inline url="Jupiter.x3d"/>
				</Transform>
			</Transform>
		</Transform>

		<!-- Saturn -->
		<Transform rotation="0 0 1 0.09">
			<Transform DEF="SaturnOrbit">
				<Transform DEF="Saturn" translation="0 0 11000" rotation="1 0 0 0.41" scale="450 450 450">
					<Inline url="Saturn.x3d"/>
				</Transform>
			</Transform>
		</Transform>

		<!-- Uranus -->
		<Transform rotation="0 0 1 0.09">
			<Transform DEF="UranusOrbit">
				<Transform DEF="Uranus" translation="0 0 13000" rotation="1 0 0 0.41" scale="200 200 200">
					<Inline url="Uranus.x3d"/>
				</Transform>
			</Transform>
		</Transform>

		<!-- Neptune -->
		<Transform rotation="0 0 1 0.09">
			<Transform DEF="NeptuneOrbit">
				<Transform DEF="Neptune" translation="0 0 15000" rotation="1 0 0 0.41" scale="200 200 200">
					<Inline url="Neptune.x3d"/>
				</Transform>
			</Transform>
		</Transform>

		<!-- Pluto -->
		<Transform rotation="0 0 1 0.09">
			<Transform DEF="PlutoOrbit">
				<Transform DEF="Pluto" translation="0 0 17000" rotation="1 0 0 0.41" scale="20 20 20">
					<Inline url="Pluto.x3d"/>
				</Transform>
			</Transform>
		</Transform>

		<!-- ISS -->

		<!--
			Insert 4 Solar Cells, move and rotate them a bit
		-->
		<Transform DEF="ISS" translation="0 0 4850" scale="1 1 1">
			<Inline url="../ISS/ISS_X3D_Komplett_Zusammengesetzt.x3d"/>
		</Transform>

		<!-- TimeSensors for the animations -->
		<TimeSensor DEF='ts' cycleInterval='50' loop='true' startTime='1'/>
		<TimeSensor DEF='earthTimeSensor' cycleInterval='100' loop='true' startTime='1'/>
		<TimeSensor DEF='cloudTimeSensor' cycleInterval='100' loop='true' startTime='1'/>
		<TimeSensor DEF='moonTimeSensor' cycleInterval='10' loop='true' startTime='1'/>
		<TimeSensor DEF='mercuryTimeSensor' cycleInterval='150' loop='true' startTime='1'/>
		<TimeSensor DEF='venusTimeSensor' cycleInterval='200' loop='true' startTime='1'/>
		<TimeSensor DEF='marsTimeSensor' cycleInterval='300' loop='true' startTime='1'/>
		<TimeSensor DEF='jupiterTimeSensor' cycleInterval='450' loop='true' startTime='1'/>
		<TimeSensor DEF='saturnTimeSensor' cycleInterval='900' loop='true' startTime='1'/>
		<TimeSensor DEF='neptuneTimeSensor' cycleInterval='2700' loop='true' startTime='1'/>
		<TimeSensor DEF='uranusTimeSensor' cycleInterval='5400' loop='true' startTime='1'/>
		<TimeSensor DEF='plutoTimeSensor' cycleInterval='10800' loop='true' startTime='1'/>

		<!-- Self rotation-->
		<TimeSensor DEF='moonTimeSensorSelf' cycleInterval='150' loop='true' startTime='1'/>
		<TimeSensor DEF='mercuryTimeSensorSelf' cycleInterval='200' loop='true' startTime='1'/>
		<TimeSensor DEF='venusTimeSensorSelf' cycleInterval='2000' loop='true' startTime='1'/>
		<TimeSensor DEF='marsTimeSensorSelf' cycleInterval='110' loop='true' startTime='1'/>
		<TimeSensor DEF='jupiterTimeSensorSelf' cycleInterval='40' loop='true' startTime='1'/>
		<TimeSensor DEF='saturnTimeSensorSelf' cycleInterval='50' loop='true' startTime='1'/>
		<TimeSensor DEF='neptuneTimeSensorSelf' cycleInterval='70' loop='true' startTime='1'/>
		<TimeSensor DEF='uranusTimeSensorSelf' cycleInterval='80' loop='true' startTime='1'/>
		<TimeSensor DEF='plutoTimeSensorSelf' cycleInterval='600' loop='true' startTime='1'/>

		<!-- Clouds are a little bit slower than earth -->

		<!-- Orientation Interpolators to interpolate rotation positions -->
		<OrientationInterpolator DEF='oi' key='0 0.5 1' keyValue='1 0 0 0   1 0 0 3.14   1 0 0 6.28'/>
		<OrientationInterpolator DEF='oi_earth' key='0 0.5 1' keyValue='0 1 0 0   0 1 0 3.14   0 1 0 6.28'/>
		<OrientationInterpolator DEF='oi_cloud' key='0 0.5 1' keyValue='0 1 0 0   0 1 0 3.14   0 1 0 6.28'/>
		<OrientationInterpolator DEF='oi_moon' key='0 0.5 1' keyValue='0 1 0 0   0 1 0 3.14   0 1 0 6.28'/>
		<OrientationInterpolator DEF='oi_mercury' key='0 0.5 1' keyValue='0 1 0 0   0 1 0 3.14   0 1 0 6.28'/>
		<OrientationInterpolator DEF='oi_venus' key='0 0.5 1' keyValue='0 1 0 0   0 1 0 3.14   0 1 0 6.28'/>
		<OrientationInterpolator DEF='oi_mars' key='0 0.5 1' keyValue='0 1 0 0   0 1 0 3.14   0 1 0 6.28'/>
		<OrientationInterpolator DEF='oi_jupiter' key='0 0.5 1' keyValue='0 1 0 0   0 1 0 3.14   0 1 0 6.28'/>
		<OrientationInterpolator DEF='oi_saturn' key='0 0.5 1' keyValue='0 1 0 0   0 1 0 3.14   0 1 0 6.28'/>
		<OrientationInterpolator DEF='oi_neptune' key='0 0.5 1' keyValue='0 1 0 0   0 1 0 3.14   0 1 0 6.28'/>
		<OrientationInterpolator DEF='oi_uranus' key='0 0.5 1' keyValue='0 1 0 0   0 1 0 3.14   0 1 0 6.28'/>
		<OrientationInterpolator DEF='oi_pluto' key='0 0.5 1' keyValue='0 1 0 0   0 1 0 3.14   0 1 0 6.28'/>

		<!-- Self rotation -->
		<OrientationInterpolator DEF='oi_moon_self' key='0 0.5 1' keyValue='0 1 0 0   0 1 0 3.14   0 1 0 6.28'/>
		<OrientationInterpolator DEF='oi_mercury_self' key='0 0.5 1' keyValue='0 1 0 0   0 1 0 3.14   0 1 0 6.28'/>
		<OrientationInterpolator DEF='oi_venus_self' key='0 0.5 1' keyValue='0 1 0 0   0 1 0 3.14   0 1 0 6.28'/>
		<OrientationInterpolator DEF='oi_mars_self' key='0 0.5 1' keyValue='0 1 0 0   0 1 0 3.14   0 1 0 6.28'/>
		<OrientationInterpolator DEF='oi_jupiter_self' key='0 0.5 1' keyValue='0 1 0 0   0 1 0 3.14   0 1 0 6.28'/>
		<OrientationInterpolator DEF='oi_saturn_self' key='0 0.5 1' keyValue='0 1 0 0   0 1 0 3.14   0 1 0 6.28'/>
		<OrientationInterpolator DEF='oi_neptune_self' key='0 0.5 1' keyValue='0 1 0 0   0 1 0 3.14   0 1 0 6.28'/>
		<OrientationInterpolator DEF='oi_uranus_self' key='0 0.5 1' keyValue='0 1 0 0   0 1 0 3.14   0 1 0 6.28'/>
		<OrientationInterpolator DEF='oi_pluto_self' key='0 0.5 1' keyValue='0 1 0 0   0 1 0 3.14   0 1 0 6.28'/>

		<!-- Routes to connect TimeSensors with OrientationInterpolators -->
		<ROUTE fromNode='ts' fromField='fraction_changed' toNode='oi' toField='set_fraction'/>
		<ROUTE fromNode='earthTimeSensor' fromField='fraction_changed' toNode='oi_earth' toField='set_fraction'/>
		<ROUTE fromNode='cloudTimeSensor' fromField='fraction_changed' toNode='oi_cloud' toField='set_fraction'/>
		<ROUTE fromNode='moonTimeSensor' fromField='fraction_changed' toNode='oi_moon' toField='set_fraction'/>
		<ROUTE fromNode='mercuryTimeSensor' fromField='fraction_changed' toNode='oi_mercury' toField='set_fraction'/>
		<ROUTE fromNode='venusTimeSensor' fromField='fraction_changed' toNode='oi_venus' toField='set_fraction'/>
		<ROUTE fromNode='marsTimeSensor' fromField='fraction_changed' toNode='oi_mars' toField='set_fraction'/>
		<ROUTE fromNode='jupiterTimeSensor' fromField='fraction_changed' toNode='oi_jupiter' toField='set_fraction'/>
		<ROUTE fromNode='saturnTimeSensor' fromField='fraction_changed' toNode='oi_saturn' toField='set_fraction'/>
		<ROUTE fromNode='neptuneTimeSensor' fromField='fraction_changed' toNode='oi_neptune' toField='set_fraction'/>
		<ROUTE fromNode='uranusTimeSensor' fromField='fraction_changed' toNode='oi_uranus' toField='set_fraction'/>
		<ROUTE fromNode='plutoTimeSensor' fromField='fraction_changed' toNode='oi_pluto' toField='set_fraction'/>


		<!-- Self rotation -->
		<ROUTE fromNode='moonTimeSensorSelf' fromField='fraction_changed' toNode='oi_moon_self' toField='set_fraction'/>
		<ROUTE fromNode='mercuryTimeSensorSelf' fromField='fraction_changed' toNode='oi_mercury_self' toField='set_fraction'/>
		<ROUTE fromNode='venusTimeSensorSelf' fromField='fraction_changed' toNode='oi_venus_self' toField='set_fraction'/>
		<ROUTE fromNode='marsTimeSensorSelf' fromField='fraction_changed' toNode='oi_mars_self' toField='set_fraction'/>
		<ROUTE fromNode='jupiterTimeSensorSelf' fromField='fraction_changed' toNode='oi_jupiter_self' toField='set_fraction'/>
		<ROUTE fromNode='saturnTimeSensorSelf' fromField='fraction_changed' toNode='oi_saturn_self' toField='set_fraction'/>
		<ROUTE fromNode='neptuneTimeSensorSelf' fromField='fraction_changed' toNode='oi_neptune_self' toField='set_fraction'/>
		<ROUTE fromNode='uranusTimeSensorSelf' fromField='fraction_changed' toNode='oi_uranus_self' toField='set_fraction'/>
		<ROUTE fromNode='plutoTimeSensorSelf' fromField='fraction_changed' toNode='oi_pluto_self' toField='set_fraction'/>

		<!-- Connect OrientationInterpolators with Earth, Moon Nodes etc... -->
		<ROUTE fromNode='oi_earth' fromField='value_changed' toNode='Earth' toField='set_rotation'/>
		<ROUTE fromNode='oi_cloud' fromField='value_changed' toNode='Clouds' toField='set_rotation'/>
		<ROUTE fromNode='oi_moon' fromField='value_changed' toNode='MoonOrbit' toField='set_rotation'/>
		<ROUTE fromNode='oi_mercury' fromField='value_changed' toNode='MercuryOrbit' toField='set_rotation'/>
		<ROUTE fromNode='oi_venus' fromField='value_changed' toNode='VenusOrbit' toField='set_rotation'/>
		<ROUTE fromNode='oi_mars' fromField='value_changed' toNode='MarsOrbit' toField='set_rotation'/>
		<ROUTE fromNode='oi_jupiter' fromField='value_changed' toNode='JupiterOrbit' toField='set_rotation'/>
		<ROUTE fromNode='oi_saturn' fromField='value_changed' toNode='SaturnOrbit' toField='set_rotation'/>
		<ROUTE fromNode='oi_neptune' fromField='value_changed' toNode='NeptuneOrbit' toField='set_rotation'/>
		<ROUTE fromNode='oi_uranus' fromField='value_changed' toNode='UranusOrbit' toField='set_rotation'/>
		<ROUTE fromNode='oi_pluto' fromField='value_changed' toNode='PlutoOrbit' toField='set_rotation'/>


		<!-- <ROUTE fromNode='oi_moon' fromField='value_changed' toNode='PersonOrbit' toField='set_rotation'/> -->
		<ROUTE fromNode='oi_moon' fromField='value_changed' toNode='PersonOrbit' toField='set_rotation'/>

		<!-- Self rotation -->
		<ROUTE fromNode='oi_moon_self' fromField='value_changed' toNode='Moon' toField='set_rotation'/>
		<ROUTE fromNode='oi_mercury_self' fromField='value_changed' toNode='Mercury' toField='set_rotation'/>
		<ROUTE fromNode='oi_venus_self' fromField='value_changed' toNode='Venus' toField='set_rotation'/>
		<ROUTE fromNode='oi_mars_self' fromField='value_changed' toNode='Mars' toField='set_rotation'/>
		<ROUTE fromNode='oi_jupiter_self' fromField='value_changed' toNode='Jupiter' toField='set_rotation'/>
		<ROUTE fromNode='oi_saturn_self' fromField='value_changed' toNode='Saturn' toField='set_rotation'/>
		<ROUTE fromNode='oi_neptune_self' fromField='value_changed' toNode='Neptune' toField='set_rotation'/>
		<ROUTE fromNode='oi_uranus_self' fromField='value_changed' toNode='Uranus' toField='set_rotation'/>
		<ROUTE fromNode='oi_pluto_self' fromField='value_changed' toNode='Pluto' toField='set_rotation'/>

	</Scene>
</X3D>
