<?xml version="1.0" encoding="UTF-8"?>
<!DOCTYPE X3D PUBLIC "ISO//Web3D//DTD X3D 3.0//EN" "http://www.web3d.org/specifications/x3d-3.0.dtd">
<X3D version="3.0" profile="Immersive" xmlns:xsd="http://www.w3.org/2001/XMLSchema-instance" xsd:noNamespaceSchemaLocation="http://www.web3d.org/specifications/x3d-3.0.xsd">
	<head>
		<meta name="filename" content="SolarModule.x3d" />
		<meta name="generator" content="Blender 2.79 (sub 0)" />
	</head>
	<Scene>
		<NavigationInfo headlight="true"
		                visibilityLimit="0.0"
		                type='"EXAMINE", "ANY"'
		                avatarSize="0.25, 1.75, 0.75"
		                />
		<Background DEF="WO_World"
		            groundColor="0.051 0.051 0.051"
		            skyColor="0.051 0.051 0.051"
		            />
		<Transform DEF="SC_Cyl_Top_Mid_001_TRANSFORM"
		           translation="4.545000 0.000000 -0.000000"
		           scale="0.125000 0.125000 0.035538"
		           rotation="0.577350 -0.577350 -0.577350 2.094395"
		           >
			<Transform DEF="SC_Cyl_Top_Mid_001_ifs_TRANSFORM"
			           translation="0.000000 0.000000 0.000000"
			           scale="1.000000 1.000000 1.000000"
			           rotation="1.000000 0.000000 0.000000 0.000000"
			           >
				<Group DEF="group_ME_Cylinder_010">
					<Shape>
						<Appearance>
							<ImageTexture DEF="IM_ScratchedMetall_jpg"
							              url='"ScratchedMetall.jpg" "Bilder/ScratchedMetall.jpg"'
							              />
							<TextureTransform 
							                  translation="0.000000 0.000000"
							                  scale="1.000000 1.000000"
							                  rotation="0.000000"
							                  />
							<Material DEF="MA_Metall"
							          diffuseColor="0.642 0.642 0.642"
							          specularColor="0.802 0.802 0.802"
							          emissiveColor="0.000 0.000 0.000"
							          ambientIntensity="0.333"
							          shininess="0.998"
							          transparency="0.0"
							          />
						</Appearance>
						<IndexedFaceSet solid="true" creaseAngle="3.14159"
						                coordIndex="0 1 3 2 -1 2 3 5 4 -1 4 5 7 6 -1 6 7 9 8 -1 8 9 11 10 -1 10 11 13 12 -1 5 3 1 -1 1 15 13 -1 13 11 9 -1 9 7 5 -1 5 1 13 -1 13 9 5 -1 12 13 15 14 -1 1 0 14 15 -1 14 0 2 -1 2 4 6 -1 6 8 10 -1 10 12 14 -1 14 2 6 -1 6 10 14 -1 "
						                >
							<Coordinate DEF="coords_ME_Cylinder_010"
							            point="-0.000000 1.000000 -12.803265 0.000000 1.000000 12.803265 0.707107 0.707107 -12.803265 0.707107 0.707107 12.803265 1.000000 -0.000000 -12.803265 1.000000 -0.000000 12.803265 0.707107 -0.707107 -12.803265 0.707107 -0.707107 12.803265 -0.000000 -1.000000 -12.803265 0.000000 -1.000000 12.803265 -0.707107 -0.707107 -12.803265 -0.707107 -0.707107 12.803265 -1.000000 0.000000 -12.803265 -1.000000 0.000000 12.803265 -0.707107 0.707107 -12.803265 -0.707107 0.707107 12.803265 "
							            />
						</IndexedFaceSet>
					</Shape>
				</Group>
			</Transform>
		</Transform>
		<Transform DEF="SC_Cyl_Top_TRANSFORM"
		           translation="4.040000 -0.000000 -0.000000"
		           scale="0.050000 0.050000 0.637500"
		           rotation="-0.000000 0.000000 -1.000000 1.832596"
		           >
			<Transform DEF="SC_Cyl_Top_ifs_TRANSFORM"
			           translation="0.000003 0.000000 0.000000"
			           scale="1.000000 1.000000 1.000000"
			           rotation="-0.000000 -0.000000 0.000000 0.000000"
			           >
				<Group DEF="group_ME_Cylinder_009">
					<Shape>
						<Appearance>
							<ImageTexture USE="IM_ScratchedMetall_jpg" />
							<TextureTransform 
							                  translation="0.000000 0.000000"
							                  scale="1.000000 1.000000"
							                  rotation="0.000000"
							                  />
							<Material USE="MA_Metall" />
						</Appearance>
						<IndexedFaceSet solid="true" creaseAngle="3.14159"
						                coordIndex="0 1 3 2 -1 2 3 5 4 -1 4 5 7 6 -1 6 7 9 8 -1 8 9 11 10 -1 10 11 13 12 -1 12 13 15 14 -1 14 15 17 16 -1 16 17 19 18 -1 18 19 21 20 -1 5 3 1 -1 1 23 21 -1 21 19 17 -1 17 15 13 -1 13 11 9 -1 9 7 5 -1 5 1 21 -1 21 17 13 -1 13 9 5 -1 21 13 5 -1 20 21 23 22 -1 1 0 22 23 -1 22 0 2 -1 2 4 6 -1 6 8 10 -1 10 12 14 -1 14 16 18 -1 18 20 22 -1 22 2 6 -1 6 10 14 -1 14 18 22 -1 6 14 22 -1 "
						                >
							<Coordinate DEF="coords_ME_Cylinder_009"
							            point="0.000000 1.000000 -1.999999 0.000000 1.000000 1.999999 0.500000 0.866028 -1.999999 0.500000 0.866028 1.999999 0.866026 0.500000 -1.999999 0.866026 0.500000 1.999999 1.000000 0.000000 -1.999999 1.000000 0.000000 1.999999 0.866026 -0.500000 -1.999999 0.866026 -0.500000 1.999999 0.500000 -0.866028 -1.999999 0.500000 -0.866028 1.999999 0.000000 -1.000000 -1.999999 0.000000 -1.000000 1.999999 -0.500000 -0.866028 -1.999999 -0.500000 -0.866028 1.999999 -0.866026 -0.500000 -1.999999 -0.866026 -0.500000 1.999999 -1.000000 0.000000 -1.999999 -1.000000 0.000000 1.999999 -0.866026 0.500000 -1.999999 -0.866026 0.500000 1.999999 -0.500000 0.866028 -1.999999 -0.500000 0.866028 1.999999 "
							            />
						</IndexedFaceSet>
					</Shape>
				</Group>
			</Transform>
		</Transform>
		<Transform DEF="SC_Cyl_Top_Mid_TRANSFORM"
		           translation="4.040000 0.000000 0.000000"
		           scale="0.200000 0.200000 0.050000"
		           rotation="0.577350 -0.577350 -0.577350 2.094395"
		           >
			<Transform DEF="SC_Cyl_Top_Mid_ifs_TRANSFORM"
			           translation="0.000000 0.000000 0.000000"
			           scale="1.000000 1.000000 1.000000"
			           rotation="1.000000 0.000000 0.000000 0.000000"
			           >
				<Group DEF="group_ME_Cylinder_008">
					<Shape>
						<Appearance>
							<ImageTexture USE="IM_ScratchedMetall_jpg" />
							<TextureTransform 
							                  translation="0.000000 0.000000"
							                  scale="1.000000 1.000000"
							                  rotation="0.000000"
							                  />
							<Material USE="MA_Metall" />
						</Appearance>
						<IndexedFaceSet solid="true" creaseAngle="3.14159"
						                coordIndex="0 1 3 2 -1 2 3 5 4 -1 4 5 7 6 -1 6 7 9 8 -1 8 9 11 10 -1 10 11 13 12 -1 5 3 1 -1 1 15 13 -1 13 11 9 -1 9 7 5 -1 5 1 13 -1 13 9 5 -1 12 13 15 14 -1 1 0 14 15 -1 14 0 2 -1 2 4 6 -1 6 8 10 -1 10 12 14 -1 14 2 6 -1 6 10 14 -1 "
						                >
							<Coordinate DEF="coords_ME_Cylinder_008"
							            point="0.000000 1.000000 -1.000000 0.000000 1.000000 1.000000 0.707107 0.707107 -1.000000 0.707107 0.707107 1.000000 1.000000 -0.000000 -1.000000 1.000000 -0.000000 1.000000 0.707107 -0.707107 -1.000000 0.707107 -0.707107 1.000000 -0.000000 -1.000000 -1.000000 -0.000000 -1.000000 1.000000 -0.707107 -0.707107 -1.000000 -0.707107 -0.707107 1.000000 -1.000000 0.000000 -1.000000 -1.000000 0.000000 1.000000 -0.707107 0.707107 -1.000000 -0.707107 0.707107 1.000000 "
							            />
						</IndexedFaceSet>
					</Shape>
				</Group>
			</Transform>
		</Transform>
		<Transform DEF="SC_Cyl_Bot_Mid_TRANSFORM"
		           translation="-4.040000 0.000000 0.000000"
		           scale="0.200000 0.200000 0.050000"
		           rotation="0.577350 -0.577350 -0.577350 2.094395"
		           >
			<Transform DEF="SC_Cyl_Bot_Mid_ifs_TRANSFORM"
			           translation="0.000000 0.000000 0.000000"
			           scale="1.000000 1.000000 1.000000"
			           rotation="1.000000 0.000000 0.000000 0.000000"
			           >
				<Group DEF="group_ME_Cylinder_003">
					<Shape>
						<Appearance>
							<ImageTexture USE="IM_ScratchedMetall_jpg" />
							<TextureTransform 
							                  translation="0.000000 0.000000"
							                  scale="1.000000 1.000000"
							                  rotation="0.000000"
							                  />
							<Material USE="MA_Metall" />
						</Appearance>
						<IndexedFaceSet solid="true" creaseAngle="3.14159"
						                coordIndex="0 1 3 2 -1 2 3 5 4 -1 4 5 7 6 -1 6 7 9 8 -1 8 9 11 10 -1 10 11 13 12 -1 5 3 1 -1 1 15 13 -1 13 11 9 -1 9 7 5 -1 5 1 13 -1 13 9 5 -1 12 13 15 14 -1 1 0 14 15 -1 14 0 2 -1 2 4 6 -1 6 8 10 -1 10 12 14 -1 14 2 6 -1 6 10 14 -1 "
						                >
							<Coordinate DEF="coords_ME_Cylinder_003"
							            point="0.000000 1.000000 -1.000000 0.000000 1.000000 1.000000 0.707107 0.707107 -1.000000 0.707107 0.707107 1.000000 1.000000 -0.000000 -1.000000 1.000000 -0.000000 1.000000 0.707107 -0.707107 -1.000000 0.707107 -0.707107 1.000000 -0.000000 -1.000000 -1.000000 -0.000000 -1.000000 1.000000 -0.707107 -0.707107 -1.000000 -0.707107 -0.707107 1.000000 -1.000000 0.000000 -1.000000 -1.000000 0.000000 1.000000 -0.707107 0.707107 -1.000000 -0.707107 0.707107 1.000000 "
							            />
						</IndexedFaceSet>
					</Shape>
				</Group>
			</Transform>
		</Transform>
		<Transform DEF="SC_Cyl_Bot_TRANSFORM"
		           translation="-4.040000 0.000000 0.000000"
		           scale="0.050000 0.050000 0.637500"
		           rotation="-0.000000 0.000000 -1.000000 1.832596"
		           >
			<Transform DEF="SC_Cyl_Bot_ifs_TRANSFORM"
			           translation="-0.000002 -0.000000 -0.000000"
			           scale="1.000000 1.000000 1.000000"
			           rotation="-0.000000 -0.000000 0.000000 0.000000"
			           >
				<Group DEF="group_ME_Cylinder_001">
					<Shape>
						<Appearance>
							<ImageTexture USE="IM_ScratchedMetall_jpg" />
							<TextureTransform 
							                  translation="0.000000 0.000000"
							                  scale="1.000000 1.000000"
							                  rotation="0.000000"
							                  />
							<Material USE="MA_Metall" />
						</Appearance> 
						<IndexedFaceSet solid="true" creaseAngle="3.14159"
						                coordIndex="0 1 3 2 -1 2 3 5 4 -1 4 5 7 6 -1 6 7 9 8 -1 8 9 11 10 -1 10 11 13 12 -1 12 13 15 14 -1 14 15 17 16 -1 16 17 19 18 -1 18 19 21 20 -1 5 3 1 -1 1 23 21 -1 21 19 17 -1 17 15 13 -1 13 11 9 -1 9 7 5 -1 5 1 21 -1 21 17 13 -1 13 9 5 -1 21 13 5 -1 20 21 23 22 -1 1 0 22 23 -1 22 0 2 -1 2 4 6 -1 6 8 10 -1 10 12 14 -1 14 16 18 -1 18 20 22 -1 22 2 6 -1 6 10 14 -1 14 18 22 -1 6 14 22 -1 "
						                >
							<Coordinate DEF="coords_ME_Cylinder_001"
							            point="0.000002 0.999992 -1.999999 0.000002 0.999992 1.999999 0.500002 0.866020 -1.999999 0.500002 0.866020 1.999999 0.866028 0.499992 -1.999999 0.866028 0.499992 1.999999 1.000002 -0.000008 -1.999999 1.000002 -0.000008 1.999999 0.866028 -0.500008 -1.999999 0.866028 -0.500008 1.999999 0.500002 -0.866035 -1.999999 0.500002 -0.866035 1.999999 0.000002 -1.000008 -1.999999 0.000002 -1.000008 1.999999 -0.499998 -0.866035 -1.999999 -0.499998 -0.866035 1.999999 -0.866024 -0.500008 -1.999999 -0.866024 -0.500008 1.999999 -0.999998 -0.000008 -1.999999 -0.999998 -0.000008 1.999999 -0.866024 0.499992 -1.999999 -0.866024 0.499992 1.999999 -0.499998 0.866020 -1.999999 -0.499998 0.866020 1.999999 "
							            />
						</IndexedFaceSet>
					</Shape>
				</Group>
			</Transform>
		</Transform>
		<Transform DEF="SC_Mid_TRANSFORM"
		           translation="0.010968 0.000000 0.000000"
		           scale="0.145086 0.145086 0.231618"
		           rotation="0.577350 -0.577350 -0.577350 2.094395"
		           >
			<Transform DEF="SC_Mid_ifs_TRANSFORM"
			           translation="0.000000 0.000000 0.000000"
			           scale="1.000000 1.000000 1.000000"
			           rotation="0.000000 -0.000000 0.000000 0.000000"
			           >
				<Group DEF="group_ME_Cylinder">
					<Shape>
						<Appearance>
							<ImageTexture USE="IM_ScratchedMetall_jpg" />
							<TextureTransform 
							                  translation="0.000000 0.000000"
							                  scale="1.000000 1.000000"
							                  rotation="0.000000"
							                  />
							<Material USE="MA_Metall" />
						</Appearance>
						<IndexedFaceSet solid="true" creaseAngle="3.14159"
						                coordIndex="2 0 48 49 -1 49 48 1 3 -1 49 50 6 2 -1 50 49 3 7 -1 50 51 4 6 -1 51 50 7 5 -1 0 4 51 48 -1 48 51 5 1 -1 52 53 6 4 -1 53 52 5 7 -1 53 54 10 6 -1 54 53 7 11 -1 54 55 8 10 -1 55 54 11 9 -1 55 52 4 8 -1 52 55 9 5 -1 56 57 10 8 -1 57 56 9 11 -1 57 58 14 10 -1 58 57 11 15 -1 58 59 12 14 -1 59 58 15 13 -1 59 56 8 12 -1 56 59 13 9 -1 60 61 14 12 -1 61 60 13 15 -1 61 62 18 14 -1 62 61 15 19 -1 62 63 16 18 -1 63 62 19 17 -1 63 60 12 16 -1 60 63 17 13 -1 64 65 18 16 -1 65 64 17 19 -1 65 66 22 18 -1 66 65 19 23 -1 66 67 20 22 -1 67 66 23 21 -1 67 64 16 20 -1 64 67 21 17 -1 68 69 22 20 -1 69 68 21 23 -1 69 70 26 22 -1 70 69 23 27 -1 70 71 24 26 -1 71 70 27 25 -1 71 68 20 24 -1 68 71 25 21 -1 72 73 26 24 -1 73 72 25 27 -1 73 74 30 26 -1 74 73 27 31 -1 74 75 28 30 -1 75 74 31 29 -1 75 72 24 28 -1 72 75 29 25 -1 76 77 30 28 -1 77 76 29 31 -1 77 78 34 30 -1 78 77 31 35 -1 78 79 32 34 -1 79 78 35 33 -1 79 76 28 32 -1 76 79 33 29 -1 80 81 34 32 -1 81 80 33 35 -1 81 82 38 34 -1 82 81 35 39 -1 82 83 36 38 -1 83 82 39 37 -1 83 80 32 36 -1 80 83 37 33 -1 84 85 38 36 -1 85 84 37 39 -1 85 86 42 38 -1 86 85 39 43 -1 86 87 40 42 -1 87 86 43 41 -1 87 84 36 40 -1 84 87 41 37 -1 88 89 2 6 -1 89 88 7 3 -1 89 90 46 2 -1 90 89 3 47 -1 90 91 42 46 -1 91 90 47 43 -1 91 92 38 42 -1 92 91 43 39 -1 92 93 34 38 -1 93 92 39 35 -1 93 94 30 34 -1 94 93 35 31 -1 94 95 26 30 -1 95 94 31 27 -1 95 96 22 26 -1 96 95 27 23 -1 96 97 18 22 -1 97 96 23 19 -1 97 98 14 18 -1 98 97 19 15 -1 98 99 10 14 -1 99 98 15 11 -1 99 88 6 10 -1 88 99 11 7 -1 100 101 42 40 -1 101 100 41 43 -1 101 102 46 42 -1 102 101 43 47 -1 102 103 44 46 -1 103 102 47 45 -1 103 100 40 44 -1 100 103 45 41 -1 104 105 46 44 -1 105 104 45 47 -1 105 106 2 46 -1 106 105 47 3 -1 0 2 106 107 -1 107 106 3 1 -1 44 0 107 104 -1 104 107 1 45 -1 4 0 108 109 -1 109 108 1 5 -1 109 110 8 4 -1 110 109 5 9 -1 110 111 12 8 -1 111 110 9 13 -1 111 112 16 12 -1 112 111 13 17 -1 112 113 20 16 -1 113 112 17 21 -1 113 114 24 20 -1 114 113 21 25 -1 114 115 28 24 -1 115 114 25 29 -1 115 116 32 28 -1 116 115 29 33 -1 116 117 36 32 -1 117 116 33 37 -1 117 118 40 36 -1 118 117 37 41 -1 118 119 44 40 -1 119 118 41 45 -1 0 44 119 108 -1 108 119 45 1 -1 "
						                >
							<Coordinate DEF="coords_ME_Cylinder"
							            point="-0.000001 0.952329 -17.190042 -0.000001 1.044775 -17.269800 0.000001 0.952329 17.190042 0.000001 1.044775 17.269800 0.476164 0.824740 -17.190042 0.522385 0.904803 -17.269800 0.476167 0.824740 17.190042 0.522388 0.904803 17.269800 0.824739 0.476166 -17.190042 0.904802 0.522387 -17.269800 0.824741 0.476166 17.190042 0.904804 0.522387 17.269800 0.952328 0.000000 -17.190042 1.044774 0.000000 -17.269800 0.952330 0.000000 17.190042 1.044776 0.000000 17.269800 0.824738 -0.476165 -17.190042 0.904802 -0.522386 -17.269800 0.824741 -0.476165 17.190042 0.904804 -0.522386 17.269800 0.476164 -0.824739 -17.190042 0.522386 -0.904803 -17.269800 0.476167 -0.824739 17.190042 0.522388 -0.904803 17.269800 -0.000001 -0.952329 -17.190042 -0.000001 -1.044775 -17.269800 0.000001 -0.952329 17.190042 0.000001 -1.044775 17.269800 -0.476166 -0.824740 -17.190042 -0.522388 -0.904803 -17.269800 -0.476164 -0.824740 17.190042 -0.522385 -0.904803 17.269800 -0.824741 -0.476166 -17.190042 -0.904804 -0.522387 -17.269800 -0.824738 -0.476166 17.190042 -0.904802 -0.522387 17.269800 -0.952330 -0.000000 -17.190042 -1.044776 -0.000000 -17.269800 -0.952328 -0.000000 17.190042 -1.044774 -0.000000 17.269800 -0.824741 0.476165 -17.190042 -0.904805 0.522386 -17.269800 -0.824739 0.476165 17.190042 -0.904802 0.522386 17.269800 -0.476167 0.824740 -17.190042 -0.522388 0.904803 -17.269800 -0.476165 0.824740 17.190042 -0.522386 0.904803 17.269800 0.058969 0.982751 -17.168871 0.058971 0.982751 17.168871 0.440308 0.880572 17.168871 0.440305 0.880572 -17.168871 0.542444 0.821603 -17.168871 0.542446 0.821603 17.168871 0.821604 0.542445 17.168871 0.821601 0.542445 -17.168871 0.880571 0.440306 -17.168871 0.880574 0.440306 17.168871 0.982752 0.058970 17.168871 0.982750 0.058970 -17.168871 0.982750 -0.058970 -17.168871 0.982752 -0.058970 17.168871 0.880574 -0.440306 17.168871 0.880571 -0.440306 -17.168871 0.821601 -0.542445 -17.168871 0.821604 -0.542445 17.168871 0.542446 -0.821602 17.168871 0.542444 -0.821602 -17.168871 0.440305 -0.880572 -17.168871 0.440308 -0.880572 17.168871 0.058971 -0.982751 17.168871 0.058969 -0.982751 -17.168871 -0.058971 -0.982751 -17.168871 -0.058968 -0.982751 17.168871 -0.440305 -0.880572 17.168871 -0.440307 -0.880572 -17.168871 -0.542446 -0.821602 -17.168871 -0.542443 -0.821602 17.168871 -0.821601 -0.542445 17.168871 -0.821603 -0.542445 -17.168871 -0.880573 -0.440306 -17.168871 -0.880571 -0.440306 17.168871 -0.982750 -0.058970 17.168871 -0.982752 -0.058970 -17.168871 -0.982752 0.058969 -17.168871 -0.982750 0.058969 17.168871 -0.880571 0.440306 17.168871 -0.880574 0.440306 -17.168871 0.467676 0.810036 17.229921 0.000001 0.935349 17.229921 -0.467674 0.810035 17.229921 -0.810034 0.467674 17.229921 -0.935347 -0.000000 17.229921 -0.810034 -0.467674 17.229921 -0.467673 -0.810035 17.229921 0.000001 -0.935348 17.229921 0.467676 -0.810035 17.229921 0.810037 -0.467674 17.229921 0.935350 0.000000 17.229921 0.810037 0.467674 17.229921 -0.821604 0.542445 -17.168871 -0.821602 0.542445 17.168871 -0.542444 0.821602 17.168871 -0.542447 0.821602 -17.168871 -0.440308 0.880572 -17.168871 -0.440306 0.880572 17.168871 -0.058968 0.982751 17.168871 -0.058971 0.982751 -17.168871 -0.000001 0.935349 -17.229921 0.467673 0.810036 -17.229921 0.810034 0.467674 -17.229921 0.935347 0.000000 -17.229921 0.810034 -0.467674 -17.229921 0.467673 -0.810035 -17.229921 -0.000001 -0.935348 -17.229921 -0.467675 -0.810035 -17.229921 -0.810036 -0.467674 -17.229921 -0.935350 -0.000000 -17.229921 -0.810037 0.467674 -17.229921 -0.467676 0.810035 -17.229921 "
							            />
						</IndexedFaceSet>
					</Shape>
				</Group>
			</Transform>
		</Transform>
		<Transform DEF="SC_1_TRANSFORM"
		           translation="0.000000 0.000000 -0.750000"
		           scale="3.999998 0.500000 0.012500"
		           rotation="0.000000 0.707107 0.707107 3.141593"
		           >
			<Transform DEF="SC_1_ifs_TRANSFORM"
			           translation="-0.000000 0.000000 0.000000"
			           scale="1.000000 1.000000 1.000000"
			           rotation="1.000000 0.000000 0.000000 0.000000"
			           >
				<Group DEF="group_ME_Cube_004">
					<Shape>
						<Appearance>
							<ImageTexture DEF="IM_SolarCell_jpg"
							              url='"SolarCell.jpg" "Bilder/SolarCell.jpg"'
							              />
							<TextureTransform 
							                  translation="0.000000 0.000000"
							                  scale="1.000000 8.000000"
							                  rotation="0.000000"
							                  />
							<Material DEF="MA_Material"
							          diffuseColor="0.800 0.800 0.800"
							          specularColor="0.802 0.802 0.802"
							          emissiveColor="0.000 0.000 0.000"
							          ambientIntensity="0.333"
							          shininess="0.631"
							          transparency="0.0"
							          />
						</Appearance>
						<IndexedFaceSet solid="true" creaseAngle="3.14159"
						                coordIndex="0 1 2 3 -1 4 7 6 5 -1 0 4 5 1 -1 1 5 6 2 -1 2 6 7 3 -1 4 0 3 7 -1 "
						                >
							<Coordinate DEF="coords_ME_Cube_004"
							            point="1.000000 1.000000 -1.000000 1.000000 -1.000000 -1.000000 -1.000000 -1.000000 -1.000000 -1.000000 1.000000 -1.000000 1.000000 1.000000 1.000000 0.999999 -1.000001 1.000000 -1.000000 -1.000000 1.000000 -1.000000 1.000000 1.000000 "
							            />
						</IndexedFaceSet>
					</Shape>
				</Group>
			</Transform>
		</Transform>
		<Transform DEF="SC_2_TRANSFORM"
		           translation="0.000000 0.000000 0.750000"
		           scale="3.999998 0.500000 0.012500"
		           rotation="0.000000 0.707107 0.707107 3.141593"
		           >
			<Transform DEF="SC_2_ifs_TRANSFORM"
			           translation="-0.000000 0.000000 0.000000"
			           scale="1.000000 1.000000 1.000000"
			           rotation="1.000000 0.000000 0.000000 0.000000"
			           >
				<Group DEF="group_ME_Cube_002">
					<Shape>
						<Appearance>
							<ImageTexture USE="IM_SolarCell_jpg" />
							<TextureTransform 
							                  translation="0.000000 0.000000"
							                  scale="1.000000 8.000000"
							                  rotation="0.000000"
							                  />
							<Material USE="MA_Material" />
						</Appearance>
						<IndexedFaceSet solid="true" creaseAngle="3.14159"
						                coordIndex="0 1 2 3 -1 4 7 6 5 -1 0 4 5 1 -1 1 5 6 2 -1 2 6 7 3 -1 4 0 3 7 -1 "
						                >
							<Coordinate DEF="coords_ME_Cube_002"
							            point="1.000000 1.000000 -1.000000 1.000000 -1.000000 -1.000000 -1.000000 -1.000000 -1.000000 -1.000000 1.000000 -1.000000 1.000000 1.000000 1.000000 0.999999 -1.000001 1.000000 -1.000000 -1.000000 1.000000 -1.000000 1.000000 1.000000 "
							            />
						</IndexedFaceSet>
					</Shape>
				</Group>
			</Transform>
		</Transform>
	</Scene>
</X3D>