<?xml version="1.0" encoding="UTF-8"?>
<X3D>
  <Scene>
    <DirectionalLight DEF="light" intensity="1" direction="0 -1 0" color="1.0 1.0 1.0" on="false" />
    <!--<PointLight DEF="greenpoint" on='false' intensity='0.9000' color='0.0 1.0 0.0' location='0 0.5 0.5 ' radius='5.0000' />-->

<!--<PointLight DEF="redpoint" on='false' intensity='0.9000' color='1.0 0.0 0.0' location='0 0.5 0.5 ' radius='5.0000' />-->

    <!-- Lampenfuß -->
    <Transform DEF="basis" >
      <Shape>
        <Cylinder height="0.1" radius="0.5"/>
        <Appearance>
          <Material diffuseColor="0.8 0.8 0.8" />
        </Appearance>
      </Shape>
    </Transform>

    <!-- Lampenhals -->
    <Transform DEF="Basis2" translation="0 0.5 0">
      <Shape>
        <Cylinder height="0.8" radius="0.1"/>
        <Appearance>
          <Material diffuseColor="0.8 0.8 0.8" />
        </Appearance>
      </Shape>
    </Transform>

    <!-- Leuchtmittel -->
    <Transform translation="0 1 0" DEF="ball_transform">
      <Group>
        <TouchSensor DEF="touch" description="Bitte drueberfahren!" />
        <!-- to move the center in the world -->
        <Inline DEF="Kugel" url="Kugel.x3d" />
      </Group>
    </Transform>

    <!--
    <TimeSensor DEF='time' cycleInterval='2' loop="true"/>
    <PositionInterpolator DEF='move' key='0 0.1 0.5 0.7 1' keyValue='0 1 0  0 1.2 0  0 1 0  0 1.5 0  0 1 0'/>
    <ROUTE fromNode="time" fromField ="fraction_changed" toNode="move" toField="set_fraction" />
	  <ROUTE fromNode="move" fromField ="value_changed" toNode="ball_transform" toField="translation" /> -->



    <!-- ===== open the door ===== -->
    <TimeSensor DEF='ClockNumber1' cycleInterval='2'/>
    <!-- ClockNumber1 is started when the user clicks in the ball -->
    <ROUTE fromNode='touch' fromField='touchTime' toNode='ClockNumber1' toField='startTime'/>
    <!-- disable ClockNumber1 by turning itself off when complete -->
    <ROUTE fromNode='ClockNumber1' fromField='isActive' toNode='ClockNumber1' toField='enabled'/>

    <!-- ClockNumber1 triggers the PositionInterpolator which moves the ball upwards -->
    <PositionInterpolator DEF='move_up' key='0 0.5 1' keyValue='0 1 0   0 1.5 0   0 1 0'/>
    <ROUTE fromNode='ClockNumber1' fromField='fraction_changed' toNode='move_up' toField='set_fraction'/>
    <ROUTE fromNode='move_up' fromField='value_changed' toNode='ball_transform' toField='translation'/>

s

    <!-- ===== door is now open ===== -->
    <!-- get move up finished event and route it to the MoveUpComplete BooleanFilter -->
    <BooleanFilter DEF='MoveUpComplete' />
    <ROUTE fromNode='ClockNumber1' fromField='isActive' toNode='MoveUpComplete' toField='set_boolean'/>

    <!-- ===== shut the door ===== -->
    <TimeSensor DEF='ClockNumber2' cycleInterval='2' enabled='false'/>
    <!-- ClockNumber1 is started when the user clicks in the ball, but only if it is enabled when the door is open -->
    <ROUTE fromNode='touch' fromField='touchTime' toNode='ClockNumber2' toField='startTime'/>
    <!-- enable ClockNumber2 once door is fully open -->
    <ROUTE fromNode='MoveUpComplete' fromField='inputFalse' toNode='ClockNumber2' toField='enabled'/>
    <!-- disable ClockNumber2 by turning itself off when complete -->
    <ROUTE fromNode='ClockNumber2' fromField='isActive' toNode='ClockNumber2' toField='enabled'/>

    <!-- Reverse ClockNumber1 with ClockNumber2 -->
    <ScalarInterpolator DEF='ClockReversal' key='0 1' keyValue='1 0'/>
    <ROUTE fromNode='ClockNumber2' fromField='fraction_changed' toNode='ClockReversal' toField='set_fraction'/>
    <!--<ROUTE fromNode='ClockReversal' fromField='value_changed' toNode='move_up' toField='set_fraction'/>-->

    <!-- enable ClockNumber1 when door is fully shut -->
    <BooleanTrigger DEF='Clock3CompleteTrigger' />
    <ROUTE fromNode='ClockNumber2' fromField='stopTime' toNode='Clock3CompleteTrigger' toField='set_triggerTime'/>
    <!--<ROUTE fromNode="Clock3CompleteTrigger" fromField="triggerTrue" toNode="ClockNumber1" toField="enabled" />-->


  </Scene>
</X3D>
