<?xml version="1.0" encoding="UTF-8"?>
<!-- https://x3dgraphics.com/examples/X3dForWebAuthors/Chapter07EventAnimationInterpolation/TimeSensorChainingIndex.html -->
<X3D>
  <Scene>
    <DirectionalLight DEF="light" intensity="1" direction="0 -1 0" color="1.0 1.0 1.0" on="false" />
    <!--<PointLight DEF="greenpoint" on='false' intensity='0.9000' color='0.0 1.0 0.0' location='0 0.5 0.5 ' radius='5.0000' />-->

    <!--<PointLight DEF="redpoint" on='false' intensity='0.9000' color='1.0 0.0 0.0' location='0 0.5 0.5 ' radius='5.0000' />-->

    <!-- Lampenfuß -->
    <Transform DEF="basis" >
      <Shape>
        <Cylinder height="0.1" radius="0.5"/>
        <Appearance>
          <Material diffuseColor="0.8 0.8 0.8" />
        </Appearance>
      </Shape>
    </Transform>

    <!-- Lampenhals -->
    <Transform DEF="Basis2" translation="0 0.5 0">
      <Shape>
        <Cylinder height="0.8" radius="0.1"/>
        <Appearance>
          <Material diffuseColor="0.8 0.8 0.8" />
        </Appearance>
      </Shape>
    </Transform>

    <!-- Leuchtmittel -->
    <Transform translation="0 1 0">
      <Group>
        <TouchSensor DEF="touch" description="Bitte drueberfahren!" />
        <!-- to move the center in the world -->
        <Inline DEF="Kugel" url="Kugel.x3d" />
      </Group>
    </Transform>

    <!-- turn dircational light on if user hovers the ball -->
    <!--<ROUTE fromField="isOver" fromNode="touch" toField="set_on" toNode="light" />-->

    <!-- Toggle green Pointlight on and off -->
    <BooleanToggle DEF="isOverToggler" toggle="false" />
    <ROUTE fromNode="touch" fromField="isOver" toNode="isOverToggler" toField="set_boolean" />
    <ROUTE fromNode="isOverToggler" fromField="toggle_changed" toNode="greenpoint" toField="set_on" />

    <!-- Turn red Pointlight off if is Over and vice versa -->
    <!-- boo filter as boolean negator -->
    <BooleanFilter DEF="booFilter" />
    <ROUTE fromNode="touch" fromField="isOver" toNode="booFilter" toField="set_boolean" />
    <ROUTE fromNode="booFilter" fromField="inputNegate" toNode="redpoint" toField="set_on" />

    <!-- toggle light every two seconds -->
    <TimeSensor DEF='TIME' cycleInterval='0.5' loop="true" startTime="1" />
    <BooleanSequencer DEF="halfTimeOn" key="0 0.5 1" keyValue="true false true" />
    <ROUTE fromNode="TIME" fromField="fraction_changed" toNode="halfTimeOn" toField="set_fraction" />
    <ROUTE fromNode="halfTimeOn" fromField="value_changed" toNode="light" toField="set_on" />

    <!-- toggle flashing on and off -->
    <!-- Remember switching state here -->
    <BooleanToggle DEF="activeToggler" toggle="false" />
    <ROUTE fromNode='touch' fromField='isActive' toNode='activeToggler' toField='set_boolean'/>

    <!-- BooleanFilter getting all Events from aktiveToggler -->
    <BooleanFilter DEF='Tee' />
    <ROUTE fromNode='activeToggler' fromField='toggle_changed' toNode='Tee' toField='set_boolean'/>

    <!-- time trigger catches only true-events from activeToggler & fires the current time at this event to the TimeSensor "TIME" -->
    <TimeTrigger DEF='PauseOn' />
    <ROUTE fromNode='Tee' fromField='inputTrue' toNode='PauseOn' toField='set_boolean'/>

    <!-- time trigger catches only false-events from activeToggler -->
    <TimeTrigger DEF='PauseOff' />
    <ROUTE fromNode='Tee' fromField='inputFalse' toNode='PauseOff' toField='set_boolean'/>

    <!-- pausing & resuming the TimeSensor "TIME" -->
    <ROUTE fromNode='PauseOn' fromField='triggerTime' toNode='TIME' toField='pauseTime'/>
    <ROUTE fromNode='PauseOff' fromField='triggerTime' toNode='TIME' toField='resumeTime'/>


    <!-- ProximitySensor -->
    <!--<ProximitySensor DEF='PROX_SENSOR' size='200 200 200' center='0 1 0' />-->
    <!-- cycleInterval='2' only if loop='true'-->

    <!-- delay  -->
  </Scene>
</X3D>
