<?xml version="1.0" encoding="UTF-8"?>
<!DOCTYPE X3D PUBLIC "ISO//Web3D//DTD X3D 3.0//EN" "http://www.web3d.org/specifications/x3d-3.0.dtd">
<X3D version="3.0" profile="Immersive" xmlns:xsd="http://www.w3.org/2001/XMLSchema-instance" xsd:noNamespaceSchemaLocation="http://www.web3d.org/specifications/x3d-3.0.xsd">
	<head>
		<meta name="filename" content="Neptune.x3d" />
	</head>
	<Scene>

		<Shape>
			<Sphere radius="1"/>
				<Appearance>
					<Material
							diffuseColor="1 1 1"
							ambientIntensity="0.3"
							shininess="0.0"
						/>

					<!-- <CommonSurfaceShader diffuseFacor='1 1 1' >
						<ImageTexture containerField='diffuseTexture' url="Bilder\\Erde\\SurfaceEarth.jpg"></ImageTexture>
						<ImageTexture containerField='normalTexture' url='Bilder\\Erde\\BumpEarth.png'></ImageTexture>
					</CommonSurfaceShader> -->

					<ImageTexture url='Bilder/Neptune.jpg' />
					
					
				</Appearance>
		</Shape>

		
	</Scene>
</X3D>